<?xml version="1.0" encoding="utf-8"?>
<COLLADA xmlns="http://www.collada.org/2005/11/COLLADASchema" version="1.4.0">
  <asset>
    <contributor>
      <author>jens</author>
      <authoring_tool>Maya 7.0 | ColladaMaya v0.87</authoring_tool>
      <comments>Collada Maya Export Options: bakeTransforms=0;exportPolygonMeshes=1;bakeLighting=0;isSampling=0;
curveConstrainSampling=0;exportCameraAsLookat=0;relativePaths=0;
exportLights=1;exportCameras=1;exportJointsAndSkin=1;
exportAnimations=1;exportTriangles=1;exportInvisibleNodes=0;
exportNormals=1;exportTexCoords=1;exportVertexColors=1;exportTangents=0;
exportTexTangents=0;exportConstraints=1;exportPhysics=1;exportXRefs=1;
dereferenceXRefs=0;cameraXFov=0;cameraYFov=1</comments>
      <source_data>file://C|/Documents and Settings/jens/Desktop/penumbra/_work_models/furniture/chair_thin/furniture_chair_thin01.mb</source_data>
    </contributor>
    <created>2006-03-20T16:14:26Z</created>
    <modified>2006-03-20T16:14:26Z</modified>
    <unit name="meter" meter="1.000000"/>
    <up_axis>Y_UP</up_axis>
  </asset>
  <library_images>
    <image id="Map__5-image" name="Map__5">
      <init_from>file://C|/Documents and Settings/jens/Desktop/penumbra/_work_models/_thomas_max_export/furniture_chair_thin01.jpg</init_from>
    </image>
  </library_images>
  <library_materials>
    <material id="_09___Default" name="_09___Default">
      <instance_effect url="#_09___Default-fx"/>
    </material>
    <material id="lambert1" name="lambert1">
      <instance_effect url="#lambert1-fx"/>
    </material>
  </library_materials>
  <library_effects>
    <effect id="_09___Default-fx" name="_09___Default">
      <profile_COMMON>
        <technique sid="standard">
          <phong>
            <emission>
              <color sid="emission">0 0 0 1.000000</color>
            </emission>
            <ambient>
              <color sid="ambient">0.588235 0.588235 0.588235 1.000000</color>
            </ambient>
            <diffuse>
              <texture texture="Map__5-image" texcoord="UVSET0">
                <extra>
                  <technique profile="MAYA">
                    <blend_mode>NONE</blend_mode>
                  </technique>
                </extra>
              </texture>
            </diffuse>
            <specular>
              <color sid="specular">0 0 0 1.000000</color>
            </specular>
            <shininess>
              <float sid="shininess">10.000000</float>
            </shininess>
            <reflective>
              <color sid="reflective">0 0 0 1.000000</color>
            </reflective>
            <reflectivity>
              <float sid="reflectivity">1.000000</float>
            </reflectivity>
            <transparent>
              <color sid="transparent">0 0 0 1.000000</color>
            </transparent>
            <transparency>
              <float>1</float>
            </transparency>
          </phong>
        </technique>
      </profile_COMMON>
    </effect>
    <effect id="lambert1-fx" name="lambert1">
      <profile_COMMON>
        <technique sid="standard">
          <lambert>
            <emission>
              <color sid="emission">0 0 0 1.000000</color>
            </emission>
            <ambient>
              <color sid="ambient">0 0 0 1.000000</color>
            </ambient>
            <diffuse>
              <color sid="diffuse">0.500000 0.500000 0.500000 1.000000</color>
            </diffuse>
            <transparent>
              <color sid="transparent">0 0 0 1.000000</color>
            </transparent>
            <transparency>
              <float>1</float>
            </transparency>
          </lambert>
        </technique>
      </profile_COMMON>
    </effect>
  </library_effects>
  <library_geometries>
    <geometry id="_furniture_chair_thin01_furniture_chair_thin01-lib" name="furniture_chair_thin01">
      <mesh>
        <source id="_furniture_chair_thin01_furniture_chair_thin01-lib-Position">
          <float_array count="864" id="_furniture_chair_thin01_furniture_chair_thin01-lib-Position-array">
0.138506 -0.056462 0.124637
-0.146199 -0.053903 0.130843
-0.148754 -0.047729 0.133416
-0.146195 -0.041555 0.130843
-0.140027 -0.038996 0.124636
-0.133860 -0.041555 0.118430
-0.131305 -0.047729 0.115857
-0.133864 -0.053903 0.118430
-0.140032 -0.056462 0.124637
-0.146420 -0.053842 -0.129092
-0.148973 -0.047668 -0.123643
-0.146405 -0.041496 -0.117486
-0.140227 -0.038938 -0.114224
-0.134056 -0.041499 -0.115775
-0.131504 -0.047673 -0.121223
-0.134071 -0.053845 -0.127381
-0.140249 -0.056403 -0.130643
-0.110473 0.249928 -0.146392
-0.116844 0.251176 -0.144775
-0.120199 0.251961 -0.139049
-0.118568 0.251823 -0.132564
-0.112912 0.250842 -0.129119
-0.106540 0.249594 -0.130736
-0.103185 0.248809 -0.136462
-0.104816 0.248948 -0.142947
-0.106518 0.264867 -0.146391
-0.112701 0.266927 -0.144780
-0.115990 0.268024 -0.139057
-0.114454 0.267515 -0.132571
-0.108999 0.265699 -0.129120
-0.102816 0.263640 -0.130730
-0.099527 0.262543 -0.136453
-0.101063 0.263052 -0.142940
-0.100047 0.278213 -0.146391
-0.105454 0.281991 -0.144780
-0.108330 0.284004 -0.139057
-0.106986 0.283067 -0.132571
-0.102214 0.279734 -0.129120
-0.096807 0.275955 -0.130730
-0.093931 0.273943 -0.136453
-0.095275 0.274880 -0.142940
-0.088417 0.289118 -0.146391
-0.091897 0.294739 -0.144780
-0.093748 0.297731 -0.139057
-0.092882 0.296336 -0.132571
-0.089809 0.291377 -0.129120
-0.086329 0.285756 -0.130730
-0.084478 0.282764 -0.136453
-0.085344 0.284159 -0.142940
-0.068735 0.296614 -0.146391
-0.070125 0.303012 -0.144780
-0.070862 0.306416 -0.139057
-0.070515 0.304827 -0.132571
-0.069288 0.299183 -0.129120
-0.067899 0.292785 -0.130730
-0.067161 0.289380 -0.136453
-0.067508 0.290968 -0.142940
-0.038131 0.299414 -0.146391
-0.038145 0.305907 -0.144780
-0.038151 0.309362 -0.139057
-0.038146 0.307749 -0.132571
-0.038132 0.302020 -0.129120
-0.038118 0.295527 -0.130730
-0.038112 0.292072 -0.136453
-0.038117 0.293684 -0.142940
0.039443 0.305904 -0.144780
0.039447 0.309357 -0.139057
0.039445 0.307745 -0.132571
0.039439 0.302019 -0.129120
0.039433 0.295529 -0.130730
0.039429 0.292076 -0.136453
0.039431 0.293688 -0.142940
0.039437 0.299414 -0.146391
0.144673 -0.053903 0.130843
0.147228 -0.047729 0.133416
0.144670 -0.041555 0.130843
0.138501 -0.038996 0.124636
0.132335 -0.041555 0.118430
0.129779 -0.047729 0.115857
0.132338 -0.053903 0.118430
0.144895 -0.053842 -0.129092
0.147447 -0.047668 -0.123643
0.144879 -0.041496 -0.117486
0.138701 -0.038938 -0.114224
0.132530 -0.041499 -0.115775
0.129978 -0.047673 -0.121223
0.132545 -0.053845 -0.127381
0.138723 -0.056403 -0.130643
0.111917 0.249928 -0.146392
0.118288 0.251176 -0.144775
0.121643 0.251961 -0.139049
0.120012 0.251823 -0.132564
0.114355 0.250842 -0.129119
0.107984 0.249594 -0.130736
0.104629 0.248809 -0.136462
0.106260 0.248948 -0.142947
0.107962 0.264867 -0.146391
0.114145 0.266927 -0.144781
0.117434 0.268024 -0.139057
0.115898 0.267515 -0.132571
0.110443 0.265699 -0.129120
0.104260 0.263640 -0.130730
0.100971 0.262543 -0.136453
0.102507 0.263052 -0.142940
0.101490 0.278213 -0.146391
0.106897 0.281992 -0.144781
0.109773 0.284004 -0.139057
0.108430 0.283067 -0.132571
0.103658 0.279734 -0.129120
0.098251 0.275955 -0.130730
0.095375 0.273943 -0.136453
0.096719 0.274880 -0.142940
0.089860 0.289118 -0.146391
0.093341 0.294739 -0.144781
0.095191 0.297731 -0.139057
0.094325 0.296336 -0.132571
0.091253 0.291377 -0.129120
0.087773 0.285756 -0.130730
0.085922 0.282764 -0.136453
0.086788 0.284159 -0.142940
0.070179 0.296614 -0.146391
0.071568 0.303012 -0.144781
0.072306 0.306416 -0.139057
0.071959 0.304827 -0.132571
0.070732 0.299183 -0.129120
0.069342 0.292785 -0.130730
0.068605 0.289380 -0.136453
0.068952 0.290968 -0.142940
-0.121494 0.198033 -0.123204
0.117137 0.203324 -0.128375
-0.111914 0.265000 -0.126557
0.108132 0.263437 -0.131384
-0.117698 0.194147 -0.113287
0.119148 0.194147 -0.113287
-0.111914 0.265486 -0.116859
0.078714 0.299617 -0.118568
-0.092694 0.292945 -0.127957
0.090894 0.288552 -0.132642
-0.092694 0.293430 -0.118258
0.106694 0.280422 -0.117607
-0.105719 0.279936 -0.127305
0.102540 0.276920 -0.132059
-0.101566 0.277895 -0.112575
0.090894 0.289527 -0.113157
-0.077739 0.299132 -0.128266
0.078714 0.299132 -0.128266
-0.077739 0.299617 -0.118568
0.112888 0.265486 -0.116859
-0.115754 0.203315 -0.128374
0.119148 0.193662 -0.122986
-0.107151 0.263452 -0.131385
0.112888 0.265000 -0.126557
-0.111407 0.199285 -0.108639
0.117137 0.204299 -0.108890
-0.107151 0.264428 -0.111901
0.077739 0.294969 -0.113430
-0.089919 0.288552 -0.132642
0.093669 0.292945 -0.127957
-0.089919 0.289527 -0.113157
0.102540 0.277895 -0.112575
-0.101566 0.276920 -0.132059
0.106694 0.279936 -0.127305
-0.105719 0.280422 -0.117607
0.093669 0.293430 -0.118258
-0.076765 0.293994 -0.132914
0.077739 0.293994 -0.132914
-0.076765 0.294969 -0.113430
0.108132 0.264413 -0.111900
-0.117698 0.193662 -0.122986
0.112812 0.198310 -0.128123
-0.121494 0.198518 -0.113506
0.122920 0.198519 -0.113506
-0.111407 0.198310 -0.128123
0.122920 0.198034 -0.123205
-0.115754 0.204291 -0.108890
0.112812 0.199285 -0.108639
-0.167450 -0.034619 0.127190
0.165053 -0.039424 0.119413
-0.156263 -0.034618 -0.098253
0.154870 -0.039423 -0.091367
-0.150307 -0.024721 0.145816
0.153378 -0.024721 0.145816
-0.156263 -0.024720 -0.098253
0.159334 -0.024720 -0.098253
-0.161982 -0.039424 0.119413
0.153378 -0.034619 0.145816
-0.128801 -0.039423 -0.111522
0.138709 -0.034618 -0.116327
-0.142104 -0.019916 0.141011
0.165053 -0.019916 0.119413
-0.151800 -0.019915 -0.091367
0.131872 -0.019915 -0.111522
-0.163354 -0.034619 0.140622
0.160466 -0.039424 0.135138
-0.149788 -0.034618 -0.111260
-0.163354 -0.024721 0.140622
0.166425 -0.024721 0.140622
-0.149788 -0.024720 -0.111260
0.152859 -0.024720 -0.111260
0.170521 -0.034619 0.127190
0.152859 -0.034618 -0.111260
0.147741 -0.039423 -0.105966
-0.157396 -0.039424 0.135138
-0.144670 -0.039423 -0.105966
-0.157396 -0.019916 0.135138
0.160466 -0.019916 0.135138
-0.144670 -0.019915 -0.105966
0.147741 -0.019915 -0.105966
-0.150307 -0.034619 0.145816
0.145175 -0.039424 0.141011
-0.135639 -0.034618 -0.116327
0.131872 -0.039423 -0.111522
-0.167450 -0.024721 0.127190
0.170521 -0.024721 0.127190
-0.135639 -0.024720 -0.116327
0.138709 -0.024720 -0.116327
-0.142104 -0.039424 0.141011
0.166425 -0.034619 0.140622
-0.151800 -0.039423 -0.091367
0.159334 -0.034618 -0.098253
-0.161982 -0.019916 0.119413
0.145175 -0.019916 0.141011
-0.128801 -0.019915 -0.111522
0.154870 -0.019915 -0.091367
-0.132787 -0.051104 -0.121249
-0.134995 -0.051378 -0.115903
-0.140325 -0.051107 -0.113654
-0.145656 -0.050449 -0.115822
-0.147864 -0.049790 -0.121134
-0.145656 -0.049516 -0.126481
-0.140326 -0.049787 -0.128730
-0.134995 -0.050445 -0.126563
-0.155444 -0.309086 -0.143819
-0.157652 -0.309360 -0.138471
-0.162982 -0.309089 -0.136223
-0.168313 -0.308431 -0.138390
-0.170521 -0.307772 -0.143704
-0.168313 -0.307498 -0.149051
-0.162982 -0.307770 -0.151300
-0.157652 -0.308427 -0.149132
0.147230 -0.049775 -0.121249
0.145103 -0.050429 -0.115903
0.167589 -0.308426 -0.138471
0.169715 -0.307773 -0.143819
0.139806 -0.051087 -0.113654
0.162292 -0.309084 -0.136223
0.134443 -0.051365 -0.115822
0.156928 -0.309362 -0.138390
0.132154 -0.051099 -0.121134
0.154639 -0.309096 -0.143704
0.134281 -0.050446 -0.126482
0.156766 -0.308443 -0.149051
0.139577 -0.049788 -0.128730
0.162063 -0.307785 -0.151300
0.144941 -0.049510 -0.126563
0.167427 -0.307507 -0.149132
-0.132787 -0.051105 0.121249
-0.134995 -0.050446 0.126562
-0.157652 -0.308426 0.149133
-0.155444 -0.309085 0.143819
-0.140325 -0.049788 0.128729
-0.162982 -0.307769 0.151300
-0.145656 -0.049517 0.126481
-0.168313 -0.307497 0.149051
-0.147864 -0.049791 0.121134
-0.170520 -0.307771 0.143704
-0.145656 -0.050450 0.115820
-0.168313 -0.308430 0.138391
-0.140325 -0.051107 0.113653
-0.162982 -0.309088 0.136224
-0.134995 -0.051379 0.115901
-0.157652 -0.309359 0.138473
0.147230 -0.049797 0.121018
0.145103 -0.049511 0.126397
0.167589 -0.307506 0.148970
0.169715 -0.307792 0.143591
0.139806 -0.049769 0.128726
0.162292 -0.307765 0.151299
0.134443 -0.050419 0.126640
0.156928 -0.308414 0.149213
0.132154 -0.051080 0.121361
0.154639 -0.309075 0.143934
0.134281 -0.051366 0.115981
0.156766 -0.309361 0.138555
0.139577 -0.051108 0.113653
0.162063 -0.309103 0.136227
0.144941 -0.050458 0.115739
0.167427 -0.308453 0.138313
</float_array>
          <technique_common>
            <accessor source="#_furniture_chair_thin01_furniture_chair_thin01-lib-Position-array" count="288" stride="3">
              <param name="X" type="float"/>
              <param name="Y" type="float"/>
              <param name="Z" type="float"/>
            </accessor>
          </technique_common>
        </source>
        <source id="_furniture_chair_thin01_furniture_chair_thin01-lib-Normal">
          <float_array count="1464" id="_furniture_chair_thin01_furniture_chair_thin01-lib-Normal-array">
-0.497291 -0.711220 0.496857
-0.097878 -0.990496 0.096631
0.097878 -0.990496 0.096631
0.497292 -0.711219 0.496857
-0.706478 0.000096 0.707735
0.706478 0.000097 0.707735
-0.497047 0.711320 0.496959
0.497047 0.711320 0.496958
-0.097630 0.990499 0.096846
0.097629 0.990500 0.096845
0.337798 0.878809 -0.337028
-0.337798 0.878808 -0.337028
0.707472 -0.000259 -0.706742
-0.707473 -0.000259 -0.706741
0.337493 -0.878883 -0.337139
-0.337493 -0.878883 -0.337139
-0.677145 -0.494575 -0.544857
0.047752 -0.729711 -0.682086
-0.987432 -0.056251 -0.147697
-0.883899 0.375995 0.278119
-0.115085 0.726963 0.676965
0.848005 0.344699 0.402579
0.988996 -0.141552 -0.043008
0.725810 -0.538376 -0.428196
-0.598446 0.085954 -0.796539
0.120912 -0.047846 -0.991509
-0.974043 0.169798 -0.149698
-0.797454 0.157107 0.582567
-0.160990 0.054038 0.985476
0.579051 -0.082617 0.811094
0.974800 -0.171035 0.143220
0.777400 -0.155444 -0.609496
-0.569833 0.209846 -0.794516
0.118111 -0.043236 -0.992059
-0.928868 0.340408 -0.146036
-0.761809 0.280061 0.584134
-0.160744 0.060024 0.985169
0.540418 -0.201457 0.816923
0.925315 -0.347010 0.152895
0.744756 -0.278065 -0.606645
-0.497330 0.364927 -0.787078
0.084246 -0.061222 -0.994562
-0.799156 0.583557 -0.144261
-0.658792 0.481946 0.577686
-0.152836 0.113182 0.981749
0.449641 -0.332034 0.829202
0.792737 -0.588869 0.157488
0.630060 -0.467030 -0.620409
-0.327625 0.523920 -0.786238
0.053297 -0.085752 -0.994890
-0.524543 0.839072 -0.144264
-0.433129 0.692436 0.577002
-0.102197 0.162895 0.981336
0.294812 -0.471827 0.830942
0.522977 -0.837472 0.158545
0.414354 -0.663952 -0.622478
-0.137667 0.596321 -0.790853
0.025787 -0.112580 -0.993308
-0.221692 0.964217 -0.145387
-0.182705 0.793239 0.580853
-0.040831 0.175285 0.983671
0.128614 -0.554237 0.822362
0.224236 -0.962072 0.155355
0.179095 -0.769793 -0.612653
-0.027309 0.600136 -0.799432
0.005948 -0.137956 -0.990420
-0.044025 0.988071 -0.147569
-0.036181 0.807564 0.588670
-0.007608 0.159630 0.987148
0.026741 -0.585797 0.810017
0.046040 -0.987484 0.150849
0.037108 -0.799707 -0.599242
0.027193 0.600240 -0.799357
-0.005918 -0.138047 -0.990408
0.043809 0.988085 -0.147543
0.036010 0.807657 0.588552
0.007582 0.159636 0.987147
-0.026630 -0.585964 0.809900
-0.045869 -0.987498 0.150809
-0.036975 -0.799837 -0.599077
0.676624 -0.496436 -0.543812
-0.048917 -0.729480 -0.682251
0.987787 -0.060563 -0.143555
0.884075 0.371884 0.283043
0.112943 0.726227 0.678114
-0.848936 0.347809 0.397916
-0.989426 -0.137032 -0.047527
-0.726552 -0.535927 -0.430005
0.599680 0.083186 -0.795905
-0.119859 -0.047188 -0.991669
0.974885 0.165176 -0.149383
0.798541 0.153220 0.582113
0.162337 0.053333 0.985293
-0.578777 -0.079512 0.811600
-0.975666 -0.166024 0.143222
-0.777619 -0.151549 -0.610198
0.569832 0.209846 -0.794516
-0.118112 -0.043236 -0.992059
0.928868 0.340408 -0.146036
0.761809 0.280061 0.584134
0.160744 0.060024 0.985169
-0.540417 -0.201457 0.816924
-0.925315 -0.347010 0.152895
-0.744756 -0.278065 -0.606645
0.497330 0.364928 -0.787077
-0.084245 -0.061222 -0.994563
0.799156 0.583557 -0.144261
0.658792 0.481947 0.577685
0.152836 0.113182 0.981749
-0.449641 -0.332034 0.829202
-0.792737 -0.588868 0.157488
-0.630060 -0.467029 -0.620409
0.327624 0.523920 -0.786238
-0.053298 -0.085752 -0.994890
0.524543 0.839072 -0.144264
0.433129 0.692436 0.577002
0.102197 0.162895 0.981336
-0.294813 -0.471827 0.830942
-0.522977 -0.837472 0.158544
-0.414354 -0.663952 -0.622478
0.137515 0.596397 -0.790823
-0.025766 -0.112533 -0.993314
0.221446 0.964275 -0.145383
0.182520 0.793305 0.580821
0.040794 0.175339 0.983663
-0.128535 -0.554235 0.822376
-0.224106 -0.962101 0.155366
-0.178969 -0.769814 -0.612664
-0.390997 -0.097516 -0.915211
-0.391820 0.061475 -0.917986
-0.346911 0.186062 -0.919257
-0.231798 0.301030 -0.925014
-0.081397 0.363250 -0.928129
0.081397 0.363250 -0.928129
0.231798 0.301030 -0.925014
0.346911 0.186062 -0.919257
0.390931 0.062605 -0.918288
0.391096 -0.094911 -0.915443
0.106342 -0.425023 -0.898914
-0.106410 -0.425242 -0.898803
-0.106410 -0.333335 0.936784
0.106342 -0.333106 0.936873
0.391096 -0.002993 0.920345
0.390931 0.154019 0.907442
0.346911 0.276955 0.896074
0.231798 0.391923 0.890318
0.081397 0.454144 0.887202
-0.081397 0.454144 0.887202
-0.231798 0.391924 0.890318
-0.346911 0.276955 0.896074
-0.391820 0.152864 0.907254
-0.390997 -0.005609 0.920375
-0.396488 -0.833165 -0.385530
0.397821 -0.832254 -0.386124
0.397821 -0.789522 0.467326
-0.396488 -0.790488 0.466825
0.861830 -0.294334 -0.413058
0.893595 0.228867 -0.386144
0.893595 0.266294 0.361351
0.861830 -0.251602 0.440393
0.181169 0.891109 -0.416055
-0.181169 0.891109 -0.416055
-0.181169 0.928212 0.324963
0.181169 0.928212 0.324963
-0.894475 0.225951 -0.385824
-0.860751 -0.298524 -0.412299
-0.860751 -0.255848 0.440056
-0.894475 0.263360 0.361324
0.772139 0.496730 -0.396309
0.515927 0.752621 -0.409121
0.515927 0.789724 0.331897
0.772139 0.533833 0.344709
-0.515927 0.752622 -0.409121
-0.772139 0.496730 -0.396309
-0.772139 0.533832 0.344709
-0.515927 0.789724 0.331897
-0.374410 -0.927184 0.012117
-0.385501 -0.920652 -0.061560
-0.226458 -0.937878 -0.262873
-0.034905 -0.921385 -0.387081
0.034404 -0.921433 -0.387010
0.228219 -0.937908 -0.261238
0.385057 -0.920776 -0.062470
0.373789 -0.927439 0.011808
0.243139 -0.943176 0.226499
0.033724 -0.922002 0.385714
-0.245855 -0.943176 0.223549
-0.033015 -0.922058 0.385641
-0.033725 0.922001 0.385715
0.033016 0.922058 0.385640
0.245855 0.943176 0.223549
0.374408 0.927185 0.012117
0.385499 0.920652 -0.061560
0.226458 0.937878 -0.262873
0.034905 0.921384 -0.387082
-0.034404 0.921433 -0.387011
-0.228219 0.937907 -0.261239
-0.385060 0.920775 -0.062470
-0.243140 0.943176 0.226500
-0.373790 0.927438 0.011808
-0.191680 -0.436783 0.878908
0.192842 -0.439079 0.877509
0.191679 0.436783 0.878908
-0.192843 0.439079 0.877508
0.888350 -0.440182 0.130668
0.869078 -0.426574 -0.250476
0.869914 0.425359 -0.249639
0.887027 0.442494 0.131841
0.174646 -0.423458 -0.888922
-0.175447 -0.424777 -0.888135
-0.174646 0.423457 -0.888922
0.175446 0.424776 -0.888135
-0.869914 -0.425359 -0.249640
-0.887027 -0.442493 0.131842
-0.888350 0.440182 0.130668
-0.869078 0.426573 -0.250477
0.658557 -0.444554 0.607185
0.659630 0.444554 0.606019
-0.658558 0.444554 0.607184
-0.659631 -0.444554 0.606019
0.599979 -0.434601 -0.671676
0.599174 0.434534 -0.672437
-0.599174 -0.434534 -0.672437
-0.599979 0.434599 -0.671676
0.996195 -0.086824 -0.007596
0.704416 -0.123022 0.699045
0.704417 -0.123022 0.699044
0.704417 -0.123022 0.699044
0.996195 -0.086824 -0.007597
0.996195 -0.086824 -0.007596
0.704416 -0.123022 0.699045
0 -0.087156 0.996195
0.000001 -0.087156 0.996195
0.000001 -0.087156 0.996195
0.704417 -0.123022 0.699044
0.704416 -0.123022 0.699045
0 -0.087156 0.996195
-0.704416 -0.000235 0.709787
-0.704417 -0.000234 0.709787
-0.704417 -0.000234 0.709787
0.000001 -0.087156 0.996195
0 -0.087156 0.996195
-0.704416 -0.000235 0.709787
-0.996195 0.086824 0.007597
-0.996195 0.086824 0.007592
-0.996195 0.086824 0.007592
-0.704417 -0.000234 0.709787
-0.704416 -0.000235 0.709787
-0.996195 0.086824 0.007597
-0.704416 0.123022 -0.699045
-0.704418 0.123022 -0.699043
-0.704418 0.123022 -0.699043
-0.996195 0.086824 0.007592
-0.996195 0.086824 0.007597
-0.704416 0.123022 -0.699045
0 0.087156 -0.996195
-0.000002 0.087156 -0.996195
-0.000002 0.087156 -0.996195
-0.704418 0.123022 -0.699043
-0.704416 0.123022 -0.699045
0 0.087156 -0.996195
0.704415 0.000235 -0.709788
0.704418 0.000234 -0.709786
0.704418 0.000234 -0.709786
-0.000002 0.087156 -0.996195
0 0.087156 -0.996195
0.704415 0.000235 -0.709788
0.996195 -0.086824 -0.007596
0.996195 -0.086824 -0.007597
0.996195 -0.086824 -0.007597
0.704418 0.000234 -0.709786
0.704415 0.000235 -0.709788
-0.087164 -0.992403 -0.086826
-0.087165 -0.992403 -0.086821
-0.087160 -0.992404 -0.086817
-0.087160 -0.992404 -0.086817
-0.087175 -0.992404 -0.086808
-0.087151 -0.992405 -0.086821
-0.087151 -0.992405 -0.086821
-0.087146 -0.992400 -0.086882
-0.087154 -0.992404 -0.086830
-0.087160 -0.992404 -0.086817
-0.087151 -0.992405 -0.086821
-0.087154 -0.992404 -0.086830
-0.087164 -0.992403 -0.086826
-0.087160 -0.992404 -0.086817
-0.087154 -0.992404 -0.086830
-0.087155 -0.992404 -0.086828
-0.087164 -0.992403 -0.086826
-0.087154 -0.992404 -0.086830
0.996137 0.087482 -0.007597
0.715077 0.001167 0.699045
0.715079 0.001167 0.699043
0.715079 0.001167 0.699043
0.996137 0.087482 -0.007598
0.996137 0.087482 -0.007597
0.715077 0.001167 0.699045
0.015134 -0.085832 0.996195
0.015137 -0.085832 0.996195
0.015137 -0.085832 0.996195
0.715079 0.001167 0.699043
0.715077 0.001167 0.699045
0.015134 -0.085832 0.996195
-0.693675 -0.122552 0.709786
-0.693675 -0.122552 0.709786
-0.693675 -0.122552 0.709786
0.015137 -0.085832 0.996195
0.015134 -0.085832 0.996195
-0.693675 -0.122552 0.709786
-0.996137 -0.087483 0.007598
-0.996137 -0.087482 0.007591
-0.996137 -0.087482 0.007591
-0.693675 -0.122552 0.709786
-0.693675 -0.122552 0.709786
-0.996137 -0.087483 0.007598
-0.715078 -0.001167 -0.699043
-0.715079 -0.001168 -0.699043
-0.715079 -0.001168 -0.699043
-0.996137 -0.087482 0.007591
-0.996137 -0.087483 0.007598
-0.715078 -0.001167 -0.699043
-0.015134 0.085832 -0.996195
-0.015136 0.085832 -0.996195
-0.015136 0.085832 -0.996195
-0.715079 -0.001168 -0.699043
-0.715078 -0.001167 -0.699043
-0.015134 0.085832 -0.996195
0.693673 0.122552 -0.709788
0.693676 0.122552 -0.709785
0.693676 0.122552 -0.709785
-0.015136 0.085832 -0.996195
-0.015134 0.085832 -0.996195
0.693673 0.122552 -0.709788
0.996137 0.087482 -0.007597
0.996137 0.087482 -0.007598
0.996137 0.087482 -0.007598
0.693676 0.122552 -0.709785
0.693673 0.122552 -0.709788
0.086491 -0.992462 -0.086825
0.086487 -0.992463 -0.086821
0.086492 -0.992463 -0.086817
0.086492 -0.992463 -0.086817
0.086484 -0.992464 -0.086809
0.086500 -0.992461 -0.086823
0.086500 -0.992461 -0.086823
0.086503 -0.992455 -0.086888
0.086499 -0.992461 -0.086831
0.086492 -0.992463 -0.086817
0.086500 -0.992461 -0.086823
0.086499 -0.992461 -0.086831
0.086491 -0.992462 -0.086825
0.086492 -0.992463 -0.086817
0.086499 -0.992461 -0.086831
0.086511 -0.992460 -0.086827
0.086491 -0.992462 -0.086825
0.086499 -0.992461 -0.086831
0.996195 -0.086824 0.007594
0.704415 0.000235 0.709788
0.704415 0.000235 0.709788
0.704415 0.000235 0.709788
0.996195 -0.086824 0.007596
0.996195 -0.086824 0.007594
0.704415 0.000235 0.709788
-0.000001 0.087156 0.996195
0.000002 0.087156 0.996195
0.000002 0.087156 0.996195
0.704415 0.000235 0.709788
0.704415 0.000235 0.709788
-0.000001 0.087156 0.996195
-0.704414 0.123022 0.699046
-0.704416 0.123022 0.699045
-0.704416 0.123022 0.699045
0.000002 0.087156 0.996195
-0.000001 0.087156 0.996195
-0.704414 0.123022 0.699046
-0.996195 0.086824 -0.007594
-0.996195 0.086823 -0.007603
-0.996195 0.086823 -0.007603
-0.704416 0.123022 0.699045
-0.704414 0.123022 0.699046
-0.996195 0.086824 -0.007594
-0.704417 -0.000234 -0.709786
-0.704419 -0.000234 -0.709784
-0.704419 -0.000234 -0.709784
-0.996195 0.086823 -0.007603
-0.996195 0.086824 -0.007594
-0.704417 -0.000234 -0.709786
0 -0.087156 -0.996195
-0.000002 -0.087156 -0.996195
-0.000002 -0.087156 -0.996195
-0.704419 -0.000234 -0.709784
-0.704417 -0.000234 -0.709786
0 -0.087156 -0.996195
0.704416 -0.123022 -0.699045
0.704419 -0.123022 -0.699041
0.704419 -0.123022 -0.699041
-0.000002 -0.087156 -0.996195
0 -0.087156 -0.996195
0.704416 -0.123022 -0.699045
0.996195 -0.086824 0.007594
0.996195 -0.086824 0.007596
0.996195 -0.086824 0.007596
0.704419 -0.123022 -0.699041
0.704416 -0.123022 -0.699045
-0.087161 -0.992404 0.086822
-0.087165 -0.992403 0.086821
-0.087161 -0.992403 0.086831
-0.087161 -0.992403 0.086831
-0.087170 -0.992401 0.086839
-0.087152 -0.992404 0.086825
-0.087152 -0.992404 0.086825
-0.087149 -0.992411 0.086751
-0.087153 -0.992405 0.086816
-0.087161 -0.992403 0.086831
-0.087152 -0.992404 0.086825
-0.087153 -0.992405 0.086816
-0.087161 -0.992404 0.086822
-0.087161 -0.992403 0.086831
-0.087153 -0.992405 0.086816
-0.087141 -0.992405 0.086823
-0.087161 -0.992404 0.086822
-0.087153 -0.992405 0.086816
0.996137 0.084834 -0.022672
0.715076 0.122537 0.688223
0.715080 0.122537 0.688219
0.715080 0.122537 0.688219
0.996137 0.084834 -0.022674
0.996137 0.084834 -0.022672
0.715076 0.122537 0.688223
0.015132 0.088460 0.995965
0.015140 0.088460 0.995965
0.015140 0.088460 0.995965
0.715080 0.122537 0.688219
0.715076 0.122537 0.688223
0.015132 0.088460 0.995965
-0.693675 0.002563 0.720284
-0.693674 0.002564 0.720284
-0.693674 0.002564 0.720284
0.015140 0.088460 0.995965
0.015132 0.088460 0.995965
-0.693675 0.002563 0.720284
-0.996137 -0.084834 0.022673
-0.996137 -0.084835 0.022666
-0.996137 -0.084835 0.022666
-0.693674 0.002564 0.720284
-0.693675 0.002563 0.720284
-0.996137 -0.084834 0.022673
-0.715080 -0.122537 -0.688219
-0.715078 -0.122537 -0.688221
-0.715078 -0.122537 -0.688221
-0.996137 -0.084835 0.022666
-0.996137 -0.084834 0.022673
-0.715080 -0.122537 -0.688219
-0.015136 -0.088460 -0.995965
-0.015136 -0.088460 -0.995965
-0.015136 -0.088460 -0.995965
-0.715078 -0.122537 -0.688221
-0.715080 -0.122537 -0.688219
-0.015136 -0.088460 -0.995965
0.693674 -0.002564 -0.720285
0.693675 -0.002563 -0.720284
0.693675 -0.002563 -0.720284
-0.015136 -0.088460 -0.995965
-0.015136 -0.088460 -0.995965
0.693674 -0.002564 -0.720285
0.996137 0.084834 -0.022672
0.996137 0.084834 -0.022674
0.996137 0.084834 -0.022674
0.693675 -0.002563 -0.720284
0.693674 -0.002564 -0.720285
0.086487 -0.992462 0.086831
0.086481 -0.992461 0.086845
0.086490 -0.992460 0.086844
0.086490 -0.992460 0.086844
0.086483 -0.992460 0.086854
0.086502 -0.992460 0.086838
0.086502 -0.992460 0.086838
0.086505 -0.992467 0.086757
0.086499 -0.992461 0.086825
0.086490 -0.992460 0.086844
0.086502 -0.992460 0.086838
0.086499 -0.992461 0.086825
0.086487 -0.992462 0.086831
0.086490 -0.992460 0.086844
0.086499 -0.992461 0.086825
0.086518 -0.992459 0.086828
0.086487 -0.992462 0.086831
0.086499 -0.992461 0.086825
</float_array>
          <technique_common>
            <accessor source="#_furniture_chair_thin01_furniture_chair_thin01-lib-Normal-array" count="488" stride="3">
              <param name="X" type="float"/>
              <param name="Y" type="float"/>
              <param name="Z" type="float"/>
            </accessor>
          </technique_common>
          <technique profile="MAYA">
            <DOUBLE_SIDED>true</DOUBLE_SIDED>
          </technique>
        </source>
        <source id="_furniture_chair_thin01_furniture_chair_thin01-lib-map1" name="map1">
          <float_array count="656" id="_furniture_chair_thin01_furniture_chair_thin01-lib-map1-array">
0.068594 0.988430
0.059912 0.988430
0.059912 0.671284
0.068594 0.671284
0.051650 0.988430
0.051650 0.671284
0.059912 0.988430
0.059912 0.671284
0.068594 0.988430
0.068594 0.671284
0.077277 0.988430
0.077277 0.671284
0.085539 0.988430
0.085539 0.671284
0.077277 0.988430
0.077277 0.671284
0.951568 0.388908
0.532284 0.388908
0.509966 0.380337
0.503273 0.357386
0.518134 0.049753
0.528539 0.028446
0.551700 0.020336
0.932152 0.020336
0.955313 0.028446
0.965718 0.049753
0.973886 0.380337
0.980579 0.357385
0.963540 0.395921
0.520312 0.395922
0.520312 0.395922
0.963540 0.395921
0.495292 0.368736
0.511619 0.039702
0.511619 0.039702
0.495292 0.368736
0.541720 0.013323
0.942131 0.013323
0.942131 0.013323
0.541720 0.013323
0.972233 0.039702
0.988560 0.368736
0.988560 0.368736
0.972233 0.039702
0.980579 0.357385
0.965718 0.049753
0.932152 0.020336
0.551700 0.020336
0.518134 0.049753
0.503273 0.357386
0.532284 0.388908
0.951568 0.388908
0.501270 0.388340
0.501270 0.388340
0.982582 0.388340
0.982582 0.388340
0.521069 0.020718
0.521069 0.020718
0.962783 0.020718
0.962783 0.020718
0.973886 0.380337
0.509966 0.380337
0.955313 0.028446
0.528539 0.028446
0.489870 0.050979
0.475009 0.358612
0.464604 0.379919
0.441442 0.388028
0.060991 0.388028
0.037829 0.379919
0.027424 0.358612
0.012563 0.050979
0.019257 0.028028
0.041575 0.019457
0.483176 0.028028
0.460858 0.019457
0.014093 0.629873
0.020938 0.636762
0.330115 0.636762
0.336961 0.629873
0.011257 0.627017
0.339797 0.627017
0.014097 0.629874
0.336957 0.629873
0.020944 0.636763
0.330110 0.636762
0.027789 0.643652
0.323265 0.643651
0.030625 0.646508
0.320429 0.646508
0.027785 0.643651
0.323269 0.643651
0.013847 0.918402
0.020697 0.920124
0.011014 0.912354
0.013864 0.905518
0.020721 0.901898
0.027572 0.903619
0.030405 0.909668
0.027555 0.916503
0.337207 0.918402
0.330356 0.920123
0.340040 0.912354
0.337190 0.905518
0.330332 0.901898
0.323482 0.903619
0.320649 0.909668
0.323499 0.916503
0.658047 0.923725
0.650974 0.922340
0.684026 0.582311
0.690876 0.585154
0.661771 0.924597
0.693709 0.592007
0.659960 0.924443
0.690859 0.598859
0.653681 0.923355
0.684002 0.601698
0.646609 0.921969
0.677152 0.598855
0.642885 0.921098
0.674318 0.592002
0.644696 0.921252
0.677169 0.585150
0.653448 0.941208
0.646585 0.938923
0.657099 0.942426
0.655394 0.941861
0.649338 0.939846
0.642476 0.937560
0.638825 0.936342
0.640529 0.936907
0.645403 0.957930
0.639401 0.953736
0.648595 0.960164
0.647104 0.959124
0.641807 0.955425
0.635806 0.951230
0.632613 0.948997
0.634105 0.950036
0.630355 0.972080
0.626492 0.965840
0.632410 0.975401
0.631448 0.973853
0.628038 0.968349
0.624175 0.962109
0.622120 0.958788
0.623082 0.960336
0.606188 0.981262
0.604646 0.974160
0.607007 0.985041
0.606621 0.983278
0.605259 0.977012
0.603717 0.969911
0.602898 0.966132
0.603283 0.967894
0.570691 0.984475
0.570675 0.977268
0.570697 0.988310
0.570691 0.986521
0.570676 0.980162
0.570660 0.972955
0.570654 0.969120
0.570660 0.970909
0.484568 0.984472
0.484575 0.977269
0.484564 0.988305
0.484566 0.986517
0.484572 0.980161
0.484579 0.972957
0.484583 0.969124
0.484581 0.970913
0.397050 0.923725
0.367517 0.585154
0.374367 0.582311
0.404122 0.922340
0.393326 0.924597
0.364684 0.592007
0.395137 0.924443
0.367534 0.598859
0.401415 0.923355
0.374391 0.601698
0.408487 0.921970
0.381241 0.598855
0.412212 0.921098
0.384074 0.592002
0.410401 0.921252
0.381224 0.585150
0.401649 0.941208
0.408512 0.938923
0.397998 0.942426
0.399703 0.941861
0.405758 0.939846
0.412621 0.937560
0.416272 0.936342
0.414567 0.936908
0.409694 0.957930
0.415695 0.953736
0.406501 0.960164
0.407993 0.959124
0.413289 0.955425
0.419291 0.951230
0.422483 0.948997
0.420992 0.950036
0.424741 0.972080
0.428605 0.965840
0.422687 0.975401
0.423648 0.973853
0.427059 0.968349
0.430922 0.962109
0.432976 0.958788
0.432015 0.960336
0.448909 0.981262
0.450451 0.974160
0.448090 0.985041
0.448475 0.983278
0.449838 0.977013
0.451380 0.969911
0.452199 0.966132
0.451813 0.967894
0.430785 0.420296
0.418229 0.508066
0.410077 0.527722
0.393078 0.544699
0.373880 0.552641
0.148381 0.552641
0.129182 0.544699
0.112184 0.527722
0.104023 0.508044
0.090880 0.420309
0.097193 0.412990
0.424441 0.412990
0.555189 0.426598
0.882437 0.426598
0.888750 0.433769
0.875607 0.519737
0.867446 0.539018
0.850448 0.555654
0.831249 0.563436
0.605750 0.563436
0.586552 0.555654
0.569553 0.539018
0.561401 0.519759
0.548845 0.433757
0.546008 0.415216
0.891685 0.415216
0.891685 0.418131
0.546008 0.418131
0.897189 0.421469
0.882549 0.517237
0.882549 0.520151
0.897189 0.424383
0.832671 0.566049
0.604328 0.566049
0.604328 0.568963
0.832671 0.568963
0.554450 0.517237
0.540469 0.421467
0.540469 0.424382
0.554450 0.520151
0.873508 0.538597
0.854498 0.557201
0.854498 0.560115
0.873508 0.541512
0.582501 0.557201
0.563491 0.538597
0.563491 0.541512
0.582501 0.560115
0.548845 0.427902
0.561401 0.513904
0.605750 0.557581
0.831249 0.557581
0.875607 0.513882
0.888749 0.427914
0.882437 0.420743
0.555189 0.420743
0.586552 0.549799
0.569553 0.533163
0.867446 0.533163
0.850448 0.549799
0.068594 0.988430
0.059912 0.988430
0.059912 0.671284
0.068594 0.671284
0.051650 0.988430
0.051650 0.671284
0.059912 0.988430
0.059912 0.671284
0.068594 0.988430
0.068594 0.671284
0.077277 0.988430
0.077277 0.671284
0.085539 0.988430
0.085539 0.671284
0.077277 0.988430
0.077277 0.671284
0.068594 0.988430
0.059912 0.988430
0.059912 0.671284
0.068594 0.671284
0.051650 0.988430
0.051650 0.671284
0.059912 0.988430
0.059912 0.671284
0.068594 0.988430
0.068594 0.671284
0.077277 0.988430
0.077277 0.671284
0.085539 0.988430
0.085539 0.671284
0.077277 0.988430
0.077277 0.671284
0.068594 0.988430
0.059912 0.988430
0.059912 0.671284
0.068594 0.671284
0.051650 0.988430
0.051650 0.671284
0.059912 0.988430
0.059912 0.671284
0.068594 0.988430
0.068594 0.671284
0.077277 0.988430
0.077277 0.671284
0.085539 0.988430
0.085539 0.671284
0.077277 0.988430
0.077277 0.671284
</float_array>
          <technique_common>
            <accessor source="#_furniture_chair_thin01_furniture_chair_thin01-lib-map1-array" count="328" stride="2">
              <param name="S" type="float"/>
              <param name="T" type="float"/>
            </accessor>
          </technique_common>
        </source>
        <vertices id="_furniture_chair_thin01_furniture_chair_thin01-lib-Vertex">
          <input semantic="POSITION" source="#_furniture_chair_thin01_furniture_chair_thin01-lib-Position"/>
        </vertices>
        <triangles material="_09___Default" count="528">
          <input semantic="VERTEX" offset="0" source="#_furniture_chair_thin01_furniture_chair_thin01-lib-Vertex"/>
          <input semantic="NORMAL" offset="1" source="#_furniture_chair_thin01_furniture_chair_thin01-lib-Normal"/>
          <input semantic="TEXCOORD" offset="2" set="0" source="#_furniture_chair_thin01_furniture_chair_thin01-lib-map1"/>
          <p>1 0 76 8 1 77 0 2 78 0 2 78 73 3 79 1 0 76 2 4 80 1 0 76 73 3 79 73 3 79 74 5 81 2 4 80 3 6 82 2 4 80 74 5 81 74 5 81 75 7 83 3 6 82 4 8 84 3 6 82 75 7 83 75 7 83 76 9 85 4 8 84 5 10 86 4 8 84 76 9 85 76 9 85 77 11 87 5 10 86 6 12 88 5 10 86 77 11 87 77 11 87 78 13 89 6 12 88 7 14 90 6 12 88 78 13 89 78 13 89 79 15 91 7 14 90 8 1 77 7 14 90 79 15 91 79 15 91 0 2 78 8 1 77 9 16 92 16 17 93 8 1 77 8 1 77 1 0 76 9 16 92 10 18 94 9 16 92 1 0 76 1 0 76 2 4 80 10 18 94 11 19 95 10 18 94 2 4 80 2 4 80 3 6 82 11 19 95 12 20 96 11 19 95 3 6 82 3 6 82 4 8 84 12 20 96 13 21 97 12 20 96 4 8 84 4 8 84 5 10 86 13 21 97 14 22 98 13 21 97 5 10 86 5 10 86 6 12 88 14 22 98 15 23 99 14 22 98 6 12 88 6 12 88 7 14 90 15 23 99 16 17 93 15 23 99 7 14 90 7 14 90 8 1 77 16 17 93 18 24 108 17 25 109 16 17 110 16 17 110 9 16 111 18 24 108 19 26 112 18 24 108 9 16 111 9 16 111 10 18 113 19 26 112 20 27 114 19 26 112 10 18 113 10 18 113 11 19 115 20 27 114 21 28 116 20 27 114 11 19 115 11 19 115 12 20 117 21 28 116 22 29 118 21 28 116 12 20 117 12 20 117 13 21 119 22 29 118 23 30 120 22 29 118 13 21 119 13 21 119 14 22 121 23 30 120 24 31 122 23 30 120 14 22 121 14 22 121 15 23 123 24 31 122 17 25 109 24 31 122 15 23 123 15 23 123 16 17 110 17 25 109 26 32 124 25 33 125 17 25 109 17 25 109 18 24 108 26 32 124 27 34 126 26 32 124 18 24 108 18 24 108 19 26 112 27 34 126 28 35 127 27 34 126 19 26 112 19 26 112 20 27 114 28 35 127 29 36 128 28 35 127 20 27 114 20 27 114 21 28 116 29 36 128 30 37 129 29 36 128 21 28 116 21 28 116 22 29 118 30 37 129 31 38 130 30 37 129 22 29 118 22 29 118 23 30 120 31 38 130 32 39 131 31 38 130 23 30 120 23 30 120 24 31 122 32 39 131 25 33 125 32 39 131 24 31 122 24 31 122 17 25 109 25 33 125 34 40 132 33 41 133 25 33 125 25 33 125 26 32 124 34 40 132 35 42 134 34 40 132 26 32 124 26 32 124 27 34 126 35 42 134 36 43 135 35 42 134 27 34 126 27 34 126 28 35 127 36 43 135 37 44 136 36 43 135 28 35 127 28 35 127 29 36 128 37 44 136 38 45 137 37 44 136 29 36 128 29 36 128 30 37 129 38 45 137 39 46 138 38 45 137 30 37 129 30 37 129 31 38 130 39 46 138 40 47 139 39 46 138 31 38 130 31 38 130 32 39 131 40 47 139 33 41 133 40 47 139 32 39 131 32 39 131 25 33 125 33 41 133 42 48 140 41 49 141 33 41 133 33 41 133 34 40 132 42 48 140 43 50 142 42 48 140 34 40 132 34 40 132 35 42 134 43 50 142 44 51 143 43 50 142 35 42 134 35 42 134 36 43 135 44 51 143 45 52 144 44 51 143 36 43 135 36 43 135 37 44 136 45 52 144 46 53 145 45 52 144 37 44 136 37 44 136 38 45 137 46 53 145 47 54 146 46 53 145 38 45 137 38 45 137 39 46 138 47 54 146 48 55 147 47 54 146 39 46 138 39 46 138 40 47 139 48 55 147 41 49 141 48 55 147 40 47 139 40 47 139 33 41 133 41 49 141 50 56 148 49 57 149 41 49 141 41 49 141 42 48 140 50 56 148 51 58 150 50 56 148 42 48 140 42 48 140 43 50 142 51 58 150 52 59 151 51 58 150 43 50 142 43 50 142 44 51 143 52 59 151 53 60 152 52 59 151 44 51 143 44 51 143 45 52 144 53 60 152 54 61 153 53 60 152 45 52 144 45 52 144 46 53 145 54 61 153 55 62 154 54 61 153 46 53 145 46 53 145 47 54 146 55 62 154 56 63 155 55 62 154 47 54 146 47 54 146 48 55 147 56 63 155 49 57 149 56 63 155 48 55 147 48 55 147 41 49 141 49 57 149 58 64 156 57 65 157 49 57 149 49 57 149 50 56 148 58 64 156 59 66 158 58 64 156 50 56 148 50 56 148 51 58 150 59 66 158 60 67 159 59 66 158 51 58 150 51 58 150 52 59 151 60 67 159 61 68 160 60 67 159 52 59 151 52 59 151 53 60 152 61 68 160 62 69 161 61 68 160 53 60 152 53 60 152 54 61 153 62 69 161 63 70 162 62 69 161 54 61 153 54 61 153 55 62 154 63 70 162 64 71 163 63 70 162 55 62 154 55 62 154 56 63 155 64 71 163 57 65 157 64 71 163 56 63 155 56 63 155 49 57 149 57 65 157 65 72 164 72 73 165 57 65 157 57 65 157 58 64 156 65 72 164 66 74 166 65 72 164 58 64 156 58 64 156 59 66 158 66 74 166 67 75 167 66 74 166 59 66 158 59 66 158 60 67 159 67 75 167 68 76 168 67 75 167 60 67 159 60 67 159 61 68 160 68 76 168 69 77 169 68 76 168 61 68 160 61 68 160 62 69 161 69 77 169 70 78 170 69 77 169 62 69 161 62 69 161 63 70 162 70 78 170 71 79 171 70 78 170 63 70 162 63 70 162 64 71 163 71 79 171 72 73 165 71 79 171 64 71 163 64 71 163 57 65 157 72 73 165 80 80 100 73 3 79 0 2 78 0 2 78 87 81 101 80 80 100 81 82 102 74 5 81 73 3 79 73 3 79 80 80 100 81 82 102 82 83 103 75 7 83 74 5 81 74 5 81 81 82 102 82 83 103 83 84 104 76 9 85 75 7 83 75 7 83 82 83 103 83 84 104 84 85 105 77 11 87 76 9 85 76 9 85 83 84 104 84 85 105 85 86 106 78 13 89 77 11 87 77 11 87 84 85 105 85 86 106 86 87 107 79 15 91 78 13 89 78 13 89 85 86 106 86 87 107 87 81 101 0 2 78 79 15 91 79 15 91 86 87 107 87 81 101 89 88 172 80 80 173 87 81 174 87 81 174 88 89 175 89 88 172 90 90 176 81 82 177 80 80 173 80 80 173 89 88 172 90 90 176 91 91 178 82 83 179 81 82 177 81 82 177 90 90 176 91 91 178 92 92 180 83 84 181 82 83 179 82 83 179 91 91 178 92 92 180 93 93 182 84 85 183 83 84 181 83 84 181 92 92 180 93 93 182 94 94 184 85 86 185 84 85 183 84 85 183 93 93 182 94 94 184 95 95 186 86 87 187 85 86 185 85 86 185 94 94 184 95 95 186 88 89 175 87 81 174 86 87 187 86 87 187 95 95 186 88 89 175 97 96 188 89 88 172 88 89 175 88 89 175 96 97 189 97 96 188 98 98 190 90 90 176 89 88 172 89 88 172 97 96 188 98 98 190 99 99 191 91 91 178 90 90 176 90 90 176 98 98 190 99 99 191 100 100 192 92 92 180 91 91 178 91 91 178 99 99 191 100 100 192 101 101 193 93 93 182 92 92 180 92 92 180 100 100 192 101 101 193 102 102 194 94 94 184 93 93 182 93 93 182 101 101 193 102 102 194 103 103 195 95 95 186 94 94 184 94 94 184 102 102 194 103 103 195 96 97 189 88 89 175 95 95 186 95 95 186 103 103 195 96 97 189 105 104 196 97 96 188 96 97 189 96 97 189 104 105 197 105 104 196 106 106 198 98 98 190 97 96 188 97 96 188 105 104 196 106 106 198 107 107 199 99 99 191 98 98 190 98 98 190 106 106 198 107 107 199 108 108 200 100 100 192 99 99 191 99 99 191 107 107 199 108 108 200 109 109 201 101 101 193 100 100 192 100 100 192 108 108 200 109 109 201 110 110 202 102 102 194 101 101 193 101 101 193 109 109 201 110 110 202 111 111 203 103 103 195 102 102 194 102 102 194 110 110 202 111 111 203 104 105 197 96 97 189 103 103 195 103 103 195 111 111 203 104 105 197 113 112 204 105 104 196 104 105 197 104 105 197 112 113 205 113 112 204 114 114 206 106 106 198 105 104 196 105 104 196 113 112 204 114 114 206 115 115 207 107 107 199 106 106 198 106 106 198 114 114 206 115 115 207 116 116 208 108 108 200 107 107 199 107 107 199 115 115 207 116 116 208 117 117 209 109 109 201 108 108 200 108 108 200 116 116 208 117 117 209 118 118 210 110 110 202 109 109 201 109 109 201 117 117 209 118 118 210 119 119 211 111 111 203 110 110 202 110 110 202 118 118 210 119 119 211 112 113 205 104 105 197 111 111 203 111 111 203 119 119 211 112 113 205 121 120 212 113 112 204 112 113 205 112 113 205 120 121 213 121 120 212 122 122 214 114 114 206 113 112 204 113 112 204 121 120 212 122 122 214 123 123 215 115 115 207 114 114 206 114 114 206 122 122 214 123 123 215 124 124 216 116 116 208 115 115 207 115 115 207 123 123 215 124 124 216 125 125 217 117 117 209 116 116 208 116 116 208 124 124 216 125 125 217 126 126 218 118 118 210 117 117 209 117 117 209 125 125 217 126 126 218 127 127 219 119 119 211 118 118 210 118 118 210 126 126 218 127 127 219 120 121 213 112 113 205 119 119 211 119 119 211 127 127 219 120 121 213 65 72 164 121 120 212 120 121 213 120 121 213 72 73 165 65 72 164 66 74 166 122 122 214 121 120 212 121 120 212 65 72 164 66 74 166 67 75 167 123 123 215 122 122 214 122 122 214 66 74 166 67 75 167 68 76 168 124 124 216 123 123 215 123 123 215 67 75 167 68 76 168 69 77 169 125 125 217 124 124 216 124 124 216 68 76 168 69 77 169 70 78 170 126 126 218 125 125 217 125 125 217 69 77 169 70 78 170 71 79 171 127 127 219 126 126 218 126 126 218 70 78 170 71 79 171 72 73 165 120 121 213 127 127 219 127 127 219 71 79 171 72 73 165 148 128 220 150 129 221 160 130 222 160 130 222 156 131 223 164 132 224 148 128 220 160 130 222 164 132 224 164 132 224 165 133 225 137 134 226 137 134 226 141 135 227 131 136 228 164 132 224 137 134 226 131 136 228 148 128 220 164 132 224 131 136 228 131 136 228 129 137 229 169 138 230 148 128 220 131 136 228 169 138 230 172 139 231 148 128 220 169 138 230 152 140 232 175 141 233 153 142 234 153 142 234 167 143 235 159 144 236 159 144 236 143 145 237 155 146 238 153 142 234 159 144 236 155 146 238 152 140 232 153 142 234 155 146 238 155 146 238 166 147 239 158 148 240 158 148 240 142 149 241 154 150 242 155 146 238 158 148 240 154 150 242 152 140 232 155 146 238 154 150 242 174 151 243 152 140 232 154 150 242 168 152 244 149 153 245 133 154 246 133 154 246 132 155 247 168 152 244 173 156 248 151 157 249 147 158 250 147 158 250 171 159 251 173 156 248 145 160 252 144 161 253 146 162 254 146 162 254 135 163 255 145 160 252 130 164 256 128 165 257 170 166 258 170 166 258 134 167 259 130 164 256 161 168 260 157 169 261 163 170 262 163 170 262 139 171 263 161 168 260 136 172 264 140 173 265 162 174 266 162 174 266 138 175 267 136 172 264 151 157 249 161 168 260 139 171 263 139 171 263 147 158 250 151 157 249 144 161 253 136 172 264 138 175 267 138 175 267 146 162 254 144 161 253 157 169 261 145 160 252 135 163 255 135 163 255 163 170 262 157 169 261 140 173 265 130 164 256 134 167 259 134 167 259 162 174 266 140 173 265 148 128 268 128 165 257 130 164 256 130 164 256 150 129 269 148 128 268 164 132 270 144 161 253 145 160 252 145 160 252 165 133 271 164 132 270 131 136 272 151 157 249 173 156 248 173 156 248 129 137 273 131 136 272 169 138 274 149 153 245 168 152 244 168 152 244 172 139 275 169 138 274 152 140 232 132 155 247 133 154 246 133 154 246 175 141 233 152 140 232 153 142 234 171 159 251 147 158 250 147 158 250 167 143 235 153 142 234 155 146 238 135 163 255 146 162 254 146 162 254 166 147 239 155 146 238 154 150 242 134 167 259 170 166 258 170 166 258 174 151 243 154 150 242 136 172 264 156 131 276 160 130 277 160 130 277 140 173 265 136 172 264 161 168 260 141 135 278 137 134 279 137 134 279 157 169 261 161 168 260 162 174 266 142 149 241 158 148 240 158 148 240 138 175 267 162 174 266 163 170 262 143 145 237 159 144 236 159 144 236 139 171 263 163 170 262 140 173 265 160 130 277 150 129 269 150 129 269 130 164 256 140 173 265 151 157 249 131 136 272 141 135 278 141 135 278 161 168 260 151 157 249 134 167 259 154 150 242 142 149 241 142 149 241 162 174 266 134 167 259 135 163 255 155 146 238 143 145 237 143 145 237 163 170 262 135 163 255 144 161 253 164 132 270 156 131 276 156 131 276 136 172 264 144 161 253 157 169 261 137 134 279 165 133 271 165 133 271 145 160 252 157 169 261 138 175 267 158 148 240 166 147 239 166 147 239 146 162 254 138 175 267 139 171 263 159 144 236 167 143 235 167 143 235 147 158 250 139 171 263 149 153 245 173 156 248 171 159 251 171 159 251 133 154 246 149 153 245 132 155 247 170 166 258 128 165 257 128 165 257 168 152 244 132 155 247 148 128 268 172 139 275 168 152 244 168 152 244 128 165 257 148 128 268 173 156 248 149 153 245 169 138 274 169 138 274 129 137 273 173 156 248 152 140 232 174 151 243 170 166 258 170 166 258 132 155 247 152 140 232 153 142 234 175 141 233 133 154 246 133 154 246 171 159 251 153 142 234 184 176 64 218 177 65 203 178 66 184 176 64 203 178 66 186 179 67 186 179 67 211 180 68 201 181 69 186 179 67 201 181 69 179 182 70 184 176 64 186 179 67 179 182 70 179 182 70 177 183 71 193 184 72 179 182 70 193 184 72 209 185 73 184 176 64 179 182 70 209 185 73 202 186 74 184 176 64 209 185 73 216 187 75 202 186 74 209 185 73 188 188 16 221 189 17 205 190 18 188 188 16 205 190 18 189 191 19 189 191 19 223 192 20 207 193 21 189 191 19 207 193 21 191 194 22 188 188 16 189 191 19 191 194 22 191 194 22 222 195 23 206 196 24 191 194 22 206 196 24 190 197 25 188 188 16 191 194 22 190 197 25 204 198 26 188 188 16 190 197 25 220 199 27 204 198 26 190 197 25 208 200 28 185 201 29 181 202 30 181 202 30 180 203 31 208 200 28 199 204 32 219 205 33 183 206 34 183 206 34 213 207 35 199 204 32 187 208 36 210 209 37 214 210 38 214 210 38 215 211 39 187 208 36 178 212 40 176 213 41 212 214 42 212 214 42 182 215 43 178 212 40 184 176 44 176 213 41 178 212 40 178 212 40 218 177 45 184 176 44 186 179 46 210 209 37 187 208 36 187 208 36 211 180 47 186 179 46 179 182 48 219 205 33 199 204 32 199 204 32 177 183 49 179 182 48 209 185 50 185 201 29 208 200 28 208 200 28 216 187 51 209 185 50 188 188 16 180 203 31 181 202 30 181 202 30 221 189 17 188 188 16 189 191 19 213 207 35 183 206 34 183 206 34 223 192 20 189 191 19 191 194 22 215 211 39 214 210 38 214 210 38 222 195 23 191 194 22 190 197 25 182 215 43 212 214 42 212 214 42 220 199 27 190 197 25 185 201 29 217 216 52 196 217 53 196 217 53 181 202 30 185 201 29 180 203 31 195 218 54 192 219 55 192 219 55 208 200 28 180 203 31 219 205 33 200 220 56 198 221 57 198 221 57 183 206 34 219 205 33 210 209 37 194 222 58 197 223 59 197 223 59 214 210 38 210 209 37 184 176 44 202 186 60 192 219 55 192 219 55 176 213 41 184 176 44 199 204 32 217 216 52 193 184 61 193 184 61 177 183 49 199 204 32 186 179 46 203 178 62 194 222 58 194 222 58 210 209 37 186 179 46 187 208 36 200 220 56 201 181 63 201 181 63 211 180 47 187 208 36 188 188 16 204 198 26 195 218 54 195 218 54 180 203 31 188 188 16 189 191 19 205 190 18 196 217 53 196 217 53 213 207 35 189 191 19 190 197 25 206 196 24 197 223 59 197 223 59 182 215 43 190 197 25 191 194 22 207 193 21 198 221 57 198 221 57 215 211 39 191 194 22 217 216 52 199 204 32 213 207 35 213 207 35 196 217 53 217 216 52 195 218 54 212 214 42 176 213 41 176 213 41 192 219 55 195 218 54 200 220 56 187 208 36 215 211 39 215 211 39 198 221 57 200 220 56 194 222 58 178 212 40 182 215 43 182 215 43 197 223 59 194 222 58 202 186 60 216 187 51 208 200 28 208 200 28 192 219 55 202 186 60 217 216 52 185 201 29 209 185 50 209 185 50 193 184 61 217 216 52 203 178 62 218 177 45 178 212 40 178 212 40 194 222 58 203 178 62 200 220 56 219 205 33 179 182 48 179 182 48 201 181 63 200 220 56 204 198 26 220 199 27 212 214 42 212 214 42 195 218 54 204 198 26 205 190 18 221 189 17 181 202 30 181 202 30 196 217 53 205 190 18 206 196 24 222 195 23 214 210 38 214 210 38 197 223 59 206 196 24 207 193 21 223 192 20 183 206 34 183 206 34 198 221 57 207 193 21 224 224 0 225 225 1 233 226 2 233 227 2 232 228 3 224 229 0 225 230 1 226 231 4 234 232 5 234 233 5 233 234 2 225 235 1 226 236 4 227 237 6 235 238 7 235 239 7 234 240 5 226 241 4 227 242 6 228 243 8 236 244 9 236 245 9 235 246 7 227 247 6 228 248 8 229 249 10 237 250 11 237 251 11 236 252 9 228 253 8 229 254 10 230 255 12 238 256 13 238 257 13 237 258 11 229 259 10 230 260 12 231 261 14 239 262 15 239 263 15 238 264 13 230 265 12 231 266 14 224 267 0 232 268 3 232 269 3 239 270 15 231 271 14 233 272 2 234 273 5 235 274 7 235 275 7 236 276 9 237 277 11 237 278 11 238 279 13 239 280 15 235 281 7 237 282 11 239 283 15 233 284 2 235 285 7 239 286 15 232 287 3 233 288 2 239 289 15 240 290 280 241 291 281 242 292 282 242 293 282 243 294 283 240 295 280 241 296 281 244 297 284 245 298 285 245 299 285 242 300 282 241 301 281 244 302 284 246 303 286 247 304 287 247 305 287 245 306 285 244 307 284 246 308 286 248 309 288 249 310 289 249 311 289 247 312 287 246 313 286 248 314 288 250 315 290 251 316 291 251 317 291 249 318 289 248 319 288 250 320 290 252 321 292 253 322 293 253 323 293 251 324 291 250 325 290 252 326 292 254 327 294 255 328 295 255 329 295 253 330 293 252 331 292 254 332 294 240 333 280 243 334 283 243 335 283 255 336 295 254 337 294 242 338 282 245 339 285 247 340 287 247 341 287 249 342 289 251 343 291 251 344 291 253 345 293 255 346 295 247 347 287 251 348 291 255 349 295 242 350 282 247 351 287 255 352 295 243 353 283 242 354 282 255 355 295 256 356 296 257 357 297 258 358 298 258 359 298 259 360 299 256 361 296 257 362 297 260 363 300 261 364 301 261 365 301 258 366 298 257 367 297 260 368 300 262 369 302 263 370 303 263 371 303 261 372 301 260 373 300 262 374 302 264 375 304 265 376 305 265 377 305 263 378 303 262 379 302 264 380 304 266 381 306 267 382 307 267 383 307 265 384 305 264 385 304 266 386 306 268 387 308 269 388 309 269 389 309 267 390 307 266 391 306 268 392 308 270 393 310 271 394 311 271 395 311 269 396 309 268 397 308 270 398 310 256 399 296 259 400 299 259 401 299 271 402 311 270 403 310 258 404 298 261 405 301 263 406 303 263 407 303 265 408 305 267 409 307 267 410 307 269 411 309 271 412 311 263 413 303 267 414 307 271 415 311 258 416 298 263 417 303 271 418 311 259 419 299 258 420 298 271 421 311 272 422 312 273 423 313 274 424 314 274 425 314 275 426 315 272 427 312 273 428 313 276 429 316 277 430 317 277 431 317 274 432 314 273 433 313 276 434 316 278 435 318 279 436 319 279 437 319 277 438 317 276 439 316 278 440 318 280 441 320 281 442 321 281 443 321 279 444 319 278 445 318 280 446 320 282 447 322 283 448 323 283 449 323 281 450 321 280 451 320 282 452 322 284 453 324 285 454 325 285 455 325 283 456 323 282 457 322 284 458 324 286 459 326 287 460 327 287 461 327 285 462 325 284 463 324 286 464 326 272 465 312 275 466 315 275 467 315 287 468 327 286 469 326 274 470 314 277 471 317 279 472 319 279 473 319 281 474 321 283 475 323 283 476 323 285 477 325 287 478 327 279 479 319 283 480 323 287 481 327 274 482 314 279 483 319 287 484 327 275 485 315 274 486 314 287 487 327</p>
        </triangles>
      </mesh>
    </geometry>
    <geometry id="_collider_box_Shape1-lib" name="_collider_box_Shape1">
      <mesh>
        <source id="_collider_box_Shape1-lib-Position">
          <float_array count="24" id="_collider_box_Shape1-lib-Position-array">
-0.450000 -0.450000 0.450000
0.450000 -0.450000 0.450000
-0.450000 0.450000 0.450000
0.450000 0.450000 0.450000
-0.450000 0.450000 -0.450000
0.450000 0.450000 -0.450000
-0.450000 -0.450000 -0.450000
0.450000 -0.450000 -0.450000
</float_array>
          <technique_common>
            <accessor source="#_collider_box_Shape1-lib-Position-array" count="8" stride="3">
              <param name="X" type="float"/>
              <param name="Y" type="float"/>
              <param name="Z" type="float"/>
            </accessor>
          </technique_common>
        </source>
        <source id="_collider_box_Shape1-lib-Normal">
          <float_array count="72" id="_collider_box_Shape1-lib-Normal-array">
0 0 1.000000
0 0 1.000000
0 0 1.000000
0 0 1.000000
0 1.000000 0
0 1.000000 0
0 1.000000 0
0 1.000000 0
0 0 -1.000000
0 0 -1.000000
0 0 -1.000000
0 0 -1.000000
0 -1.000000 0
0 -1.000000 0
0 -1.000000 0
0 -1.000000 0
1.000000 0 0
1.000000 0 0
1.000000 0 0
1.000000 0 0
-1.000000 0 0
-1.000000 0 0
-1.000000 0 0
-1.000000 0 0
</float_array>
          <technique_common>
            <accessor source="#_collider_box_Shape1-lib-Normal-array" count="24" stride="3">
              <param name="X" type="float"/>
              <param name="Y" type="float"/>
              <param name="Z" type="float"/>
            </accessor>
          </technique_common>
          <technique profile="MAYA">
            <DOUBLE_SIDED>true</DOUBLE_SIDED>
          </technique>
        </source>
        <source id="_collider_box_Shape1-lib-map1" name="map1">
          <float_array count="28" id="_collider_box_Shape1-lib-map1-array">
0 0
1.000000 0
0 1.000000
1.000000 1.000000
0 2.000000
1.000000 2.000000
0 3.000000
1.000000 3.000000
0 4.000000
1.000000 4.000000
2.000000 0
2.000000 1.000000
-1.000000 0
-1.000000 1.000000
</float_array>
          <technique_common>
            <accessor source="#_collider_box_Shape1-lib-map1-array" count="14" stride="2">
              <param name="S" type="float"/>
              <param name="T" type="float"/>
            </accessor>
          </technique_common>
        </source>
        <vertices id="_collider_box_Shape1-lib-Vertex">
          <input semantic="POSITION" source="#_collider_box_Shape1-lib-Position"/>
        </vertices>
        <triangles material="lambert1" count="12">
          <input semantic="VERTEX" offset="0" source="#_collider_box_Shape1-lib-Vertex"/>
          <input semantic="NORMAL" offset="1" source="#_collider_box_Shape1-lib-Normal"/>
          <input semantic="TEXCOORD" offset="2" set="0" source="#_collider_box_Shape1-lib-map1"/>
          <p>0 0 0 1 1 1 2 3 2 1 1 1 3 2 3 2 3 2 2 4 2 3 5 3 4 7 4 3 5 3 5 6 5 4 7 4 4 8 4 5 9 5 6 11 6 5 9 5 7 10 7 6 11 6 6 12 6 7 13 7 0 15 8 7 13 7 1 14 9 0 15 8 1 16 1 7 17 10 3 19 3 7 17 10 5 18 11 3 19 3 6 20 12 0 21 0 4 23 13 0 21 0 2 22 2 4 23 13</p>
        </triangles>
      </mesh>
    </geometry>
    <geometry id="_collider_box_Shape2-lib" name="_collider_box_Shape2">
      <mesh>
        <source id="_collider_box_Shape2-lib-Position">
          <float_array count="24" id="_collider_box_Shape2-lib-Position-array">
-0.450000 -0.450000 0.450000
0.450000 -0.450000 0.450000
-0.450000 0.450000 0.450000
0.450000 0.450000 0.450000
-0.450000 0.450000 -0.450000
0.450000 0.450000 -0.450000
-0.450000 -0.450000 -0.450000
0.450000 -0.450000 -0.450000
</float_array>
          <technique_common>
            <accessor source="#_collider_box_Shape2-lib-Position-array" count="8" stride="3">
              <param name="X" type="float"/>
              <param name="Y" type="float"/>
              <param name="Z" type="float"/>
            </accessor>
          </technique_common>
        </source>
        <source id="_collider_box_Shape2-lib-Normal">
          <float_array count="72" id="_collider_box_Shape2-lib-Normal-array">
0 0 1.000000
0 0 1.000000
0 0 1.000000
0 0 1.000000
0 1.000000 0
0 1.000000 0
0 1.000000 0
0 1.000000 0
0 0 -1.000000
0 0 -1.000000
0 0 -1.000000
0 0 -1.000000
0 -1.000000 0
0 -1.000000 0
0 -1.000000 0
0 -1.000000 0
1.000000 0 0
1.000000 0 0
1.000000 0 0
1.000000 0 0
-1.000000 0 0
-1.000000 0 0
-1.000000 0 0
-1.000000 0 0
</float_array>
          <technique_common>
            <accessor source="#_collider_box_Shape2-lib-Normal-array" count="24" stride="3">
              <param name="X" type="float"/>
              <param name="Y" type="float"/>
              <param name="Z" type="float"/>
            </accessor>
          </technique_common>
          <technique profile="MAYA">
            <DOUBLE_SIDED>true</DOUBLE_SIDED>
          </technique>
        </source>
        <source id="_collider_box_Shape2-lib-map1" name="map1">
          <float_array count="28" id="_collider_box_Shape2-lib-map1-array">
0 0
1.000000 0
0 1.000000
1.000000 1.000000
0 2.000000
1.000000 2.000000
0 3.000000
1.000000 3.000000
0 4.000000
1.000000 4.000000
2.000000 0
2.000000 1.000000
-1.000000 0
-1.000000 1.000000
</float_array>
          <technique_common>
            <accessor source="#_collider_box_Shape2-lib-map1-array" count="14" stride="2">
              <param name="S" type="float"/>
              <param name="T" type="float"/>
            </accessor>
          </technique_common>
        </source>
        <vertices id="_collider_box_Shape2-lib-Vertex">
          <input semantic="POSITION" source="#_collider_box_Shape2-lib-Position"/>
        </vertices>
        <triangles material="lambert1" count="12">
          <input semantic="VERTEX" offset="0" source="#_collider_box_Shape2-lib-Vertex"/>
          <input semantic="NORMAL" offset="1" source="#_collider_box_Shape2-lib-Normal"/>
          <input semantic="TEXCOORD" offset="2" set="0" source="#_collider_box_Shape2-lib-map1"/>
          <p>0 0 0 1 1 1 2 3 2 1 1 1 3 2 3 2 3 2 2 4 2 3 5 3 4 7 4 3 5 3 5 6 5 4 7 4 4 8 4 5 9 5 6 11 6 5 9 5 7 10 7 6 11 6 6 12 6 7 13 7 0 15 8 7 13 7 1 14 9 0 15 8 1 16 1 7 17 10 3 19 3 7 17 10 5 18 11 3 19 3 6 20 12 0 21 0 4 23 13 0 21 0 2 22 2 4 23 13</p>
        </triangles>
      </mesh>
    </geometry>
    <geometry id="_collider_box_Shape3-lib" name="_collider_box_Shape3">
      <mesh>
        <source id="_collider_box_Shape3-lib-Position">
          <float_array count="24" id="_collider_box_Shape3-lib-Position-array">
-0.450000 -0.450000 0.450000
0.450000 -0.450000 0.450000
-0.450000 0.450000 0.450000
0.450000 0.450000 0.450000
-0.450000 0.450000 -0.450000
0.450000 0.450000 -0.450000
-0.450000 -0.450000 -0.450000
0.450000 -0.450000 -0.450000
</float_array>
          <technique_common>
            <accessor source="#_collider_box_Shape3-lib-Position-array" count="8" stride="3">
              <param name="X" type="float"/>
              <param name="Y" type="float"/>
              <param name="Z" type="float"/>
            </accessor>
          </technique_common>
        </source>
        <source id="_collider_box_Shape3-lib-Normal">
          <float_array count="72" id="_collider_box_Shape3-lib-Normal-array">
0 0 1.000000
0 0 1.000000
0 0 1.000000
0 0 1.000000
0 1.000000 0
0 1.000000 0
0 1.000000 0
0 1.000000 0
0 0 -1.000000
0 0 -1.000000
0 0 -1.000000
0 0 -1.000000
0 -1.000000 0
0 -1.000000 0
0 -1.000000 0
0 -1.000000 0
1.000000 0 0
1.000000 0 0
1.000000 0 0
1.000000 0 0
-1.000000 0 0
-1.000000 0 0
-1.000000 0 0
-1.000000 0 0
</float_array>
          <technique_common>
            <accessor source="#_collider_box_Shape3-lib-Normal-array" count="24" stride="3">
              <param name="X" type="float"/>
              <param name="Y" type="float"/>
              <param name="Z" type="float"/>
            </accessor>
          </technique_common>
          <technique profile="MAYA">
            <DOUBLE_SIDED>true</DOUBLE_SIDED>
          </technique>
        </source>
        <source id="_collider_box_Shape3-lib-map1" name="map1">
          <float_array count="28" id="_collider_box_Shape3-lib-map1-array">
0 0
1.000000 0
0 1.000000
1.000000 1.000000
0 2.000000
1.000000 2.000000
0 3.000000
1.000000 3.000000
0 4.000000
1.000000 4.000000
2.000000 0
2.000000 1.000000
-1.000000 0
-1.000000 1.000000
</float_array>
          <technique_common>
            <accessor source="#_collider_box_Shape3-lib-map1-array" count="14" stride="2">
              <param name="S" type="float"/>
              <param name="T" type="float"/>
            </accessor>
          </technique_common>
        </source>
        <vertices id="_collider_box_Shape3-lib-Vertex">
          <input semantic="POSITION" source="#_collider_box_Shape3-lib-Position"/>
        </vertices>
        <triangles material="lambert1" count="12">
          <input semantic="VERTEX" offset="0" source="#_collider_box_Shape3-lib-Vertex"/>
          <input semantic="NORMAL" offset="1" source="#_collider_box_Shape3-lib-Normal"/>
          <input semantic="TEXCOORD" offset="2" set="0" source="#_collider_box_Shape3-lib-map1"/>
          <p>0 0 0 1 1 1 2 3 2 1 1 1 3 2 3 2 3 2 2 4 2 3 5 3 4 7 4 3 5 3 5 6 5 4 7 4 4 8 4 5 9 5 6 11 6 5 9 5 7 10 7 6 11 6 6 12 6 7 13 7 0 15 8 7 13 7 1 14 9 0 15 8 1 16 1 7 17 10 3 19 3 7 17 10 5 18 11 3 19 3 6 20 12 0 21 0 4 23 13 0 21 0 2 22 2 4 23 13</p>
        </triangles>
      </mesh>
    </geometry>
    <geometry id="_collider_box_Shape4-lib" name="_collider_box_Shape4">
      <mesh>
        <source id="_collider_box_Shape4-lib-Position">
          <float_array count="24" id="_collider_box_Shape4-lib-Position-array">
-0.450000 -0.450000 0.450000
0.450000 -0.450000 0.450000
-0.450000 0.450000 0.450000
0.450000 0.450000 0.450000
-0.450000 0.450000 -0.450000
0.450000 0.450000 -0.450000
-0.450000 -0.450000 -0.450000
0.450000 -0.450000 -0.450000
</float_array>
          <technique_common>
            <accessor source="#_collider_box_Shape4-lib-Position-array" count="8" stride="3">
              <param name="X" type="float"/>
              <param name="Y" type="float"/>
              <param name="Z" type="float"/>
            </accessor>
          </technique_common>
        </source>
        <source id="_collider_box_Shape4-lib-Normal">
          <float_array count="72" id="_collider_box_Shape4-lib-Normal-array">
0 0 1.000000
0 0 1.000000
0 0 1.000000
0 0 1.000000
0 1.000000 0
0 1.000000 0
0 1.000000 0
0 1.000000 0
0 0 -1.000000
0 0 -1.000000
0 0 -1.000000
0 0 -1.000000
0 -1.000000 0
0 -1.000000 0
0 -1.000000 0
0 -1.000000 0
1.000000 0 0
1.000000 0 0
1.000000 0 0
1.000000 0 0
-1.000000 0 0
-1.000000 0 0
-1.000000 0 0
-1.000000 0 0
</float_array>
          <technique_common>
            <accessor source="#_collider_box_Shape4-lib-Normal-array" count="24" stride="3">
              <param name="X" type="float"/>
              <param name="Y" type="float"/>
              <param name="Z" type="float"/>
            </accessor>
          </technique_common>
          <technique profile="MAYA">
            <DOUBLE_SIDED>true</DOUBLE_SIDED>
          </technique>
        </source>
        <source id="_collider_box_Shape4-lib-map1" name="map1">
          <float_array count="28" id="_collider_box_Shape4-lib-map1-array">
0 0
1.000000 0
0 1.000000
1.000000 1.000000
0 2.000000
1.000000 2.000000
0 3.000000
1.000000 3.000000
0 4.000000
1.000000 4.000000
2.000000 0
2.000000 1.000000
-1.000000 0
-1.000000 1.000000
</float_array>
          <technique_common>
            <accessor source="#_collider_box_Shape4-lib-map1-array" count="14" stride="2">
              <param name="S" type="float"/>
              <param name="T" type="float"/>
            </accessor>
          </technique_common>
        </source>
        <vertices id="_collider_box_Shape4-lib-Vertex">
          <input semantic="POSITION" source="#_collider_box_Shape4-lib-Position"/>
        </vertices>
        <triangles material="lambert1" count="12">
          <input semantic="VERTEX" offset="0" source="#_collider_box_Shape4-lib-Vertex"/>
          <input semantic="NORMAL" offset="1" source="#_collider_box_Shape4-lib-Normal"/>
          <input semantic="TEXCOORD" offset="2" set="0" source="#_collider_box_Shape4-lib-map1"/>
          <p>0 0 0 1 1 1 2 3 2 1 1 1 3 2 3 2 3 2 2 4 2 3 5 3 4 7 4 3 5 3 5 6 5 4 7 4 4 8 4 5 9 5 6 11 6 5 9 5 7 10 7 6 11 6 6 12 6 7 13 7 0 15 8 7 13 7 1 14 9 0 15 8 1 16 1 7 17 10 3 19 3 7 17 10 5 18 11 3 19 3 6 20 12 0 21 0 4 23 13 0 21 0 2 22 2 4 23 13</p>
        </triangles>
      </mesh>
    </geometry>
    <geometry id="_collider_box_Shape5-lib" name="_collider_box_Shape5">
      <mesh>
        <source id="_collider_box_Shape5-lib-Position">
          <float_array count="24" id="_collider_box_Shape5-lib-Position-array">
-0.450000 -0.450000 0.450000
0.450000 -0.450000 0.450000
-0.450000 0.450000 0.450000
0.450000 0.450000 0.450000
-0.450000 0.450000 -0.450000
0.450000 0.450000 -0.450000
-0.450000 -0.450000 -0.450000
0.450000 -0.450000 -0.450000
</float_array>
          <technique_common>
            <accessor source="#_collider_box_Shape5-lib-Position-array" count="8" stride="3">
              <param name="X" type="float"/>
              <param name="Y" type="float"/>
              <param name="Z" type="float"/>
            </accessor>
          </technique_common>
        </source>
        <source id="_collider_box_Shape5-lib-Normal">
          <float_array count="72" id="_collider_box_Shape5-lib-Normal-array">
0 0 1.000000
0 0 1.000000
0 0 1.000000
0 0 1.000000
0 1.000000 0
0 1.000000 0
0 1.000000 0
0 1.000000 0
0 0 -1.000000
0 0 -1.000000
0 0 -1.000000
0 0 -1.000000
0 -1.000000 0
0 -1.000000 0
0 -1.000000 0
0 -1.000000 0
1.000000 0 0
1.000000 0 0
1.000000 0 0
1.000000 0 0
-1.000000 0 0
-1.000000 0 0
-1.000000 0 0
-1.000000 0 0
</float_array>
          <technique_common>
            <accessor source="#_collider_box_Shape5-lib-Normal-array" count="24" stride="3">
              <param name="X" type="float"/>
              <param name="Y" type="float"/>
              <param name="Z" type="float"/>
            </accessor>
          </technique_common>
          <technique profile="MAYA">
            <DOUBLE_SIDED>true</DOUBLE_SIDED>
          </technique>
        </source>
        <source id="_collider_box_Shape5-lib-map1" name="map1">
          <float_array count="28" id="_collider_box_Shape5-lib-map1-array">
0 0
1.000000 0
0 1.000000
1.000000 1.000000
0 2.000000
1.000000 2.000000
0 3.000000
1.000000 3.000000
0 4.000000
1.000000 4.000000
2.000000 0
2.000000 1.000000
-1.000000 0
-1.000000 1.000000
</float_array>
          <technique_common>
            <accessor source="#_collider_box_Shape5-lib-map1-array" count="14" stride="2">
              <param name="S" type="float"/>
              <param name="T" type="float"/>
            </accessor>
          </technique_common>
        </source>
        <vertices id="_collider_box_Shape5-lib-Vertex">
          <input semantic="POSITION" source="#_collider_box_Shape5-lib-Position"/>
        </vertices>
        <triangles material="lambert1" count="12">
          <input semantic="VERTEX" offset="0" source="#_collider_box_Shape5-lib-Vertex"/>
          <input semantic="NORMAL" offset="1" source="#_collider_box_Shape5-lib-Normal"/>
          <input semantic="TEXCOORD" offset="2" set="0" source="#_collider_box_Shape5-lib-map1"/>
          <p>0 0 0 1 1 1 2 3 2 1 1 1 3 2 3 2 3 2 2 4 2 3 5 3 4 7 4 3 5 3 5 6 5 4 7 4 4 8 4 5 9 5 6 11 6 5 9 5 7 10 7 6 11 6 6 12 6 7 13 7 0 15 8 7 13 7 1 14 9 0 15 8 1 16 1 7 17 10 3 19 3 7 17 10 5 18 11 3 19 3 6 20 12 0 21 0 4 23 13 0 21 0 2 22 2 4 23 13</p>
        </triangles>
      </mesh>
    </geometry>
    <geometry id="_collider_box_Shape6-lib" name="_collider_box_Shape6">
      <mesh>
        <source id="_collider_box_Shape6-lib-Position">
          <float_array count="24" id="_collider_box_Shape6-lib-Position-array">
-0.450000 -0.450000 0.450000
0.450000 -0.450000 0.450000
-0.450000 0.450000 0.450000
0.450000 0.450000 0.450000
-0.450000 0.450000 -0.450000
0.450000 0.450000 -0.450000
-0.450000 -0.450000 -0.450000
0.450000 -0.450000 -0.450000
</float_array>
          <technique_common>
            <accessor source="#_collider_box_Shape6-lib-Position-array" count="8" stride="3">
              <param name="X" type="float"/>
              <param name="Y" type="float"/>
              <param name="Z" type="float"/>
            </accessor>
          </technique_common>
        </source>
        <source id="_collider_box_Shape6-lib-Normal">
          <float_array count="72" id="_collider_box_Shape6-lib-Normal-array">
0 0 1.000000
0 0 1.000000
0 0 1.000000
0 0 1.000000
0 1.000000 0
0 1.000000 0
0 1.000000 0
0 1.000000 0
0 0 -1.000000
0 0 -1.000000
0 0 -1.000000
0 0 -1.000000
0 -1.000000 0
0 -1.000000 0
0 -1.000000 0
0 -1.000000 0
1.000000 0 0
1.000000 0 0
1.000000 0 0
1.000000 0 0
-1.000000 0 0
-1.000000 0 0
-1.000000 0 0
-1.000000 0 0
</float_array>
          <technique_common>
            <accessor source="#_collider_box_Shape6-lib-Normal-array" count="24" stride="3">
              <param name="X" type="float"/>
              <param name="Y" type="float"/>
              <param name="Z" type="float"/>
            </accessor>
          </technique_common>
          <technique profile="MAYA">
            <DOUBLE_SIDED>true</DOUBLE_SIDED>
          </technique>
        </source>
        <source id="_collider_box_Shape6-lib-map1" name="map1">
          <float_array count="28" id="_collider_box_Shape6-lib-map1-array">
0 0
1.000000 0
0 1.000000
1.000000 1.000000
0 2.000000
1.000000 2.000000
0 3.000000
1.000000 3.000000
0 4.000000
1.000000 4.000000
2.000000 0
2.000000 1.000000
-1.000000 0
-1.000000 1.000000
</float_array>
          <technique_common>
            <accessor source="#_collider_box_Shape6-lib-map1-array" count="14" stride="2">
              <param name="S" type="float"/>
              <param name="T" type="float"/>
            </accessor>
          </technique_common>
        </source>
        <vertices id="_collider_box_Shape6-lib-Vertex">
          <input semantic="POSITION" source="#_collider_box_Shape6-lib-Position"/>
        </vertices>
        <triangles material="lambert1" count="12">
          <input semantic="VERTEX" offset="0" source="#_collider_box_Shape6-lib-Vertex"/>
          <input semantic="NORMAL" offset="1" source="#_collider_box_Shape6-lib-Normal"/>
          <input semantic="TEXCOORD" offset="2" set="0" source="#_collider_box_Shape6-lib-map1"/>
          <p>0 0 0 1 1 1 2 3 2 1 1 1 3 2 3 2 3 2 2 4 2 3 5 3 4 7 4 3 5 3 5 6 5 4 7 4 4 8 4 5 9 5 6 11 6 5 9 5 7 10 7 6 11 6 6 12 6 7 13 7 0 15 8 7 13 7 1 14 9 0 15 8 1 16 1 7 17 10 3 19 3 7 17 10 5 18 11 3 19 3 6 20 12 0 21 0 4 23 13 0 21 0 2 22 2 4 23 13</p>
        </triangles>
      </mesh>
    </geometry>
    <geometry id="_collider_box_Shape7-lib" name="_collider_box_Shape7">
      <mesh>
        <source id="_collider_box_Shape7-lib-Position">
          <float_array count="24" id="_collider_box_Shape7-lib-Position-array">
-0.450000 -0.450000 0.450000
0.450000 -0.450000 0.450000
-0.450000 0.450000 0.450000
0.450000 0.450000 0.450000
-0.450000 0.450000 -0.450000
0.450000 0.450000 -0.450000
-0.450000 -0.450000 -0.450000
0.450000 -0.450000 -0.450000
</float_array>
          <technique_common>
            <accessor source="#_collider_box_Shape7-lib-Position-array" count="8" stride="3">
              <param name="X" type="float"/>
              <param name="Y" type="float"/>
              <param name="Z" type="float"/>
            </accessor>
          </technique_common>
        </source>
        <source id="_collider_box_Shape7-lib-Normal">
          <float_array count="72" id="_collider_box_Shape7-lib-Normal-array">
0 0 1.000000
0 0 1.000000
0 0 1.000000
0 0 1.000000
0 1.000000 0
0 1.000000 0
0 1.000000 0
0 1.000000 0
0 0 -1.000000
0 0 -1.000000
0 0 -1.000000
0 0 -1.000000
0 -1.000000 0
0 -1.000000 0
0 -1.000000 0
0 -1.000000 0
1.000000 0 0
1.000000 0 0
1.000000 0 0
1.000000 0 0
-1.000000 0 0
-1.000000 0 0
-1.000000 0 0
-1.000000 0 0
</float_array>
          <technique_common>
            <accessor source="#_collider_box_Shape7-lib-Normal-array" count="24" stride="3">
              <param name="X" type="float"/>
              <param name="Y" type="float"/>
              <param name="Z" type="float"/>
            </accessor>
          </technique_common>
          <technique profile="MAYA">
            <DOUBLE_SIDED>true</DOUBLE_SIDED>
          </technique>
        </source>
        <source id="_collider_box_Shape7-lib-map1" name="map1">
          <float_array count="28" id="_collider_box_Shape7-lib-map1-array">
0 0
1.000000 0
0 1.000000
1.000000 1.000000
0 2.000000
1.000000 2.000000
0 3.000000
1.000000 3.000000
0 4.000000
1.000000 4.000000
2.000000 0
2.000000 1.000000
-1.000000 0
-1.000000 1.000000
</float_array>
          <technique_common>
            <accessor source="#_collider_box_Shape7-lib-map1-array" count="14" stride="2">
              <param name="S" type="float"/>
              <param name="T" type="float"/>
            </accessor>
          </technique_common>
        </source>
        <vertices id="_collider_box_Shape7-lib-Vertex">
          <input semantic="POSITION" source="#_collider_box_Shape7-lib-Position"/>
        </vertices>
        <triangles material="lambert1" count="12">
          <input semantic="VERTEX" offset="0" source="#_collider_box_Shape7-lib-Vertex"/>
          <input semantic="NORMAL" offset="1" source="#_collider_box_Shape7-lib-Normal"/>
          <input semantic="TEXCOORD" offset="2" set="0" source="#_collider_box_Shape7-lib-map1"/>
          <p>0 0 0 1 1 1 2 3 2 1 1 1 3 2 3 2 3 2 2 4 2 3 5 3 4 7 4 3 5 3 5 6 5 4 7 4 4 8 4 5 9 5 6 11 6 5 9 5 7 10 7 6 11 6 6 12 6 7 13 7 0 15 8 7 13 7 1 14 9 0 15 8 1 16 1 7 17 10 3 19 3 7 17 10 5 18 11 3 19 3 6 20 12 0 21 0 4 23 13 0 21 0 2 22 2 4 23 13</p>
        </triangles>
      </mesh>
    </geometry>
    <geometry id="_collider_box_Shape8-lib" name="_collider_box_Shape8">
      <mesh>
        <source id="_collider_box_Shape8-lib-Position">
          <float_array count="24" id="_collider_box_Shape8-lib-Position-array">
-0.450000 -0.450000 0.450000
0.450000 -0.450000 0.450000
-0.450000 0.450000 0.450000
0.450000 0.450000 0.450000
-0.450000 0.450000 -0.450000
0.450000 0.450000 -0.450000
-0.450000 -0.450000 -0.450000
0.450000 -0.450000 -0.450000
</float_array>
          <technique_common>
            <accessor source="#_collider_box_Shape8-lib-Position-array" count="8" stride="3">
              <param name="X" type="float"/>
              <param name="Y" type="float"/>
              <param name="Z" type="float"/>
            </accessor>
          </technique_common>
        </source>
        <source id="_collider_box_Shape8-lib-Normal">
          <float_array count="72" id="_collider_box_Shape8-lib-Normal-array">
0 0 1.000000
0 0 1.000000
0 0 1.000000
0 0 1.000000
0 1.000000 0
0 1.000000 0
0 1.000000 0
0 1.000000 0
0 0 -1.000000
0 0 -1.000000
0 0 -1.000000
0 0 -1.000000
0 -1.000000 0
0 -1.000000 0
0 -1.000000 0
0 -1.000000 0
1.000000 0 0
1.000000 0 0
1.000000 0 0
1.000000 0 0
-1.000000 0 0
-1.000000 0 0
-1.000000 0 0
-1.000000 0 0
</float_array>
          <technique_common>
            <accessor source="#_collider_box_Shape8-lib-Normal-array" count="24" stride="3">
              <param name="X" type="float"/>
              <param name="Y" type="float"/>
              <param name="Z" type="float"/>
            </accessor>
          </technique_common>
          <technique profile="MAYA">
            <DOUBLE_SIDED>true</DOUBLE_SIDED>
          </technique>
        </source>
        <source id="_collider_box_Shape8-lib-map1" name="map1">
          <float_array count="28" id="_collider_box_Shape8-lib-map1-array">
0 0
1.000000 0
0 1.000000
1.000000 1.000000
0 2.000000
1.000000 2.000000
0 3.000000
1.000000 3.000000
0 4.000000
1.000000 4.000000
2.000000 0
2.000000 1.000000
-1.000000 0
-1.000000 1.000000
</float_array>
          <technique_common>
            <accessor source="#_collider_box_Shape8-lib-map1-array" count="14" stride="2">
              <param name="S" type="float"/>
              <param name="T" type="float"/>
            </accessor>
          </technique_common>
        </source>
        <vertices id="_collider_box_Shape8-lib-Vertex">
          <input semantic="POSITION" source="#_collider_box_Shape8-lib-Position"/>
        </vertices>
        <triangles material="lambert1" count="12">
          <input semantic="VERTEX" offset="0" source="#_collider_box_Shape8-lib-Vertex"/>
          <input semantic="NORMAL" offset="1" source="#_collider_box_Shape8-lib-Normal"/>
          <input semantic="TEXCOORD" offset="2" set="0" source="#_collider_box_Shape8-lib-map1"/>
          <p>0 0 0 1 1 1 2 3 2 1 1 1 3 2 3 2 3 2 2 4 2 3 5 3 4 7 4 3 5 3 5 6 5 4 7 4 4 8 4 5 9 5 6 11 6 5 9 5 7 10 7 6 11 6 6 12 6 7 13 7 0 15 8 7 13 7 1 14 9 0 15 8 1 16 1 7 17 10 3 19 3 7 17 10 5 18 11 3 19 3 6 20 12 0 21 0 4 23 13 0 21 0 2 22 2 4 23 13</p>
        </triangles>
      </mesh>
    </geometry>
  </library_geometries>
  <library_visual_scenes>
    <visual_scene id="DefaultScene" name="furniture_chair_thin01">
      <node id="_furniture_chair_thin01" name="furniture_chair_thin01" sid="_furniture_chair_thin01">
        <rotate sid="rotateZ">0 0 1 0</rotate>
        <rotate sid="rotateY">0 1 0 0</rotate>
        <rotate sid="rotateX">1 0 0 0</rotate>
        <scale sid="scale">1.787330 1.787330 1.787330</scale>
        <instance_geometry url="#_furniture_chair_thin01_furniture_chair_thin01-lib">
          <bind_material>
            <technique_common>
              <instance_material symbol="_09___Default" target="#_09___Default">
                <bind semantic="UVSET0" target="#_furniture_chair_thin01_furniture_chair_thin01-lib-map1"/>
              </instance_material>
            </technique_common>
          </bind_material>
        </instance_geometry>
      </node>
      <node id="_collider_box_1" name="_collider_box_1" sid="_collider_box_1">
        <translate sid="translate">0 -0.087803 0.021537</translate>
        <rotate sid="rotateZ">0 0 1 0</rotate>
        <rotate sid="rotateY">0 1 0 0</rotate>
        <rotate sid="rotateX">1 0 0 0</rotate>
        <scale sid="scale">0.690563 0.139676 0.543566</scale>
        <instance_geometry url="#_collider_box_Shape1-lib">
          <bind_material>
            <technique_common>
              <instance_material symbol="lambert1" target="#lambert1"/>
            </technique_common>
          </bind_material>
        </instance_geometry>
      </node>
      <node id="_collider_box_2" name="_collider_box_2" sid="_collider_box_2">
        <translate sid="translate">0 0.450618 -0.229675</translate>
        <rotate sid="rotateZ">0 0 1 0</rotate>
        <rotate sid="rotateY">0 1 0 0</rotate>
        <rotate sid="rotateX">1 0 0 87.000076</rotate>
        <scale sid="scale">0.479558 0.069848 0.235853</scale>
        <instance_geometry url="#_collider_box_Shape2-lib">
          <bind_material>
            <technique_common>
              <instance_material symbol="lambert1" target="#lambert1"/>
            </technique_common>
          </bind_material>
        </instance_geometry>
      </node>
      <node id="_collider_box_3" name="_collider_box_3" sid="_collider_box_3">
        <translate sid="translate">-0.219579 0.150044 -0.221273</translate>
        <rotate sid="rotateZ">0 0 1 84.995193</rotate>
        <rotate sid="rotateY">0 1 0 3.997563</rotate>
        <rotate sid="rotateX">1 0 0 -0.139825</rotate>
        <scale sid="scale">0.463594 0.069848 0.069404</scale>
        <instance_geometry url="#_collider_box_Shape3-lib">
          <bind_material>
            <technique_common>
              <instance_material symbol="lambert1" target="#lambert1"/>
            </technique_common>
          </bind_material>
        </instance_geometry>
      </node>
      <node id="_collider_box_4" name="_collider_box_4" sid="_collider_box_4">
        <translate sid="translate">0.218178 0.150044 -0.221273</translate>
        <rotate sid="rotateZ">0 0 1 94.997734</rotate>
        <rotate sid="rotateY">0 1 0 3.961223</rotate>
        <rotate sid="rotateX">1 0 0 0.556087</rotate>
        <scale sid="scale">0.463594 0.069848 0.069404</scale>
        <instance_geometry url="#_collider_box_Shape4-lib">
          <bind_material>
            <technique_common>
              <instance_material symbol="lambert1" target="#lambert1"/>
            </technique_common>
          </bind_material>
        </instance_geometry>
      </node>
      <node id="_collider_box_5" name="_collider_box_5" sid="_collider_box_5">
        <translate sid="translate">0.268759 -0.348536 -0.227720</translate>
        <rotate sid="rotateZ">0 0 1 95.019089</rotate>
        <rotate sid="rotateY">0 1 0 -4.980930</rotate>
        <rotate sid="rotateX">1 0 0 -0.436880</rotate>
        <scale sid="scale">0.463594 0.069848 0.069404</scale>
        <instance_geometry url="#_collider_box_Shape5-lib">
          <bind_material>
            <technique_common>
              <instance_material symbol="lambert1" target="#lambert1"/>
            </technique_common>
          </bind_material>
        </instance_geometry>
      </node>
      <node id="_collider_box_6" name="_collider_box_6" sid="_collider_box_6">
        <translate sid="translate">-0.264926 -0.348536 -0.229412</translate>
        <rotate sid="rotateZ">0 0 1 84.961998</rotate>
        <rotate sid="rotateY">0 1 0 -4.980784</rotate>
        <rotate sid="rotateX">1 0 0 0.438536</rotate>
        <scale sid="scale">0.463594 0.069848 0.069404</scale>
        <instance_geometry url="#_collider_box_Shape6-lib">
          <bind_material>
            <technique_common>
              <instance_material symbol="lambert1" target="#lambert1"/>
            </technique_common>
          </bind_material>
        </instance_geometry>
      </node>
      <node id="_collider_box_7" name="_collider_box_7" sid="_collider_box_7">
        <translate sid="translate">-0.272302 -0.348536 0.239422</translate>
        <rotate sid="rotateZ">0 0 1 85.038292</rotate>
        <rotate sid="rotateY">0 1 0 4.999713</rotate>
        <rotate sid="rotateX">1 0 0 0.438549</rotate>
        <scale sid="scale">0.463594 0.069848 0.069404</scale>
        <instance_geometry url="#_collider_box_Shape7-lib">
          <bind_material>
            <technique_common>
              <instance_material symbol="lambert1" target="#lambert1"/>
            </technique_common>
          </bind_material>
        </instance_geometry>
      </node>
      <node id="_collider_box_8" name="_collider_box_8" sid="_collider_box_8">
        <translate sid="translate">0.267715 -0.348536 0.239422</translate>
        <rotate sid="rotateZ">0 0 1 95.035927</rotate>
        <rotate sid="rotateY">0 1 0 4.848296</rotate>
        <rotate sid="rotateX">1 0 0 1.298857</rotate>
        <scale sid="scale">0.463594 0.069848 0.069404</scale>
        <instance_geometry url="#_collider_box_Shape8-lib">
          <bind_material>
            <technique_common>
              <instance_material symbol="lambert1" target="#lambert1"/>
            </technique_common>
          </bind_material>
        </instance_geometry>
      </node>
      <extra>
        <technique profile="MAYA">
          <start_time>0.041667</start_time>
          <end_time>2.000000</end_time>
        </technique>
      </extra>
    </visual_scene>
  </library_visual_scenes>
  <scene>
    <instance_visual_scene url="#DefaultScene"/>
  </scene>
</COLLADA>
