<?xml version="1.0" encoding="utf-8"?>
<COLLADA xmlns="http://www.collada.org/2005/11/COLLADASchema" version="1.4.1">
  <asset>
    <contributor>
      <author>Jonny</author>
      <authoring_tool>OpenCOLLADA2011</authoring_tool>
      <comments>
			ColladaMaya export options: 
			bakeTransforms=0;relativePaths=0;copyTextures=0;exportTriangles=1;exportCgfxFileReferences=1;
			isSampling=0;curveConstrainSampling=0;removeStaticCurves=0;exportPolygonMeshes=1;exportLights=1;
			exportCameras=1;exportJointsAndSkin=1;exportAnimations=0;exportInvisibleNodes=0;exportDefaultCameras=0;
			exportTexCoords=1;exportNormals=1;exportNormalsPerVertex=1;exportVertexColors=1;exportVertexColorsPerVertex=0;
			exportTexTangents=0;exportTangents=0;exportReferencedMaterials=0;exportMaterialsOnly=0;
			exportXRefs=0;dereferenceXRefs=0;exportCameraAsLookat=0;cameraXFov=0;cameraYFov=1;doublePrecision=0
		</comments>
      <source_data>file:///C:/Program%20Files%20(x86)/Amnesia%20-%20The%20Dark%20Descent/redist/anomaly/temp%20stuff/foliage.mb</source_data>
    </contributor>
    <created>2013-05-14T13:50:41</created>
    <modified>2013-05-14T13:50:41</modified>
    <unit name="meter" meter="1"/>
    <up_axis>Y_UP</up_axis>
  </asset>
  <library_materials>
    <material id="lambert4" name="lambert4">
      <instance_effect url="#lambert4-fx"/>
    </material>
  </library_materials>
  <library_effects>
    <effect id="lambert4-fx">
      <profile_COMMON>
        <newparam sid="file3-surface">
          <surface type="2D">
            <init_from>file3</init_from>
          </surface>
        </newparam>
        <newparam sid="file3-sampler">
          <sampler2D>
            <source>file3-surface</source>
          </sampler2D>
        </newparam>
        <technique sid="common">
          <lambert>
            <emission>
              <color>0 0 0 1</color>
            </emission>
            <ambient>
              <color>0 0 0 1</color>
            </ambient>
            <diffuse>
              <texture texture="file3-sampler" texcoord="TEX0">
                <extra>
                  <technique profile="OpenCOLLADAMaya">
                    <blend_mode>NONE</blend_mode>
                    <coverageU>1</coverageU>
                    <coverageV>1</coverageV>
                    <fast>0</fast>
                    <mirrorU>0</mirrorU>
                    <mirrorV>0</mirrorV>
                    <noiseU>0</noiseU>
                    <noiseV>0</noiseV>
                    <offsetU>0</offsetU>
                    <offsetV>0</offsetV>
                    <repeatU>1</repeatU>
                    <repeatV>1</repeatV>
                    <rotateFrame>0</rotateFrame>
                    <rotateUV>0</rotateUV>
                    <stagger>0</stagger>
                    <translateFrameU>0</translateFrameU>
                    <translateFrameV>0</translateFrameV>
                    <wrapU>1</wrapU>
                    <wrapV>1</wrapV>
                  </technique>
                </extra>
              </texture>
            </diffuse>
            <transparent opaque="A_ONE">
              <texture texture="file3-sampler" texcoord="TEX1">
                <extra>
                  <technique profile="OpenCOLLADAMaya">
                    <blend_mode>NONE</blend_mode>
                    <coverageU>1</coverageU>
                    <coverageV>1</coverageV>
                    <fast>0</fast>
                    <mirrorU>0</mirrorU>
                    <mirrorV>0</mirrorV>
                    <noiseU>0</noiseU>
                    <noiseV>0</noiseV>
                    <offsetU>0</offsetU>
                    <offsetV>0</offsetV>
                    <repeatU>1</repeatU>
                    <repeatV>1</repeatV>
                    <rotateFrame>0</rotateFrame>
                    <rotateUV>0</rotateUV>
                    <stagger>0</stagger>
                    <translateFrameU>0</translateFrameU>
                    <translateFrameV>0</translateFrameV>
                    <wrapU>1</wrapU>
                    <wrapV>1</wrapV>
                  </technique>
                </extra>
              </texture>
            </transparent>
            <transparency>
              <float>1</float>
            </transparency>
          </lambert>
        </technique>
      </profile_COMMON>
    </effect>
  </library_effects>
  <library_images>
    <image id="file3" name="file3">
      <init_from>file:///C:/Program%20Files%20(x86)/Amnesia%20-%20The%20Dark%20Descent/redist/anomaly/static_objects/natural/grass1.dds</init_from>
      <extra>
        <technique profile="OpenCOLLADAMaya">
          <dgnode_type>kFile</dgnode_type>
          <image_sequence>0</image_sequence>
          <originalMayaNodeId>file3</originalMayaNodeId>
        </technique>
      </extra>
    </image>
  </library_images>
  <library_geometries>
    <geometry id="polySurfaceShape55" name="polySurfaceShape55">
      <mesh>
        <source id="polySurfaceShape55-positions" name="polySurfaceShape55-positions">
          <float_array id="polySurfaceShape55-positions-array" count="120">0 0 0.9310487 0 1 0.9310487 0 0 -0.06895123 0 1 -0.06895123 -0.03962968 0 0.4767476 -0.03962968 1.169512 0.4767476 -0.03962968 0 -0.5232524 -0.03962968 1.169512 -0.5232524 0 0 0.04439777 0 1 0.04439777 0 0 -0.9556023 0 1 -0.9556023 -0.04912251 0 1.294827 -0.04912251 0.9442471 1.294827 -0.04912251 0 0.2948274 -0.04912251 0.9442471 0.2948274 -0.04912251 0 -0.2948275 -0.04912251 0.9442471 -0.2948275 -0.04912251 0 -1.294827 -0.04912251 0.9442471 -1.294827 0 0 1 0 1 1 0 0 0 0 1 0 -0.03962968 0 0.5456988 -0.03962968 1.169512 0.5456988 -0.03962968 0 -0.4543012 -0.03962968 1.169512 -0.4543012 0 0 0.113349 0 1 0.113349 0 0 -0.886651 0 1 -0.886651 -0.04912251 0 1.363779 -0.04912251 0.9442471 1.363779 -0.04912251 0 0.3637786 -0.04912251 0.9442471 0.3637786 -0.04912251 0 -0.2258762 -0.04912251 0.9442471 -0.2258762 -0.04912251 0 -1.225876 -0.04912251 0.9442471 -1.225876</float_array>
          <technique_common>
            <accessor source="#polySurfaceShape55-positions-array" count="40" stride="3">
              <param name="X" type="float"/>
              <param name="Y" type="float"/>
              <param name="Z" type="float"/>
            </accessor>
          </technique_common>
        </source>
        <source id="polySurfaceShape55-normals" name="polySurfaceShape55-normals">
          <float_array id="polySurfaceShape55-normals-array" count="120">-1 0 0 -1 0 0 -1 0 0 -1 0 0 -1 0 0 -1 0 0 -1 0 0 -1 0 0 -1 0 0 -1 0 0 -1 0 0 -1 0 0 -1 0 0 -1 0 0 -1 0 0 -1 0 0 -1 0 0 -1 0 0 -1 0 0 -1 0 0 1 0 0 1 0 0 1 0 0 1 0 0 1 0 0 1 0 0 1 0 0 1 0 0 1 0 0 1 0 0 1 0 0 1 0 0 1 0 0 1 0 0 1 0 0 1 0 0 1 0 0 1 0 0 1 0 0 1 0 0</float_array>
          <technique_common>
            <accessor source="#polySurfaceShape55-normals-array" count="40" stride="3">
              <param name="X" type="float"/>
              <param name="Y" type="float"/>
              <param name="Z" type="float"/>
            </accessor>
          </technique_common>
        </source>
        <source id="polySurfaceShape55-map1" name="polySurfaceShape55-map1">
          <float_array id="polySurfaceShape55-map1-array" count="80">1 0.1049936 1 1 0 0.1049936 0 1 1 0.1049936 1 1 0 1 0 0.1049936 1 0.1049936 1 1 0 1 0 0.1049936 1 0.1049936 1 1 0 1 0 0.1049936 1 0.1049936 1 1 0 1 0 0.1049936 1 0.1049936 0 0.1049936 0 1 1 1 1 0.1049936 0 0.1049936 0 1 1 1 1 0.1049936 0 0.1049936 0 1 1 1 1 0.1049936 0 0.1049936 0 1 1 1 1 0.1049936 0 0.1049936 0 1 1 1</float_array>
          <technique_common>
            <accessor source="#polySurfaceShape55-map1-array" count="40" stride="2">
              <param name="S" type="float"/>
              <param name="T" type="float"/>
            </accessor>
          </technique_common>
        </source>
        <vertices id="polySurfaceShape55-vertices" name="polySurfaceShape55-vertices">
          <input semantic="POSITION" source="#polySurfaceShape55-positions"/>
          <input semantic="NORMAL" source="#polySurfaceShape55-normals"/>
        </vertices>
        <triangles material="lambert4SG" count="20">
          <input semantic="VERTEX" source="#polySurfaceShape55-vertices" offset="0"/>
          <input semantic="TEXCOORD" source="#polySurfaceShape55-map1" offset="1" set="0"/>
          <p>0 0 1 1 2 2 2 2 1 1 3 3 4 4 5 5 6 7 6 7 5 5 7 6 8 8 9 9 10 11 10 11 9 9 11 10 12 12 13 13 14 15 14 15 13 13 15 14 16 16 17 17 18 19 18 19 17 17 19 18 20 20 22 21 21 23 21 23 22 21 23 22 24 24 26 25 25 27 25 27 26 25 27 26 28 28 30 29 29 31 29 31 30 29 31 30 32 32 34 33 33 35 33 35 34 33 35 34 36 36 38 37 37 39 37 39 38 37 39 38</p>
        </triangles>
      </mesh>
      <extra>
        <technique profile="OpenCOLLADAMaya">
          <originalMayaNodeId>polySurfaceShape55</originalMayaNodeId>
          <double_sided>0</double_sided>
        </technique>
      </extra>
    </geometry>
  </library_geometries>
  <library_visual_scenes>
    <visual_scene id="VisualSceneNode" name="foliage">
      <node id="polySurface55" name="polySurface55" type="NODE">
        <translate sid="translate">0 0 0</translate>
        <translate sid="rotatePivot">-0.02456125 0.5847558 0.03447563</translate>
        <rotate sid="rotateZ">0 0 1 0</rotate>
        <rotate sid="rotateY">0 1 0 0</rotate>
        <rotate sid="rotateX">1 0 0 0</rotate>
        <translate sid="rotatePivotInverse">0.02456125 -0.5847558 -0.03447563</translate>
        <translate sid="scalePivot">-0.02456125 0.5847558 0.03447563</translate>
        <scale sid="scale">1 1 1</scale>
        <translate sid="scalePivotInverse">0.02456125 -0.5847558 -0.03447563</translate>
        <instance_geometry url="#polySurfaceShape55">
          <bind_material>
            <technique_common>
              <instance_material symbol="lambert4SG" target="#lambert4">
                <bind_vertex_input semantic="TEX0" input_semantic="TEXCOORD" input_set="0"/>
                <bind_vertex_input semantic="TEX1" input_semantic="TEXCOORD" input_set="0"/>
              </instance_material>
            </technique_common>
          </bind_material>
        </instance_geometry>
        <extra>
          <technique profile="OpenCOLLADAMaya">
            <originalMayaNodeId>polySurface55</originalMayaNodeId>
          </technique>
        </extra>
      </node>
    </visual_scene>
  </library_visual_scenes>
  <scene>
    <instance_visual_scene url="#VisualSceneNode"/>
  </scene>
</COLLADA>