<?xml version="1.0" encoding="utf-8"?>
<COLLADA xmlns="http://www.collada.org/2005/11/COLLADASchema" version="1.4.1">
  <asset>
    <contributor>
      <author>Jonny</author>
      <authoring_tool>OpenCOLLADA2011</authoring_tool>
      <comments>
			ColladaMaya export options: 
			bakeTransforms=0;relativePaths=0;copyTextures=0;exportTriangles=1;exportCgfxFileReferences=1;
			isSampling=0;curveConstrainSampling=0;removeStaticCurves=0;exportPolygonMeshes=1;exportLights=1;
			exportCameras=1;exportJointsAndSkin=1;exportAnimations=0;exportInvisibleNodes=0;exportDefaultCameras=0;
			exportTexCoords=1;exportNormals=1;exportNormalsPerVertex=1;exportVertexColors=1;exportVertexColorsPerVertex=0;
			exportTexTangents=0;exportTangents=0;exportReferencedMaterials=0;exportMaterialsOnly=0;
			exportXRefs=0;dereferenceXRefs=0;exportCameraAsLookat=0;cameraXFov=0;cameraYFov=1;doublePrecision=0
		</comments>
      <source_data>file:///C:/Users/Jonny/Documents/maya/projects/First_test/untitled</source_data>
    </contributor>
    <created>2013-06-30T15:40:37</created>
    <modified>2013-06-30T15:40:37</modified>
    <unit name="centimeter" meter="0.01"/>
    <up_axis>Y_UP</up_axis>
  </asset>
  <library_materials>
    <material id="lambert2" name="lambert2">
      <instance_effect url="#lambert2-fx"/>
    </material>
  </library_materials>
  <library_effects>
    <effect id="lambert2-fx">
      <profile_COMMON>
        <newparam sid="file1-surface">
          <surface type="2D">
            <init_from>file1</init_from>
          </surface>
        </newparam>
        <newparam sid="file1-sampler">
          <sampler2D>
            <source>file1-surface</source>
          </sampler2D>
        </newparam>
        <technique sid="common">
          <lambert>
            <emission>
              <color>0 0 0 1</color>
            </emission>
            <ambient>
              <color>0 0 0 1</color>
            </ambient>
            <diffuse>
              <texture texture="file1-sampler" texcoord="TEX0">
                <extra>
                  <technique profile="OpenCOLLADAMaya">
                    <blend_mode>NONE</blend_mode>
                    <coverageU>1</coverageU>
                    <coverageV>1</coverageV>
                    <fast>0</fast>
                    <mirrorU>0</mirrorU>
                    <mirrorV>0</mirrorV>
                    <noiseU>0</noiseU>
                    <noiseV>0</noiseV>
                    <offsetU>0</offsetU>
                    <offsetV>0</offsetV>
                    <repeatU>1</repeatU>
                    <repeatV>1</repeatV>
                    <rotateFrame>0</rotateFrame>
                    <rotateUV>0</rotateUV>
                    <stagger>0</stagger>
                    <translateFrameU>0</translateFrameU>
                    <translateFrameV>0</translateFrameV>
                    <wrapU>1</wrapU>
                    <wrapV>1</wrapV>
                  </technique>
                </extra>
              </texture>
            </diffuse>
            <transparent opaque="A_ONE">
              <texture texture="file1-sampler" texcoord="TEX1">
                <extra>
                  <technique profile="OpenCOLLADAMaya">
                    <blend_mode>NONE</blend_mode>
                    <coverageU>1</coverageU>
                    <coverageV>1</coverageV>
                    <fast>0</fast>
                    <mirrorU>0</mirrorU>
                    <mirrorV>0</mirrorV>
                    <noiseU>0</noiseU>
                    <noiseV>0</noiseV>
                    <offsetU>0</offsetU>
                    <offsetV>0</offsetV>
                    <repeatU>1</repeatU>
                    <repeatV>1</repeatV>
                    <rotateFrame>0</rotateFrame>
                    <rotateUV>0</rotateUV>
                    <stagger>0</stagger>
                    <translateFrameU>0</translateFrameU>
                    <translateFrameV>0</translateFrameV>
                    <wrapU>1</wrapU>
                    <wrapV>1</wrapV>
                  </technique>
                </extra>
              </texture>
            </transparent>
            <transparency>
              <float>1</float>
            </transparency>
          </lambert>
        </technique>
      </profile_COMMON>
    </effect>
  </library_effects>
  <library_images>
    <image id="file1" name="file1">
      <init_from>file:///C:/Program%20Files%20(x86)/Amnesia%20-%20The%20Dark%20Descent/redist/anomaly/static_objects/underwater/vines1.dds</init_from>
      <extra>
        <technique profile="OpenCOLLADAMaya">
          <dgnode_type>kFile</dgnode_type>
          <image_sequence>0</image_sequence>
          <originalMayaNodeId>file1</originalMayaNodeId>
        </technique>
      </extra>
    </image>
  </library_images>
  <library_geometries>
    <geometry id="polySurfaceShape4" name="polySurfaceShape4">
      <mesh>
        <source id="polySurfaceShape4-positions" name="polySurfaceShape4-positions">
          <float_array id="polySurfaceShape4-positions-array" count="96">-1.433547 0 0.5 -1.433547 0 -0.5 -1.5 0.3333333 0.5 -1.5 0.3333333 -0.5 -1.455592 0.6666667 0.5 -1.455592 0.6666667 -0.5 -1.5 1 0.5 -1.5 1 -0.5 -1.433547 0 -0.5 -1.433547 0 0.5 -1.5 0.3333333 -0.5 -1.5 0.3333333 0.5 -1.455592 0.6666667 -0.5 -1.455592 0.6666667 0.5 -1.5 1 -0.5 -1.5 1 0.5 -2 0 0.06645301 -1 0 0.06645301 -2 0.3333333 0 -1 0.3333333 0 -2 0.6666667 0.04440757 -1 0.6666667 0.04440757 -2 1 0 -1 1 0 -1 0 0.06645292 -2 0 0.06645292 -1 0.3333333 0 -2 0.3333333 0 -1 0.6666667 0.04440757 -2 0.6666667 0.04440757 -1 1 0 -2 1 0</float_array>
          <technique_common>
            <accessor source="#polySurfaceShape4-positions-array" count="32" stride="3">
              <param name="X" type="float"/>
              <param name="Y" type="float"/>
              <param name="Z" type="float"/>
            </accessor>
          </technique_common>
        </source>
        <source id="polySurfaceShape4-normals" name="polySurfaceShape4-normals">
          <float_array id="polySurfaceShape4-normals-array" count="96">0.9807015 0.1955116 0 0.9807015 0.1955116 0 0.9994826 0.03216251 0 0.9994826 0.03216251 0 1 0 0 1 0 0 0.9912423 0.1320561 0 0.9912423 0.1320561 0 -0.9807015 -0.1955116 0 -0.9807015 -0.1955116 0 -0.9994826 -0.03216251 0 -0.9994826 -0.03216251 0 -1 0 0 -1 0 0 -0.9912423 -0.1320561 0 -0.9912423 -0.1320561 0 0 0.1955117 0.9807014 0 0.1955117 0.9807014 0 0.03216262 0.9994826 0 0.03216262 0.9994826 0 0 1 0 0 1 0 0.132056 0.9912423 0 0.132056 0.9912423 0 -0.1955114 -0.9807014 0 -0.1955114 -0.9807014 0 -0.03216249 -0.9994826 0 -0.03216249 -0.9994826 0 0 -1 0 0 -1 0 -0.132056 -0.9912423 0 -0.132056 -0.9912423</float_array>
          <technique_common>
            <accessor source="#polySurfaceShape4-normals-array" count="32" stride="3">
              <param name="X" type="float"/>
              <param name="Y" type="float"/>
              <param name="Z" type="float"/>
            </accessor>
          </technique_common>
        </source>
        <source id="polySurfaceShape4-map1" name="polySurfaceShape4-map1">
          <float_array id="polySurfaceShape4-map1-array" count="64">0 0 1 0 0 0.3333333 1 0.3333333 0 0.6666667 1 0.6666667 0 1 1 1 0 0 1 0 1 0.3333333 0 0.3333333 1 0.6666667 0 0.6666667 1 1 0 1 0 0 1 0 1 0.3333333 0 0.3333333 1 0.6666667 0 0.6666667 1 1 0 1 0 0 1 0 1 0.3333333 0 0.3333333 1 0.6666667 0 0.6666667 1 1 0 1</float_array>
          <technique_common>
            <accessor source="#polySurfaceShape4-map1-array" count="32" stride="2">
              <param name="S" type="float"/>
              <param name="T" type="float"/>
            </accessor>
          </technique_common>
        </source>
        <vertices id="polySurfaceShape4-vertices" name="polySurfaceShape4-vertices">
          <input semantic="POSITION" source="#polySurfaceShape4-positions"/>
          <input semantic="NORMAL" source="#polySurfaceShape4-normals"/>
        </vertices>
        <triangles material="lambert2SG" count="24">
          <input semantic="VERTEX" source="#polySurfaceShape4-vertices" offset="0"/>
          <input semantic="TEXCOORD" source="#polySurfaceShape4-map1" offset="1" set="0"/>
          <p>0 0 1 1 2 2 2 2 1 1 3 3 2 2 3 3 4 4 4 4 3 3 5 5 4 4 5 5 6 6 6 6 5 5 7 7 8 8 9 9 10 11 10 11 9 9 11 10 10 11 11 10 12 13 12 13 11 10 13 12 12 13 13 12 14 15 14 15 13 12 15 14 16 16 17 17 18 19 18 19 17 17 19 18 18 19 19 18 20 21 20 21 19 18 21 20 20 21 21 20 22 23 22 23 21 20 23 22 24 24 25 25 26 27 26 27 25 25 27 26 26 27 27 26 28 29 28 29 27 26 29 28 28 29 29 28 30 31 30 31 29 28 31 30</p>
        </triangles>
      </mesh>
      <extra>
        <technique profile="OpenCOLLADAMaya">
          <originalMayaNodeId>polySurfaceShape4</originalMayaNodeId>
          <double_sided>0</double_sided>
        </technique>
      </extra>
    </geometry>
  </library_geometries>
  <library_visual_scenes>
    <visual_scene id="VisualSceneNode" name="untitled">
      <node id="polySurface4" name="polySurface4" type="NODE">
        <translate sid="translate">1.5 0 0</translate>
        <translate sid="rotatePivot">-1.5 1 0</translate>
        <rotate sid="rotateZ">0 0 1 0</rotate>
        <rotate sid="rotateY">0 1 0 0</rotate>
        <rotate sid="rotateX">1 0 0 0</rotate>
        <translate sid="rotatePivotInverse">1.5 -1 0</translate>
        <translate sid="scalePivot">-1.5 1 0</translate>
        <scale sid="scale">1 1 1</scale>
        <translate sid="scalePivotInverse">1.5 -1 0</translate>
        <instance_geometry url="#polySurfaceShape4">
          <bind_material>
            <technique_common>
              <instance_material symbol="lambert2SG" target="#lambert2">
                <bind_vertex_input semantic="TEX0" input_semantic="TEXCOORD" input_set="0"/>
                <bind_vertex_input semantic="TEX1" input_semantic="TEXCOORD" input_set="0"/>
              </instance_material>
            </technique_common>
          </bind_material>
        </instance_geometry>
        <extra>
          <technique profile="OpenCOLLADAMaya">
            <originalMayaNodeId>polySurface4</originalMayaNodeId>
          </technique>
        </extra>
      </node>
    </visual_scene>
  </library_visual_scenes>
  <scene>
    <instance_visual_scene url="#VisualSceneNode"/>
  </scene>
</COLLADA>