<?xml version="1.0" encoding="utf-8"?>
<COLLADA xmlns="http://www.collada.org/2005/11/COLLADASchema" version="1.4.1">
  <asset>
    <contributor>
      <author>Marc</author>
      <authoring_tool>Maya7.0 | ColladaMaya v3.05B</authoring_tool>
      <comments>ColladaMaya export options: bakeTransforms=0;exportPolygonMeshes=1;bakeLighting=0;isSampling=1;
curveConstrainSampling=0;removeStaticCurves=1;exportCameraAsLookat=0;
exportLights=1;exportCameras=1;exportJointsAndSkin=1;
exportAnimations=1;exportTriangles=1;exportInvisibleNodes=0;
exportNormals=1;exportTexCoords=1;
exportVertexColors=1;exportVertexColorsAnimation=0;exportTangents=0;
exportTexTangents=0;exportConstraints=0;exportPhysics=0;exportXRefs=0;
dereferenceXRefs=0;cameraXFov=0;cameraYFov=0</comments>
      <source_data>file:///G:/amnesia/work_entities/ptest/numerals.mb</source_data>
    </contributor>
    <created>2011-01-24T16:27:29Z</created>
    <modified>2011-01-24T16:27:29Z</modified>
    <unit meter="1" name="meter"/>
    <up_axis>Y_UP</up_axis>
  </asset>
  <library_images>
    <image id="file1" name="file1">
      <init_from>reset_sign.dds</init_from>
      <extra>
        <technique profile="MAYA">
          <dgnode_type>kFile</dgnode_type>
          <image_sequence>0</image_sequence>
        </technique>
      </extra>
    </image>
  </library_images>
  <library_materials>
    <material id="lambert2" name="lambert2">
      <instance_effect url="#lambert2-fx"/>
    </material>
  </library_materials>
  <library_effects>
    <effect id="lambert2-fx">
      <profile_COMMON>
        <newparam sid="file1-surface">
          <surface type="2D">
            <init_from>file1</init_from>
            <format>A8R8G8B8</format>
          </surface>
        </newparam>
        <newparam sid="file1-sampler">
          <sampler2D>
            <source>file1-surface</source>
            <wrap_s>WRAP</wrap_s>
            <wrap_t>WRAP</wrap_t>
            <minfilter>NONE</minfilter>
            <magfilter>NONE</magfilter>
            <mipfilter>NONE</mipfilter>
          </sampler2D>
        </newparam>
        <technique sid="common">
          <lambert>
            <emission>
              <color>0 0 0 1</color>
            </emission>
            <ambient>
              <color>0 0 0 1</color>
            </ambient>
            <diffuse>
              <texture texture="file1-sampler" texcoord="TEX0">
                <extra>
                  <technique profile="MAYA">
                    <wrapU>1</wrapU>
                    <wrapV>1</wrapV>
                    <mirrorU>0</mirrorU>
                    <mirrorV>0</mirrorV>
                    <coverageU>1</coverageU>
                    <coverageV>1</coverageV>
                    <translateFrameU>0</translateFrameU>
                    <translateFrameV>0</translateFrameV>
                    <rotateFrame>0</rotateFrame>
                    <stagger>0</stagger>
                    <fast>0</fast>
                    <repeatU>1</repeatU>
                    <repeatV>1</repeatV>
                    <offsetU>0</offsetU>
                    <offsetV>0</offsetV>
                    <rotateUV>0</rotateUV>
                    <noiseU>0</noiseU>
                    <noiseV>0</noiseV>
                    <blend_mode>NONE</blend_mode>
                  </technique>
                </extra>
              </texture>
            </diffuse>
            <transparent opaque="RGB_ZERO">
              <color>0 0 0 1</color>
            </transparent>
            <transparency>
              <float>1</float>
            </transparency>
          </lambert>
          <extra>
            <technique profile="FCOLLADA"/>
          </extra>
        </technique>
      </profile_COMMON>
    </effect>
  </library_effects>
  <library_geometries>
    <geometry id="pCubeShape1" name="pCubeShape1">
      <mesh>
        <source id="pCubeShape1-positions" name="position">
          <float_array id="pCubeShape1-positions-array" count="132">-0.118163 -0.198495 0.01 0.118163 -0.198495 0.01 -0.118163 0.198495 0.01 0.119905 0.199657 0.01 -0.118163 0.198495 -0.01 0.119905 0.199657 -0.01 -0.118163 -0.198495 -0.01 0.118163 -0.198495 -0.01 0.175 0.180965 -0.01 0.175 0.180965 0.01 -0.175 0.180965 0.01 -0.175 0.180965 -0.01 0.099329 -0.25 -0.01 0.099329 -0.25 0.01 0.099329 0.180965 0.01 0.099329 0.25 0.01 0.099329 0.25 -0.01 -0.092436 -0.25 -0.01 -0.092436 -0.25 0.01 -0.092436 0.180965 0.01 -0.092436 0.25 0.01 -0.092436 0.25 -0.01 -0.175 -0.177818 -0.01 -0.175 -0.177818 0.01 -0.092436 -0.177818 0.01 0.099329 -0.177818 0.01 0.175 -0.177818 0.01 0.175 -0.177818 -0.01 0.107294 0.220763 -0.01 0.107294 0.220763 0.01 0.145133 0.187316 0.01 0.145133 0.187316 -0.01 -0.10047 0.22304 -0.01 -0.10047 0.22304 0.01 -0.143684 0.187074 0.01 -0.143684 0.187074 -0.01 -0.143692 -0.184625 -0.01 -0.143692 -0.184625 0.01 -0.100805 -0.224248 0.01 -0.100805 -0.224248 -0.01 0.105214 -0.222642 -0.01 0.105214 -0.222642 0.01 0.145297 -0.183983 0.01 0.145297 -0.183983 -0.01</float_array>
          <technique_common>
            <accessor source="#pCubeShape1-positions-array" count="44" stride="3">
              <param name="X" type="float"/>
              <param name="Y" type="float"/>
              <param name="Z" type="float"/>
            </accessor>
          </technique_common>
        </source>
        <source id="pCubeShape1-normals" name="normal">
          <float_array id="pCubeShape1-normals-array" count="132">-0.468629 -0.515607 0.717312 0.488679 -0.489205 0.722407 -0.438688 0.53861 0.719341 0.468449 0.50936 0.721878 -0.631518 0.775361 0 0.67693 0.736048 0.000000 -0.672591 -0.740014 0 0.706726 -0.707487 0 0.777165 0.629297 0 0.476899 0.386161 0.789587 -0.471597 0.38849 0.791626 -0.771837 0.63582 0.000000 0.62837 -0.777915 0.000000 0.385824 -0.477646 0.7893 0 0 1 0.377697 0.49435 0.78292 0.60711 0.794618 -0.000000 -0.587771 -0.809027 0.000000 -0.369687 -0.50885 0.777434 0 0 1 -0.373854 0.501514 0.780203 -0.597663 0.801747 -0.000000 -0.778608 -0.62751 0 -0.478337 -0.38551 0.789034 0 0 1 0 0 1 0.475378 -0.386841 0.790171 0.775638 -0.631179 -0.000000 0.920171 0.391516 0 0.64762 0.275551 0.710394 0.229754 0.665911 0.709771 0.326155 0.945316 0 -0.897339 0.441343 0.000000 -0.630029 0.309871 0.71207 -0.212801 0.671905 0.709408 -0.301931 0.95333 0 -0.348434 -0.937333 0 -0.245134 -0.659443 0.710664 -0.63248 -0.30837 0.710547 -0.898856 -0.438244 -0.000000 0.938669 -0.344821 0 0.66046 -0.242621 0.710582 0.239822 -0.661316 0.710737 0.340919 -0.940093 -0.000000</float_array>
          <technique_common>
            <accessor source="#pCubeShape1-normals-array" count="44" stride="3">
              <param name="X" type="float"/>
              <param name="Y" type="float"/>
              <param name="Z" type="float"/>
            </accessor>
          </technique_common>
        </source>
        <source id="pCubeShape1-map1" name="map1">
          <float_array id="pCubeShape1-map1-array" count="132">0.002101 0.583883 0.079266 0.583883 0.079266 0.927216 0.002101 0.927216 0.055222 0.564096 0.258493 0.583883 0.258493 0.927216 0.055222 0.943991 0.079266 0.51481 0.258493 0.51481 0.329216 0.583883 0.329216 0.927216 0.079266 0.993277 0.258493 0.993277 0.276095 0.564096 0.279944 0.946656 0.240015 0.000445 0.240015 0.020121 0.006995 0.020121 0.006995 0.000445 0.488549 0.020121 0.488549 0.000445 0.721569 0.000445 0.721569 0.020121 0.970103 0.000445 0.970103 0.020121 0.933189 0.020121 0.933189 0.000445 0.071862 0.541357 0.035588 0.578179 0.758483 0.000445 0.758483 0.020121 0.775192 0.000445 0.775192 0.020121 0.899738 0.000445 0.899738 0.020121 0.31038 0.020121 0.276929 0.020121 0.276929 0.000445 0.31038 0.000446 0.470092 0.000445 0.470092 0.020121 0.740026 0.020121 0.034049 0.932938 0.434926 0.020121 0.2646 0.541738 0.293655 0.020121 0.434926 0.000445 0.451635 0.020121 0.451635 0.000445 0.443281 0.020121 0.443281 0.000445 0.301116 0.577798 0.293655 0.000446 0.258472 0.020121 0.258472 0.000445 0.916464 0.020121 0.916464 0.000445 0.266525 0.965588 0.300347 0.93408 0.951646 0.000445 0.951646 0.020121 0.766837 0.020121 0.766837 0.000445 0.069553 0.965588 0.740026 0.000445</float_array>
          <technique_common>
            <accessor source="#pCubeShape1-map1-array" count="66" stride="2">
              <param name="S" type="float"/>
              <param name="T" type="float"/>
            </accessor>
          </technique_common>
        </source>
        <vertices id="pCubeShape1-vertices">
          <input semantic="POSITION" source="#pCubeShape1-positions"/>
          <input semantic="NORMAL" source="#pCubeShape1-normals"/>
        </vertices>
        <triangles material="lambert2SG" count="66">
          <input semantic="VERTEX" source="#pCubeShape1-vertices" offset="0"/>
          <input semantic="TEXCOORD" source="#pCubeShape1-map1" offset="1" set="0"/>
          <p>23 0 24 1 10 3 24 1 19 2 10 3 20 32 21 33 33 63 33 63 21 33 32 62 39 50 17 44 38 51 17 44 18 47 38 51 26 16 27 17 9 19 27 17 8 18 9 19 22 20 23 21 11 23 23 21 10 22 11 23 31 61 5 26 30 60 30 60 5 26 3 27 10 3 19 2 34 43 10 22 34 65 11 23 11 23 34 65 35 42 40 46 41 53 12 36 12 36 41 53 13 39 14 6 25 5 9 11 25 5 26 10 9 11 29 58 14 6 3 15 28 56 29 57 5 26 29 57 3 27 5 26 17 44 12 36 18 47 12 36 13 39 18 47 19 2 24 1 14 6 24 1 25 5 14 6 20 12 19 2 15 13 19 2 14 6 15 13 21 33 20 32 16 35 20 32 15 34 16 35 36 41 37 40 22 20 37 40 23 21 22 20 37 29 24 1 23 0 25 5 24 1 13 9 24 1 18 8 13 9 26 10 25 5 42 52 43 54 27 17 42 55 42 55 27 17 26 16 38 28 18 8 24 1 41 45 25 5 13 9 33 64 19 2 20 12 3 15 14 6 30 59 15 34 29 57 16 35 16 35 29 57 28 56 15 13 14 6 29 58 30 59 14 6 9 11 9 24 8 25 30 60 8 25 31 61 30 60 2 30 33 63 4 31 33 63 32 62 4 31 2 7 19 2 33 64 34 43 19 2 2 7 35 42 34 65 4 31 34 65 2 30 4 31 6 48 0 49 36 41 0 49 37 40 36 41 0 4 24 1 37 29 0 4 38 28 24 1 6 48 39 50 0 49 39 50 38 51 0 49 40 46 7 37 41 53 7 37 1 38 41 53 1 14 25 5 41 45 42 52 25 5 1 14 1 38 7 37 42 55 7 37 43 54 42 55</p>
        </triangles>
      </mesh>
      <extra>
        <technique profile="MAYA">
          <double_sided>1</double_sided>
        </technique>
      </extra>
    </geometry>
  </library_geometries>
  <library_visual_scenes>
    <visual_scene id="VisualSceneNode" name="numerals">
      <node id="pCube1" name="pCube1" type="NODE">
        <rotate sid="rotateZ">0 0 1 0</rotate>
        <rotate sid="rotateY">0 1 0 0</rotate>
        <rotate sid="rotateX">1 0 0 0</rotate>
        <instance_geometry url="#pCubeShape1">
          <bind_material>
            <technique_common>
              <instance_material symbol="lambert2SG" target="#lambert2">
                <bind_vertex_input semantic="TEX0" input_semantic="TEXCOORD" input_set="0"/>
              </instance_material>
            </technique_common>
          </bind_material>
        </instance_geometry>
      </node>
      <extra>
        <technique profile="FCOLLADA">
          <start_time>0.041666</start_time>
          <end_time>2</end_time>
        </technique>
      </extra>
    </visual_scene>
  </library_visual_scenes>
  <scene>
    <instance_visual_scene url="#VisualSceneNode"/>
  </scene>
</COLLADA>
