//Maya ASCII 2011 scene
requires maya "2011";
currentUnit -l centimeter -a degree -t film;
createNode script -n "upAxisScriptNode";
	setAttr ".b" -type "string" "string $currentAxis = `upAxis -q -ax`; if ($currentAxis != \"y\") { upAxis -ax \"y\"; viewSet -home persp; }";
	setAttr ".st" 2;
createNode transform -n "pPlane1";
	addAttr -ln "colladaId" -dt "string";
	setAttr .colladaId -type "string" "pPlane1";
	setAttr ".rp" -type "double3" 0.000000 0.058023 0.000000;
	setAttr ".sp" -type "double3" -0.000000 0.058023 -0.000000;
createNode blinn -n "blinn2";
	setAttr ".dc" 1.000000;
	setAttr ".ec" 0.300000;
	addAttr -ln "colladaEffectId" -dt "string";
	setAttr .colladaEffectId -type "string" "blinn2-fx";
	addAttr -ln "colladaMaterialId" -dt "string";
	setAttr .colladaMaterialId -type "string" "blinn2";
createNode shadingEngine -n "blinn2SG";
createNode materialInfo -n "materialInfo_1";
createNode place2dTexture -n "place2dTexture_1";
createNode file -n "file4";
	setAttr ".ftn" -type "string" "C:/Program Files (x86)/Amnesia - The Dark Descent/redist/anomaly/static_objects/underwater/floor1.dds";
	addAttr -ln "colladaId" -dt "string";
	setAttr .colladaId -type "string" "file4";
createNode mesh -n "pPlaneShape1" -p "|pPlane1";
	addAttr -ln "colladaId" -dt "string";
	setAttr .colladaId -type "string" "pPlaneShape1";
	setAttr ".vt[0:135]" -2.000000 0.000000 2.000000 2.000000 0.000000 2.000000 -2.000000 0.000000 -2.000000 2.000000 0.000000 -2.000000 -1.249374 0.000000 2.000000 -1.249374 0.000000 -2.000000 -2.000000 0.000000 0.999794 -1.249374 0.000000 0.999794 2.000000 0.000000 0.999794 -0.417952 0.000000 2.000000 -0.417952 0.000000 0.999794 -0.417952 0.000000 -2.000000 0.655719 0.000000 2.000000 0.649124 0.001771 0.994773 0.655719 0.000000 -2.000000 1.280795 0.000000 2.000000 1.280795 0.000000 0.999794 1.280795 0.000000 -2.000000 2.000000 0.000000 0.326025 1.280795 0.000000 0.326025 0.655719 0.000000 0.326025 -0.417952 0.000000 0.326025 -1.249374 0.000000 0.326025 -2.000000 0.000000 0.326025 2.000000 0.000000 -0.653646 1.280795 0.000000 -0.653646 0.655719 0.000000 -0.653646 -0.417952 0.000000 -0.653646 -1.249374 0.000000 -0.653646 -2.000000 0.000000 -0.653646 2.000000 0.000000 -1.297390 1.280795 0.000000 -1.297390 0.655719 0.000000 -1.297390 -0.417952 0.000000 -1.297390 -1.249374 0.000000 -1.297390 -2.000000 0.000000 -1.297390 -1.968724 0.063056 0.971720 -1.280650 0.063056 0.971720 -1.361062 0.049660 0.367404 -1.968724 0.063056 0.354099 -1.213358 0.066680 0.971720 -0.504169 0.056260 0.868200 -0.453968 0.032570 0.354099 -1.213358 0.066680 0.354099 -1.968724 0.042229 1.958325 -1.280650 0.042229 1.958325 -1.280650 0.042229 1.041469 -1.968724 0.042229 1.041469 -1.214732 0.063056 1.958325 -0.452594 0.063056 1.958325 -0.452594 0.063056 1.041469 -1.214732 0.063056 1.041469 -0.326917 0.072621 1.870061 0.610983 0.113219 1.957859 0.553980 0.098347 1.091134 -0.373215 0.091429 1.041935 -0.331352 0.042166 1.020072 -0.392009 0.029608 0.405898 0.574567 0.075836 0.937358 0.575383 0.073086 0.305746 0.681764 0.063056 1.958325 1.254750 0.063056 1.958325 1.254750 0.063056 1.041469 0.681764 0.063056 1.041469 0.677812 0.046267 0.966342 0.689363 0.046265 0.348828 1.247151 0.079847 0.976991 1.258702 0.079844 0.359477 1.310762 0.103899 1.951738 1.970033 0.103899 1.951738 1.970033 0.022213 1.048056 1.310762 0.022213 1.048056 1.291738 0.091930 0.950014 1.331751 0.069951 0.335100 1.949043 0.108016 0.990719 1.989057 0.086037 0.375805 1.310762 0.050025 0.284525 1.326073 0.066910 -0.562585 1.926654 0.054651 0.227733 1.916596 0.083883 -0.619127 0.681764 0.062202 0.284091 0.681764 0.116045 -0.494966 1.254750 0.062202 0.284091 1.254750 0.116045 -0.494966 -0.374175 0.028806 0.283736 -0.334582 0.037940 -0.556472 0.562538 0.028365 0.269088 0.611943 0.049135 -0.611357 -0.447874 0.034444 0.200282 -1.203914 0.084615 0.214783 -0.463412 0.041497 -0.619960 -1.219452 0.091668 -0.605458 -1.317443 0.092076 0.247947 -1.968724 0.073163 0.280942 -1.280650 0.008040 -0.608563 -1.968724 0.008040 -0.608563 1.310762 0.051190 -0.681327 1.310762 0.074922 -1.269709 1.970034 0.051190 -0.681327 1.970034 0.074922 -1.269709 0.681764 0.063056 -0.680468 0.681764 0.063056 -1.270568 1.132530 0.063056 -0.680468 1.132530 0.063056 -1.270568 -0.387730 0.053622 -0.706747 -0.355782 0.043134 -1.295645 0.593550 0.082978 -0.655391 0.625498 0.072489 -1.244289 -0.474695 0.074944 -0.655985 -1.232289 0.109819 -0.706319 -0.435037 0.078225 -1.244717 -1.192631 0.113100 -1.295051 -1.280650 0.063056 -0.680468 -1.968724 0.063056 -0.680468 -1.280650 0.063056 -1.270568 -1.968724 0.063056 -1.270568 1.310762 0.090853 -1.326666 1.310762 0.090853 -1.970725 1.970034 0.090853 -1.326666 1.970034 0.090853 -1.970725 0.681764 0.030084 -1.328194 0.681764 0.063139 -1.969197 1.254750 0.030084 -1.328194 1.254750 0.063139 -1.969197 -0.373215 0.075739 -1.327565 -0.373215 0.050373 -1.969826 0.610983 0.075739 -1.327565 0.588510 0.066055 -1.935966 -0.452594 0.063056 -1.326666 -1.214732 0.063056 -1.326666 -0.452594 0.063056 -1.970725 -1.174356 0.079936 -1.888541 -1.280650 0.093467 -1.326666 -1.968724 0.093466 -1.326666 -1.280650 0.093467 -1.905612 -1.968724 0.093467 -1.970725;
	setAttr ".n[0:165]" 0.257090 0.900396 0.350986 0.248981 0.902108 -0.352435 -0.395039 0.825843 0.402401 -0.395039 0.825843 0.402401 0.248981 0.902108 -0.352435 -0.375158 0.850156 -0.369447 -0.324624 0.916407 0.234132 0.238737 0.947251 0.213824 -0.362740 0.849031 -0.384144 -0.362740 0.849031 -0.384144 0.238737 0.947251 0.213824 0.244722 0.905577 -0.346469 -0.316878 0.905989 0.280663 0.316878 0.905989 0.280663 -0.316878 0.905989 -0.280663 -0.316878 0.905989 -0.280663 0.316878 0.905989 0.280663 0.316878 0.905989 -0.280663 -0.370469 0.859302 0.352637 0.370469 0.859302 0.352637 -0.370469 0.859302 -0.352637 -0.370469 0.859302 -0.352637 0.370469 0.859302 0.352637 0.370469 0.859302 -0.352637 0.306285 0.908872 0.283091 0.333478 0.879621 -0.339204 -0.322449 0.900248 0.292541 -0.322449 0.900248 0.292541 0.333478 0.879621 -0.339204 -0.310310 0.898646 -0.310070 -0.230215 0.887508 0.399162 0.292414 0.866718 0.404097 -0.252115 0.906063 -0.339836 -0.252115 0.906063 -0.339836 0.292414 0.866718 0.404097 0.242245 0.900433 -0.361300 -0.388017 0.848678 0.359428 0.401956 0.840713 0.362812 -0.384078 0.855879 -0.346346 -0.384078 0.855879 -0.346346 0.401956 0.840713 0.362812 0.400611 0.846050 -0.351725 -0.377044 0.838217 -0.393992 -0.388662 0.834283 0.391042 0.410905 0.808162 -0.421937 0.410905 0.808162 -0.421937 -0.388662 0.834283 0.391042 0.405650 0.802283 0.437939 -0.409535 0.837346 0.362123 0.409534 0.837347 0.362123 -0.353172 0.912614 -0.205926 -0.353172 0.912614 -0.205926 0.409534 0.837347 0.362123 0.353170 0.912615 -0.205926 -0.471548 0.773736 0.423056 0.439836 0.769421 0.463180 -0.428084 0.776563 -0.462270 -0.428084 0.776563 -0.462270 0.439836 0.769421 0.463180 0.449191 0.773783 -0.446640 -0.324957 0.914320 0.241707 0.245926 0.941057 0.232234 -0.363591 0.880922 -0.302949 -0.363591 0.880922 -0.302949 0.245926 0.941057 0.232234 0.235049 0.928570 -0.287245 -0.409361 0.885841 -0.218426 -0.425577 0.811054 0.401344 0.409360 0.885841 -0.218426 0.409360 0.885841 -0.218426 -0.425577 0.811054 0.401344 0.425576 0.811054 0.401343 -0.163523 0.970085 0.179428 0.172691 0.966520 0.189781 -0.172261 0.968116 -0.181874 -0.172261 0.968116 -0.181874 0.172691 0.966520 0.189781 0.166374 0.970721 -0.173264 -0.331383 0.924391 0.188909 0.294284 0.941372 0.164970 -0.373779 0.850511 -0.370028 -0.373779 0.850511 -0.370028 0.294284 0.941372 0.164970 0.313849 0.887276 -0.337993 -0.326060 0.901770 0.283720 0.282649 0.917847 0.278688 -0.296199 0.949508 -0.103447 -0.296199 0.949508 -0.103447 0.282649 0.917847 0.278688 0.250089 0.963033 -0.100118 -0.414077 0.813784 -0.407793 -0.392207 0.826863 0.403078 0.414079 0.813783 -0.407794 0.414079 0.813783 -0.407794 -0.392207 0.826863 0.403078 0.392209 0.826861 0.403078 -0.419890 0.805561 -0.418048 -0.419890 0.805561 0.418047 0.155386 0.917809 -0.365352 0.155386 0.917809 -0.365352 -0.419890 0.805561 0.418047 0.155385 0.917809 0.365351 -0.332386 0.865748 0.374166 0.359323 0.836057 0.414604 -0.305585 0.868179 -0.391002 -0.305585 0.868179 -0.391002 0.359323 0.836057 0.414604 0.370143 0.840893 -0.394832 -0.450146 0.768714 0.454365 0.424104 0.781528 0.457548 -0.423684 0.768484 -0.479504 -0.423684 0.768484 -0.479504 0.424104 0.781528 0.457548 0.455077 0.781816 -0.426227 -0.399861 0.819398 0.410730 0.399861 0.819397 0.410730 -0.399861 0.819397 -0.410731 -0.399861 0.819397 -0.410731 0.399861 0.819397 0.410730 0.399861 0.819397 -0.410731 -0.451102 0.769480 -0.452115 -0.451102 0.769480 0.452115 0.451103 0.769479 -0.452115 0.451103 0.769479 -0.452115 -0.451102 0.769480 0.452115 0.451103 0.769479 0.452115 -0.384096 0.846991 -0.367528 -0.350823 0.884920 0.306333 0.384096 0.846991 -0.367528 0.384096 0.846991 -0.367528 -0.350823 0.884920 0.306333 0.350822 0.884920 0.306333 -0.327198 0.886449 -0.327337 -0.358695 0.849028 0.387931 0.310536 0.892862 -0.326136 0.310536 0.892862 -0.326136 -0.358695 0.849028 0.387931 0.335152 0.861310 0.381860 -0.329179 0.862920 0.383418 0.387529 0.829669 0.401835 -0.315363 0.907341 -0.277991 -0.315363 0.907341 -0.277991 0.387529 0.829669 0.401835 0.350584 0.892682 -0.283213 0.450958 0.768573 0.453797 0.434129 0.822732 -0.366939 -0.450958 0.768573 0.453797 -0.450958 0.768573 0.453797 0.434129 0.822732 -0.366939 -0.406593 0.834384 -0.372135 -0.618674 0.782206 0.073459 -0.060578 0.998028 -0.016450 -0.395039 0.825843 0.402401 -0.395039 0.825843 0.402401 -0.060578 0.998028 -0.016450 0.257090 0.900396 0.350986 -0.081825 0.990989 -0.106048 0.248981 0.902108 -0.352435 -0.060578 0.998028 -0.016450 -0.060578 0.998028 -0.016450 0.248981 0.902108 -0.352435 0.257090 0.900396 0.350986 -0.081825 0.990989 -0.106048 -0.605571 0.795411 -0.024609 0.248981 0.902108 -0.352435 0.248981 0.902108 -0.352435;
	setAttr ".n[166:331]" -0.605571 0.795411 -0.024609 -0.375158 0.850156 -0.369447 -0.605571 0.795411 -0.024609 -0.618674 0.782206 0.073459 -0.375158 0.850156 -0.369447 -0.375158 0.850156 -0.369447 -0.618674 0.782206 0.073459 -0.395039 0.825843 0.402401 0.048831 0.998787 -0.006331 0.238737 0.947251 0.213824 -0.060578 0.998028 -0.016450 -0.060578 0.998028 -0.016450 0.238737 0.947251 0.213824 -0.324624 0.916407 0.234132 0.048831 0.998787 -0.006331 0.045928 0.990508 -0.129553 0.238737 0.947251 0.213824 0.238737 0.947251 0.213824 0.045928 0.990508 -0.129553 0.244722 0.905577 -0.346469 0.045928 0.990508 -0.129553 -0.081825 0.990989 -0.106048 0.244722 0.905577 -0.346469 0.244722 0.905577 -0.346469 -0.081825 0.990989 -0.106048 -0.362740 0.849031 -0.384144 -0.081825 0.990989 -0.106048 -0.060578 0.998028 -0.016450 -0.362740 0.849031 -0.384144 -0.362740 0.849031 -0.384144 -0.060578 0.998028 -0.016450 -0.324624 0.916407 0.234132 -0.477177 0.770504 0.422642 -0.026035 0.833027 0.552620 -0.316878 0.905989 0.280663 -0.316878 0.905989 0.280663 -0.026035 0.833027 0.552620 0.316878 0.905989 0.280663 -0.026035 0.833027 0.552620 -0.060578 0.998028 -0.016450 0.316878 0.905989 0.280663 0.316878 0.905989 0.280663 -0.060578 0.998028 -0.016450 0.316878 0.905989 -0.280663 -0.060578 0.998028 -0.016450 -0.618674 0.782206 0.073459 0.316878 0.905989 -0.280663 0.316878 0.905989 -0.280663 -0.618674 0.782206 0.073459 -0.316878 0.905989 -0.280663 -0.618674 0.782206 0.073459 -0.477177 0.770504 0.422642 -0.316878 0.905989 -0.280663 -0.316878 0.905989 -0.280663 -0.477177 0.770504 0.422642 -0.316878 0.905989 0.280663 -0.026035 0.833027 0.552620 0.023745 0.829865 0.557459 -0.370469 0.859302 0.352637 -0.370469 0.859302 0.352637 0.023745 0.829865 0.557459 0.370469 0.859302 0.352637 0.023745 0.829865 0.557459 0.048831 0.998787 -0.006331 0.370469 0.859302 0.352637 0.370469 0.859302 0.352637 0.048831 0.998787 -0.006331 0.370469 0.859302 -0.352637 0.048831 0.998787 -0.006331 -0.060578 0.998028 -0.016450 0.370469 0.859302 -0.352637 0.370469 0.859302 -0.352637 -0.060578 0.998028 -0.016450 -0.370469 0.859302 -0.352637 -0.060578 0.998028 -0.016450 -0.026035 0.833027 0.552620 -0.370469 0.859302 -0.352637 -0.370469 0.859302 -0.352637 -0.026035 0.833027 0.552620 -0.370469 0.859302 0.352637 0.023745 0.829865 0.557459 -0.045205 0.822396 0.567117 -0.322449 0.900248 0.292541 -0.322449 0.900248 0.292541 -0.045205 0.822396 0.567117 0.306285 0.908872 0.283091 -0.043102 0.997661 0.053064 0.333478 0.879621 -0.339204 -0.045205 0.822396 0.567117 -0.045205 0.822396 0.567117 0.333478 0.879621 -0.339204 0.306285 0.908872 0.283091 -0.043102 0.997661 0.053064 0.048831 0.998787 -0.006331 0.333478 0.879621 -0.339204 0.333478 0.879621 -0.339204 0.048831 0.998787 -0.006331 -0.310310 0.898646 -0.310070 0.023745 0.829865 0.557459 -0.322449 0.900248 0.292541 0.048831 0.998787 -0.006331 0.048831 0.998787 -0.006331 -0.322449 0.900248 0.292541 -0.310310 0.898646 -0.310070 0.045928 0.990508 -0.129553 0.048831 0.998787 -0.006331 -0.252115 0.906063 -0.339836 -0.252115 0.906063 -0.339836 0.048831 0.998787 -0.006331 -0.230215 0.887508 0.399162 0.048831 0.998787 -0.006331 -0.043102 0.997661 0.053064 -0.230215 0.887508 0.399162 -0.230215 0.887508 0.399162 -0.043102 0.997661 0.053064 0.292414 0.866718 0.404097 -0.043102 0.997661 0.053064 -0.136948 0.986326 -0.091681 0.292414 0.866718 0.404097 0.292414 0.866718 0.404097 -0.136948 0.986326 -0.091681 0.242245 0.900433 -0.361300 -0.136948 0.986326 -0.091681 0.045928 0.990508 -0.129553 0.242245 0.900433 -0.361300 0.242245 0.900433 -0.361300 0.045928 0.990508 -0.129553 -0.252115 0.906063 -0.339836 -0.045205 0.822396 0.567117 0.008558 0.719235 0.694714 -0.388017 0.848678 0.359428 -0.388017 0.848678 0.359428 0.008558 0.719235 0.694714 0.401956 0.840713 0.362812 0.008558 0.719235 0.694714 -0.005535 0.986319 0.164752 0.401956 0.840713 0.362812 0.401956 0.840713 0.362812 -0.005535 0.986319 0.164752 0.400611 0.846050 -0.351725 -0.043102 0.997661 0.053064 -0.384078 0.855879 -0.346346 -0.005535 0.986319 0.164752 -0.005535 0.986319 0.164752 -0.384078 0.855879 -0.346346 0.400611 0.846050 -0.351725 -0.043102 0.997661 0.053064 -0.045205 0.822396 0.567117 -0.384078 0.855879 -0.346346 -0.384078 0.855879 -0.346346 -0.045205 0.822396 0.567117 -0.388017 0.848678 0.359428 -0.043102 0.997661 0.053064 -0.388662 0.834283 0.391042 -0.136948 0.986326 -0.091681 -0.136948 0.986326 -0.091681 -0.388662 0.834283 0.391042 -0.377044 0.838217 -0.393992 -0.005535 0.986319 0.164752 0.405650 0.802283 0.437939 -0.043102 0.997661 0.053064 -0.043102 0.997661 0.053064 0.405650 0.802283 0.437939 -0.388662 0.834283 0.391042 0.047055 0.991343 -0.122573 0.410905 0.808162 -0.421937;
	setAttr ".n[332:497]" -0.005535 0.986319 0.164752 -0.005535 0.986319 0.164752 0.410905 0.808162 -0.421937 0.405650 0.802283 0.437939 -0.136948 0.986326 -0.091681 -0.377044 0.838217 -0.393992 0.047055 0.991343 -0.122573 0.047055 0.991343 -0.122573 -0.377044 0.838217 -0.393992 0.410905 0.808162 -0.421937 0.008558 0.719235 0.694714 0.591829 0.557359 0.582314 -0.409535 0.837346 0.362123 -0.409535 0.837346 0.362123 0.591829 0.557359 0.582314 0.409534 0.837347 0.362123 0.675918 0.708432 0.203121 0.353170 0.912615 -0.205926 0.591829 0.557359 0.582314 0.591829 0.557359 0.582314 0.353170 0.912615 -0.205926 0.409534 0.837347 0.362123 0.675918 0.708432 0.203121 -0.005535 0.986319 0.164752 0.353170 0.912615 -0.205926 0.353170 0.912615 -0.205926 -0.005535 0.986319 0.164752 -0.353172 0.912614 -0.205926 -0.005535 0.986319 0.164752 0.008558 0.719235 0.694714 -0.353172 0.912614 -0.205926 -0.353172 0.912614 -0.205926 0.008558 0.719235 0.694714 -0.409535 0.837346 0.362123 -0.005535 0.986319 0.164752 -0.471548 0.773736 0.423056 0.047055 0.991343 -0.122573 0.047055 0.991343 -0.122573 -0.471548 0.773736 0.423056 -0.428084 0.776563 -0.462270 0.675918 0.708432 0.203121 0.439836 0.769421 0.463180 -0.005535 0.986319 0.164752 -0.005535 0.986319 0.164752 0.439836 0.769421 0.463180 -0.471548 0.773736 0.423056 0.598413 0.793375 -0.111619 0.449191 0.773783 -0.446640 0.675918 0.708432 0.203121 0.675918 0.708432 0.203121 0.449191 0.773783 -0.446640 0.439836 0.769421 0.463180 0.047055 0.991343 -0.122573 -0.428084 0.776563 -0.462270 0.598413 0.793375 -0.111619 0.598413 0.793375 -0.111619 -0.428084 0.776563 -0.462270 0.449191 0.773783 -0.446640 -0.095766 0.990378 0.099897 0.047055 0.991343 -0.122573 -0.363591 0.880922 -0.302949 -0.363591 0.880922 -0.302949 0.047055 0.991343 -0.122573 -0.324957 0.914320 0.241707 0.598413 0.793375 -0.111619 0.245926 0.941057 0.232234 0.047055 0.991343 -0.122573 0.047055 0.991343 -0.122573 0.245926 0.941057 0.232234 -0.324957 0.914320 0.241707 0.598413 0.793375 -0.111619 0.553103 0.831905 0.044838 0.245926 0.941057 0.232234 0.245926 0.941057 0.232234 0.553103 0.831905 0.044838 0.235049 0.928570 -0.287245 0.553103 0.831905 0.044838 -0.095766 0.990378 0.099897 0.235049 0.928570 -0.287245 0.235049 0.928570 -0.287245 -0.095766 0.990378 0.099897 -0.363591 0.880922 -0.302949 -0.127389 0.976835 0.171947 -0.136948 0.986326 -0.091681 -0.409361 0.885841 -0.218426 -0.409361 0.885841 -0.218426 -0.136948 0.986326 -0.091681 -0.425577 0.811054 0.401344 -0.136948 0.986326 -0.091681 0.047055 0.991343 -0.122573 -0.425577 0.811054 0.401344 -0.425577 0.811054 0.401344 0.047055 0.991343 -0.122573 0.425576 0.811054 0.401343 -0.095766 0.990378 0.099897 0.409360 0.885841 -0.218426 0.047055 0.991343 -0.122573 0.047055 0.991343 -0.122573 0.409360 0.885841 -0.218426 0.425576 0.811054 0.401343 -0.095766 0.990378 0.099897 -0.127389 0.976835 0.171947 0.409360 0.885841 -0.218426 0.409360 0.885841 -0.218426 -0.127389 0.976835 0.171947 -0.409361 0.885841 -0.218426 0.075749 0.991382 0.106887 0.045928 0.990508 -0.129553 -0.172261 0.968116 -0.181874 -0.172261 0.968116 -0.181874 0.045928 0.990508 -0.129553 -0.163523 0.970085 0.179428 -0.136948 0.986326 -0.091681 0.172691 0.966520 0.189781 0.045928 0.990508 -0.129553 0.045928 0.990508 -0.129553 0.172691 0.966520 0.189781 -0.163523 0.970085 0.179428 -0.136948 0.986326 -0.091681 -0.127389 0.976835 0.171947 0.172691 0.966520 0.189781 0.172691 0.966520 0.189781 -0.127389 0.976835 0.171947 0.166374 0.970721 -0.173264 0.075749 0.991382 0.106887 -0.172261 0.968116 -0.181874 -0.127389 0.976835 0.171947 -0.127389 0.976835 0.171947 -0.172261 0.968116 -0.181874 0.166374 0.970721 -0.173264 -0.081825 0.990989 -0.106048 0.045928 0.990508 -0.129553 -0.331383 0.924391 0.188909 -0.331383 0.924391 0.188909 0.045928 0.990508 -0.129553 0.294284 0.941372 0.164970 0.045928 0.990508 -0.129553 0.075749 0.991382 0.106887 0.294284 0.941372 0.164970 0.294284 0.941372 0.164970 0.075749 0.991382 0.106887 0.313849 0.887276 -0.337993 0.075749 0.991382 0.106887 -0.066961 0.977979 0.197671 0.313849 0.887276 -0.337993 0.313849 0.887276 -0.337993 -0.066961 0.977979 0.197671 -0.373779 0.850511 -0.370028 -0.081825 0.990989 -0.106048 -0.331383 0.924391 0.188909 -0.066961 0.977979 0.197671 -0.066961 0.977979 0.197671 -0.331383 0.924391 0.188909 -0.373779 0.850511 -0.370028 -0.081825 0.990989 -0.106048 0.282649 0.917847 0.278688 -0.605571 0.795411 -0.024609 -0.605571 0.795411 -0.024609 0.282649 0.917847 0.278688 -0.326060 0.901770 0.283720 -0.081825 0.990989 -0.106048 -0.066961 0.977979 0.197671 0.282649 0.917847 0.278688 0.282649 0.917847 0.278688 -0.066961 0.977979 0.197671 0.250089 0.963033 -0.100118;
	setAttr ".n[498:663]" -0.066961 0.977979 0.197671 -0.554105 0.797854 0.237478 0.250089 0.963033 -0.100118 0.250089 0.963033 -0.100118 -0.554105 0.797854 0.237478 -0.296199 0.949508 -0.103447 -0.554105 0.797854 0.237478 -0.605571 0.795411 -0.024609 -0.296199 0.949508 -0.103447 -0.296199 0.949508 -0.103447 -0.605571 0.795411 -0.024609 -0.326060 0.901770 0.283720 -0.095766 0.990378 0.099897 -0.392207 0.826863 0.403078 -0.148664 0.987754 -0.047347 -0.148664 0.987754 -0.047347 -0.392207 0.826863 0.403078 -0.414077 0.813784 -0.407793 -0.095766 0.990378 0.099897 0.553103 0.831905 0.044838 -0.392207 0.826863 0.403078 -0.392207 0.826863 0.403078 0.553103 0.831905 0.044838 0.392209 0.826861 0.403078 0.553103 0.831905 0.044838 0.798703 0.601651 0.009505 0.392209 0.826861 0.403078 0.392209 0.826861 0.403078 0.798703 0.601651 0.009505 0.414079 0.813783 -0.407794 0.798703 0.601651 0.009505 -0.148664 0.987754 -0.047347 0.414079 0.813783 -0.407794 0.414079 0.813783 -0.407794 -0.148664 0.987754 -0.047347 -0.414077 0.813784 -0.407793 -0.034771 0.998265 -0.047517 -0.127389 0.976835 0.171947 -0.419890 0.805561 -0.418048 -0.419890 0.805561 -0.418048 -0.127389 0.976835 0.171947 -0.419890 0.805561 0.418047 -0.095766 0.990378 0.099897 0.155385 0.917809 0.365351 -0.127389 0.976835 0.171947 -0.127389 0.976835 0.171947 0.155385 0.917809 0.365351 -0.419890 0.805561 0.418047 -0.095766 0.990378 0.099897 -0.148664 0.987754 -0.047347 0.155385 0.917809 0.365351 0.155385 0.917809 0.365351 -0.148664 0.987754 -0.047347 0.155386 0.917809 -0.365352 -0.148664 0.987754 -0.047347 -0.034771 0.998265 -0.047517 0.155386 0.917809 -0.365352 0.155386 0.917809 -0.365352 -0.034771 0.998265 -0.047517 -0.419890 0.805561 -0.418048 0.075749 0.991382 0.106887 -0.332386 0.865748 0.374166 0.078708 0.996847 -0.010079 0.078708 0.996847 -0.010079 -0.332386 0.865748 0.374166 -0.305585 0.868179 -0.391002 -0.127389 0.976835 0.171947 0.359323 0.836057 0.414604 0.075749 0.991382 0.106887 0.075749 0.991382 0.106887 0.359323 0.836057 0.414604 -0.332386 0.865748 0.374166 -0.034771 0.998265 -0.047517 0.370143 0.840893 -0.394832 -0.127389 0.976835 0.171947 -0.127389 0.976835 0.171947 0.370143 0.840893 -0.394832 0.359323 0.836057 0.414604 0.078708 0.996847 -0.010079 -0.305585 0.868179 -0.391002 -0.034771 0.998265 -0.047517 -0.034771 0.998265 -0.047517 -0.305585 0.868179 -0.391002 0.370143 0.840893 -0.394832 0.075749 0.991382 0.106887 0.424104 0.781528 0.457548 -0.066961 0.977979 0.197671 -0.066961 0.977979 0.197671 0.424104 0.781528 0.457548 -0.450146 0.768714 0.454365 0.078708 0.996847 -0.010079 0.455077 0.781816 -0.426227 0.075749 0.991382 0.106887 0.075749 0.991382 0.106887 0.455077 0.781816 -0.426227 0.424104 0.781528 0.457548 0.045956 0.998697 -0.022178 -0.423684 0.768484 -0.479504 0.078708 0.996847 -0.010079 0.078708 0.996847 -0.010079 -0.423684 0.768484 -0.479504 0.455077 0.781816 -0.426227 -0.066961 0.977979 0.197671 -0.450146 0.768714 0.454365 0.045956 0.998697 -0.022178 0.045956 0.998697 -0.022178 -0.450146 0.768714 0.454365 -0.423684 0.768484 -0.479504 -0.554105 0.797854 0.237478 -0.066961 0.977979 0.197671 -0.399861 0.819398 0.410730 -0.399861 0.819398 0.410730 -0.066961 0.977979 0.197671 0.399861 0.819397 0.410730 -0.066961 0.977979 0.197671 0.045956 0.998697 -0.022178 0.399861 0.819397 0.410730 0.399861 0.819397 0.410730 0.045956 0.998697 -0.022178 0.399861 0.819397 -0.410731 0.045956 0.998697 -0.022178 -0.785609 0.618553 0.014518 0.399861 0.819397 -0.410731 0.399861 0.819397 -0.410731 -0.785609 0.618553 0.014518 -0.399861 0.819397 -0.410731 -0.785609 0.618553 0.014518 -0.554105 0.797854 0.237478 -0.399861 0.819397 -0.410731 -0.399861 0.819397 -0.410731 -0.554105 0.797854 0.237478 -0.399861 0.819398 0.410730 -0.031942 0.643294 -0.764953 -0.148664 0.987754 -0.047347 -0.451102 0.769480 -0.452115 -0.451102 0.769480 -0.452115 -0.148664 0.987754 -0.047347 -0.451102 0.769480 0.452115 -0.148664 0.987754 -0.047347 0.798703 0.601651 0.009505 -0.451102 0.769480 0.452115 -0.451102 0.769480 0.452115 0.798703 0.601651 0.009505 0.451103 0.769479 0.452115 0.798703 0.601651 0.009505 0.641419 0.418707 -0.642858 0.451103 0.769479 0.452115 0.451103 0.769479 0.452115 0.641419 0.418707 -0.642858 0.451103 0.769479 -0.452115 0.641419 0.418707 -0.642858 -0.031942 0.643294 -0.764953 0.451103 0.769479 -0.452115 0.451103 0.769479 -0.452115 -0.031942 0.643294 -0.764953 -0.451102 0.769480 -0.452115 -0.034771 0.998265 -0.047517 -0.350823 0.884920 0.306333 -0.029853 0.791269 -0.610739 -0.029853 0.791269 -0.610739 -0.350823 0.884920 0.306333 -0.384096 0.846991 -0.367528 -0.034771 0.998265 -0.047517 -0.148664 0.987754 -0.047347 -0.350823 0.884920 0.306333 -0.350823 0.884920 0.306333;
	setAttr ".n[664:749]" -0.148664 0.987754 -0.047347 0.350822 0.884920 0.306333 -0.148664 0.987754 -0.047347 -0.031942 0.643294 -0.764953 0.350822 0.884920 0.306333 0.350822 0.884920 0.306333 -0.031942 0.643294 -0.764953 0.384096 0.846991 -0.367528 -0.031942 0.643294 -0.764953 -0.029853 0.791269 -0.610739 0.384096 0.846991 -0.367528 0.384096 0.846991 -0.367528 -0.029853 0.791269 -0.610739 -0.384096 0.846991 -0.367528 0.013866 0.848153 -0.529570 0.078708 0.996847 -0.010079 -0.327198 0.886449 -0.327337 -0.327198 0.886449 -0.327337 0.078708 0.996847 -0.010079 -0.358695 0.849028 0.387931 0.078708 0.996847 -0.010079 -0.034771 0.998265 -0.047517 -0.358695 0.849028 0.387931 -0.358695 0.849028 0.387931 -0.034771 0.998265 -0.047517 0.335152 0.861310 0.381860 -0.029853 0.791269 -0.610739 0.310536 0.892862 -0.326136 -0.034771 0.998265 -0.047517 -0.034771 0.998265 -0.047517 0.310536 0.892862 -0.326136 0.335152 0.861310 0.381860 -0.029853 0.791269 -0.610739 0.013866 0.848153 -0.529570 0.310536 0.892862 -0.326136 0.310536 0.892862 -0.326136 0.013866 0.848153 -0.529570 -0.327198 0.886449 -0.327337 0.045956 0.998697 -0.022178 0.078708 0.996847 -0.010079 -0.329179 0.862920 0.383418 -0.329179 0.862920 0.383418 0.078708 0.996847 -0.010079 0.387529 0.829669 0.401835 0.078708 0.996847 -0.010079 0.013866 0.848153 -0.529570 0.387529 0.829669 0.401835 0.387529 0.829669 0.401835 0.013866 0.848153 -0.529570 0.350584 0.892682 -0.283213 0.062244 0.812991 -0.578940 -0.315363 0.907341 -0.277991 0.013866 0.848153 -0.529570 0.013866 0.848153 -0.529570 -0.315363 0.907341 -0.277991 0.350584 0.892682 -0.283213 0.062244 0.812991 -0.578940 0.045956 0.998697 -0.022178 -0.315363 0.907341 -0.277991 -0.315363 0.907341 -0.277991 0.045956 0.998697 -0.022178 -0.329179 0.862920 0.383418 -0.785609 0.618553 0.014518 0.045956 0.998697 -0.022178 -0.450958 0.768573 0.453797 -0.450958 0.768573 0.453797 0.045956 0.998697 -0.022178 0.450958 0.768573 0.453797 0.062244 0.812991 -0.578940 0.434129 0.822732 -0.366939 0.045956 0.998697 -0.022178 0.045956 0.998697 -0.022178 0.434129 0.822732 -0.366939 0.450958 0.768573 0.453797 -0.603273 0.575495 -0.552147 -0.406593 0.834384 -0.372135 0.062244 0.812991 -0.578940 0.062244 0.812991 -0.578940 -0.406593 0.834384 -0.372135 0.434129 0.822732 -0.366939 -0.603273 0.575495 -0.552147 -0.785609 0.618553 0.014518 -0.406593 0.834384 -0.372135 -0.406593 0.834384 -0.372135 -0.785609 0.618553 0.014518 -0.450958 0.768573 0.453797;
	setAttr ".usz" 1.000000;
	setAttr ".uvst[0].uvsn" -type "string" "pPlaneShape1-map1";
	setAttr ".cuvs" -type "string" "pPlaneShape1-map1";
	setAttr ".uvst[0].uvsp[0:249]" 0.565838 0.646302 0.565838 0.531009 0.667096 0.544483 0.669326 0.646302 0.561134 0.525769 0.674030 0.525769 0.031279 0.316487 0.048625 0.197656 0.134767 0.189244 0.134767 0.316487 0.026575 0.322522 0.026575 0.183209 0.139471 0.183209 0.023178 0.168699 0.126088 0.178862 0.037037 0.016904 0.142869 0.016767 0.266534 0.368369 0.381827 0.368369 0.381827 0.521996 0.266534 0.521996 0.388120 0.368369 0.515823 0.368369 0.515823 0.521996 0.388120 0.521996 0.712469 0.346128 0.697758 0.188975 0.842985 0.198526 0.851229 0.353886 0.522602 0.368369 0.618611 0.368369 0.618611 0.521996 0.522602 0.521996 0.507160 0.871998 0.505225 0.768528 0.600623 0.766744 0.602558 0.870214 0.262462 0.200443 0.372928 0.200443 0.372928 0.351863 0.262462 0.351863 0.377950 0.359950 0.257440 0.359950 0.133033 0.881114 0.029998 0.887818 0.023178 0.777681 0.126212 0.770976 0.579036 0.339210 0.576470 0.197269 0.679669 0.206785 0.677983 0.348684 0.571449 0.190315 0.691958 0.190315 0.691958 0.354468 0.027542 0.619114 0.027542 0.488576 0.123551 0.488576 0.123551 0.619114 0.127915 0.645702 0.023178 0.645702 0.298345 0.182701 0.157560 0.189335 0.160015 0.032380 0.307541 0.024102 0.314627 0.196670 0.150475 0.196670 0.150475 0.016767 0.314627 0.016767 0.119946 0.344934 0.246627 0.347364 0.244024 0.484803 0.117342 0.482373 0.112329 0.326295 0.251641 0.326295 0.139135 0.488576 0.248263 0.494104 0.254428 0.637620 0.139135 0.637620 0.259669 0.645174 0.133895 0.645174 0.681984 0.760542 0.583395 0.760542 0.583395 0.650075 0.681984 0.650075 0.802619 0.733662 0.802619 0.634785 0.878148 0.634785 0.878148 0.733662 0.902992 0.630291 0.902992 0.738156 0.661200 0.181189 0.562525 0.186543 0.553920 0.022120 0.652595 0.016767 0.833159 0.491246 0.824725 0.364304 0.923373 0.357659 0.931806 0.484601 0.170739 0.885741 0.170739 0.770448 0.269615 0.770448 0.269615 0.885741 0.796319 0.741340 0.688401 0.741340 0.688401 0.630873 0.796319 0.630873 0.634187 0.871720 0.634187 0.764315 0.730196 0.764315 0.730196 0.871720 0.964645 0.353045 0.857028 0.353045 0.857028 0.188134 0.958972 0.191899 0.856727 0.622721 0.856727 0.495018 0.964645 0.495018 0.950874 0.615956 0.275745 0.885741 0.275745 0.770448 0.372753 0.770448 0.383663 0.885741 0.830898 0.620792 0.830898 0.495018 0.850928 0.500259 0.850928 0.615552 0.844312 0.615552 0.844312 0.500259 0.795851 0.500744 0.795851 0.626518 0.815880 0.621278 0.811625 0.519458 0.825099 0.512150 0.819091 0.621278 0.409992 0.650051 0.409992 0.762947 0.389962 0.758243 0.389962 0.654755 0.646947 0.358241 0.646947 0.497553 0.625766 0.491518 0.636601 0.364276 0.438777 0.650051 0.438777 0.762947 0.417596 0.758243 0.417596 0.654755 0.776637 0.626518 0.776637 0.500744 0.790051 0.505985 0.790051 0.621278 0.758171 0.184361 0.758171 0.016767 0.744757 0.023750 0.744757 0.177378 0.738141 0.177378 0.738141 0.023750 0.779189 0.016767 0.779189 0.184361 0.765774 0.177378 0.765774 0.023750 0.653399 0.497553 0.653399 0.358241 0.673429 0.364046 0.673429 0.491749 0.786039 0.184361 0.786039 0.016767 0.806068 0.023750 0.806068 0.177378 0.701062 0.358241 0.701062 0.497553 0.681032 0.491749 0.681032 0.364046 0.321801 0.196670 0.321801 0.016767 0.357765 0.024263 0.344869 0.181417 0.668137 0.185202 0.668699 0.016767 0.699377 0.032913 0.704101 0.178141 0.545911 0.016767 0.546473 0.195565 0.517431 0.188069 0.515233 0.032709 0.522384 0.029260 0.533079 0.181055 0.842714 0.016767 0.842714 0.184361 0.819646 0.162588 0.813672 0.023828 0.139984 0.886429 0.139421 0.774374 0.162637 0.770976 0.163511 0.876808 0.387387 0.016767 0.387387 0.196670 0.377982 0.192323 0.364171 0.030228 0.479396 0.871457 0.479396 0.766720 0.499426 0.771084 0.499426 0.867093 0.848674 0.184361 0.848674 0.016767 0.868704 0.023750 0.868704 0.177378 0.628388 0.764315 0.627825 0.870157 0.608358 0.864688 0.608358 0.768679 0.729975 0.016767 0.730538 0.185202 0.710508 0.178219 0.710508 0.024592 0.470592 0.650051 0.470030 0.762106 0.455896 0.757342 0.455896 0.653872 0.470592 0.762947 0.445229 0.759126 0.476546 0.762947 0.476546 0.650051 0.501909 0.655656 0.501910 0.759126 0.473597 0.766720 0.473597 0.871457 0.458900 0.865820 0.448234 0.770422 0.522331 0.646278 0.522331 0.525769 0.555335 0.530790 0.555335 0.641257 0.876307 0.184361 0.876307 0.016767 0.883363 0.024854 0.909311 0.176274 0.949840 0.016767 0.949840 0.184361 0.916836 0.176274 0.942784 0.024854 0.537066 0.650051 0.537066 0.762947 0.507864 0.754606 0.514846 0.651571 0.482220 0.646278 0.482220 0.525769 0.516532 0.534307 0.511422 0.644445 0.542866 0.762971 0.542866 0.650075;
	setAttr ".uvst[0].uvsp[250:437]" 0.570196 0.658416 0.577178 0.761451 0.476421 0.525769 0.476421 0.646278 0.454200 0.637740 0.449091 0.527602 0.565650 0.199338 0.565650 0.363491 0.549759 0.356537 0.544396 0.214596 0.443292 0.525769 0.443292 0.646278 0.422037 0.638691 0.416646 0.539744 0.538596 0.200443 0.538596 0.364596 0.518838 0.357569 0.501734 0.227031 0.405573 0.871457 0.405573 0.766720 0.425331 0.771084 0.425331 0.867093 0.405573 0.766720 0.442435 0.771084 0.482754 0.364596 0.482754 0.200443 0.495935 0.206087 0.493695 0.343526 0.708666 0.357659 0.708666 0.496971 0.737784 0.491958 0.721847 0.365276 0.732472 0.367167 0.743550 0.494108 0.476954 0.200443 0.476954 0.364596 0.450076 0.345956 0.447836 0.208517 0.412789 0.364596 0.412789 0.200443 0.415342 0.207997 0.442037 0.351513 0.406990 0.200443 0.406990 0.364596 0.383749 0.357042 0.404436 0.207997 0.933266 0.626494 0.933266 0.734359 0.917005 0.729721 0.909467 0.631132 0.394586 0.646278 0.394586 0.525769 0.410846 0.530790 0.410846 0.641257 0.940846 0.734359 0.940846 0.626494 0.964645 0.631132 0.957107 0.729721 0.359927 0.525769 0.359927 0.646278 0.383726 0.641257 0.383726 0.530790 0.388786 0.530790 0.388786 0.641257 0.935047 0.738132 0.935047 0.845998 0.915017 0.841503 0.915017 0.742627 0.379743 0.994251 0.379743 0.889514 0.399773 0.914357 0.399773 0.989887 0.373944 0.889514 0.373944 0.994251 0.353914 0.989887 0.353914 0.914357 0.909218 0.741929 0.909218 0.849794 0.892184 0.840897 0.895516 0.742222 0.393647 0.196670 0.393647 0.016767 0.420005 0.027184 0.410680 0.191607 0.860027 0.849794 0.860027 0.741929 0.883053 0.750827 0.886385 0.849502 0.449833 0.016767 0.449833 0.196670 0.436132 0.186253 0.426807 0.021831 0.829379 0.849794 0.829379 0.741929 0.854227 0.750755 0.853186 0.849402 0.786963 0.357659 0.786963 0.496971 0.751037 0.487463 0.762115 0.360522 0.766933 0.363463 0.766933 0.491167 0.823580 0.745113 0.823580 0.852978 0.788696 0.844152 0.787654 0.745505 0.750808 0.626518 0.750808 0.500744 0.770837 0.505985 0.770837 0.621278 0.761824 0.852978 0.761824 0.745113 0.781854 0.749607 0.781854 0.848484 0.715318 0.500744 0.715318 0.626518 0.735348 0.621278 0.735348 0.505985 0.745008 0.505985 0.745008 0.621278 0.756025 0.745113 0.756025 0.852978 0.735995 0.848484 0.735995 0.749607 0.319468 0.525769 0.319468 0.643497 0.290608 0.638592 0.290608 0.530674 0.299412 0.530930 0.309912 0.638336 0.255949 0.766676 0.255949 0.648947 0.284809 0.653852 0.284809 0.761770 0.354127 0.525769 0.354127 0.646278 0.325267 0.641257 0.325267 0.530790 0.250150 0.648947 0.250150 0.766676 0.240594 0.761514 0.230094 0.654108 0.338558 0.994251 0.338558 0.889514 0.348115 0.893878 0.348115 0.989887 0.332759 0.889514 0.332759 0.994251 0.312703 0.989887 0.312703 0.893878 0.224294 0.648947 0.224294 0.766676 0.200236 0.761619 0.208293 0.654003 0.456282 0.196670 0.456282 0.016767 0.480341 0.024263 0.480341 0.189174 0.170378 0.766676 0.170378 0.648947 0.191360 0.659676 0.194437 0.761619 0.508583 0.016767 0.508583 0.196670 0.492582 0.189174 0.487600 0.028029 0.144549 0.766676 0.144549 0.648947 0.164579 0.653852 0.164579 0.761770 0.818799 0.357659 0.818799 0.496971 0.793407 0.484401 0.798770 0.363463 0.109059 0.649475 0.109059 0.767203 0.129089 0.762298 0.134451 0.668150 0.138749 0.665290 0.138749 0.762298 0.709519 0.501326 0.709519 0.627100 0.679829 0.621860 0.679829 0.506567 0.103260 0.649475 0.103260 0.767203 0.073570 0.762298 0.073570 0.654380;
	setAttr ".ed[0:165]" 37 38 0 36 38 0 36 37 0 38 39 0 36 39 0 40 41 0 41 43 0 40 43 0 41 42 0 42 43 0 44 45 0 45 47 0 44 47 0 45 46 0 46 47 0 48 49 0 49 51 0 48 51 0 49 50 0 50 51 0 53 54 0 52 54 0 52 53 0 54 55 0 52 55 0 56 58 0 57 58 0 56 57 0 58 59 0 57 59 0 60 61 0 61 63 0 60 63 0 61 62 0 62 63 0 64 65 0 64 67 0 65 67 0 64 66 0 66 67 0 68 69 0 69 71 0 68 71 0 69 70 0 70 71 0 72 74 0 73 74 0 72 73 0 74 75 0 73 75 0 76 78 0 77 78 0 76 77 0 78 79 0 77 79 0 80 81 0 80 83 0 81 83 0 80 82 0 82 83 0 84 86 0 85 86 0 84 85 0 86 87 0 85 87 0 88 89 0 88 91 0 89 91 0 88 90 0 90 91 0 92 93 0 92 95 0 93 95 0 92 94 0 94 95 0 96 97 0 96 99 0 97 99 0 96 98 0 98 99 0 100 101 0 100 103 0 101 103 0 100 102 0 102 103 0 104 106 0 105 106 0 104 105 0 106 107 0 105 107 0 108 109 0 108 111 0 109 111 0 108 110 0 110 111 0 112 113 0 112 115 0 113 115 0 112 114 0 114 115 0 116 117 0 116 119 0 117 119 0 116 118 0 118 119 0 120 121 0 120 123 0 121 123 0 120 122 0 122 123 0 124 125 0 124 127 0 125 127 0 124 126 0 126 127 0 128 129 0 128 131 0 129 131 0 128 130 0 130 131 0 132 134 0 133 134 0 132 133 0 134 135 0 133 135 0 6 7 0 7 36 0 6 36 0 7 37 0 22 38 0 7 38 0 7 22 0 22 23 0 23 38 0 23 39 0 6 23 0 6 39 0 10 41 0 7 41 0 7 10 0 7 40 0 10 21 0 21 41 0 21 42 0 21 22 0 22 42 0 22 43 0 7 43 0 0 4 0 4 44 0 0 44 0 4 45 0 4 7 0 7 45 0 7 46 0 6 46 0 6 47 0 0 6 0 0 47 0 4 9 0 9 48 0 4 48 0 9 49 0 9 10 0 10 49 0 10 50 0;
	setAttr ".ed[166:331]" 7 50 0 7 51 0 4 51 0 9 12 0 12 52 0 9 52 0 12 53 0 13 54 0 12 54 0 12 13 0 10 13 0 10 54 0 10 55 0 10 52 0 10 57 0 21 57 0 10 56 0 13 56 0 13 58 0 13 20 0 20 58 0 20 59 0 20 21 0 21 59 0 12 15 0 15 60 0 12 60 0 15 61 0 15 16 0 16 61 0 16 62 0 13 63 0 16 63 0 13 16 0 12 63 0 13 64 0 20 64 0 20 65 0 16 66 0 13 66 0 19 67 0 16 67 0 16 19 0 19 65 0 19 20 0 1 15 0 1 68 0 15 68 0 1 69 0 8 70 0 1 70 0 1 8 0 8 16 0 16 70 0 16 71 0 15 71 0 16 72 0 19 72 0 19 73 0 8 74 0 16 74 0 18 75 0 8 75 0 8 18 0 18 73 0 18 19 0 19 25 0 19 77 0 25 77 0 19 76 0 18 78 0 19 78 0 18 24 0 24 78 0 24 79 0 24 25 0 25 79 0 20 26 0 20 81 0 26 81 0 20 80 0 19 80 0 19 82 0 25 83 0 19 83 0 25 26 0 26 83 0 21 27 0 21 85 0 27 85 0 21 84 0 20 86 0 21 86 0 26 86 0 26 87 0 26 85 0 26 27 0 21 89 0 22 89 0 21 88 0 27 88 0 27 90 0 27 28 0 28 90 0 28 91 0 28 89 0 22 28 0 22 92 0 23 92 0 23 93 0 28 92 0 28 94 0 28 29 0 29 94 0 29 95 0 23 29 0 23 95 0 25 96 0 31 96 0 25 31 0 31 97 0 24 96 0 24 98 0 24 30 0 30 98 0 30 99 0 30 31 0 31 99 0 26 32 0 26 101 0 32 101 0 26 100 0 25 102 0 26 102 0 31 102 0 31 103 0 31 32 0 32 103 0 27 104 0 33 104 0 27 33 0 33 105 0 26 106 0 27 106 0 32 107 0 26 107 0 32 105 0 32 33 0 27 108 0 28 108 0 28 109 0 33 110 0 27 110 0 34 111 0 33 111 0 33 34 0 34 109 0 28 34 0 28 113 0 29 113 0 28 112 0 34 112 0 34 114 0 34 35 0 35 114 0 35 115 0;
	setAttr ".ed[332:384]" 29 35 0 29 115 0 17 31 0 31 117 0 17 117 0 31 116 0 30 116 0 30 118 0 3 30 0 3 118 0 3 119 0 3 17 0 17 119 0 32 120 0 14 120 0 14 32 0 14 121 0 31 120 0 31 122 0 17 122 0 17 123 0 14 17 0 14 123 0 11 33 0 33 125 0 11 125 0 33 124 0 32 124 0 32 126 0 14 127 0 32 127 0 11 14 0 11 127 0 33 129 0 34 129 0 33 128 0 11 128 0 11 130 0 5 131 0 11 131 0 5 11 0 5 34 0 34 131 0 34 133 0 35 133 0 34 132 0 5 134 0 34 134 0 2 135 0 5 135 0 2 5 0 2 35 0 35 135 0;
	setAttr ".fc[0:249]" -type "polyFaces"  
		f 3 0 -2 2
		mu 0 3 1 2 0 
		f 3 1 3 -5
		mu 0 3 0 2 3 
		f 3 5 6 -8
		mu 0 3 6 7 9 
		f 3 -7 8 9
		mu 0 3 9 7 8 
		f 3 10 11 -13
		mu 0 3 17 18 20 
		f 3 -12 13 14
		mu 0 3 20 18 19 
		f 3 15 16 -18
		mu 0 3 21 22 24 
		f 3 -17 18 19
		mu 0 3 24 22 23 
		f 3 20 -22 22
		mu 0 3 26 27 25 
		f 3 21 23 -25
		mu 0 3 25 27 28 
		f 3 25 -27 -28
		mu 0 3 13 15 14 
		f 3 26 28 -30
		mu 0 3 14 15 16 
		f 3 30 31 -33
		mu 0 3 29 30 32 
		f 3 -32 33 34
		mu 0 3 32 30 31 
		f 3 -36 36 -38
		mu 0 3 33 34 36 
		f 3 -37 38 39
		mu 0 3 36 34 35 
		f 3 40 41 -43
		mu 0 3 37 38 40 
		f 3 -42 43 44
		mu 0 3 40 38 39 
		f 3 45 -47 -48
		mu 0 3 44 45 43 
		f 3 46 48 -50
		mu 0 3 43 45 46 
		f 3 50 -52 -53
		mu 0 3 48 49 47 
		f 3 51 53 -55
		mu 0 3 47 49 50 
		f 3 -56 56 -58
		mu 0 3 54 55 57 
		f 3 -57 58 59
		mu 0 3 57 55 56 
		f 3 60 -62 -63
		mu 0 3 61 62 60 
		f 3 61 63 -65
		mu 0 3 60 62 63 
		f 3 -66 66 -68
		mu 0 3 68 69 71 
		f 3 -67 68 69
		mu 0 3 71 69 70 
		f 3 -71 71 -73
		mu 0 3 74 75 77 
		f 3 -72 73 74
		mu 0 3 77 75 76 
		f 3 -76 76 -78
		mu 0 3 80 81 83 
		f 3 -77 78 79
		mu 0 3 83 81 82 
		f 3 -81 81 -83
		mu 0 3 84 85 87 
		f 3 -82 83 84
		mu 0 3 87 85 86 
		f 3 85 -87 -88
		mu 0 3 91 92 90 
		f 3 86 88 -90
		mu 0 3 90 92 93 
		f 3 -91 91 -93
		mu 0 3 94 95 97 
		f 3 -92 93 94
		mu 0 3 97 95 96 
		f 3 -96 96 -98
		mu 0 3 98 99 101 
		f 3 -97 98 99
		mu 0 3 101 99 100 
		f 3 -101 101 -103
		mu 0 3 102 103 105 
		f 3 -102 103 104
		mu 0 3 105 103 104 
		f 3 -106 106 -108
		mu 0 3 106 107 109 
		f 3 -107 108 109
		mu 0 3 109 107 108 
		f 3 -111 111 -113
		mu 0 3 110 111 113 
		f 3 -112 113 114
		mu 0 3 113 111 112 
		f 3 -116 116 -118
		mu 0 3 114 115 117 
		f 3 -117 118 119
		mu 0 3 117 115 116 
		f 3 120 -122 -123
		mu 0 3 119 120 118 
		f 3 121 123 -125
		mu 0 3 118 120 121 
		f 3 125 126 -128
		mu 0 3 122 123 125 
		f 3 -127 128 -3
		mu 0 3 125 123 124 
		f 3 129 -131 131
		mu 0 3 5 2 4 
		f 3 130 -1 -129
		mu 0 3 4 2 1 
		f 3 132 133 -130
		mu 0 3 128 129 131 
		f 3 -134 134 -4
		mu 0 3 131 129 130 
		f 3 -136 136 -135
		mu 0 3 134 135 137 
		f 3 -137 127 4
		mu 0 3 137 135 136 
		f 3 137 -139 139
		mu 0 3 11 7 10 
		f 3 138 -6 -141
		mu 0 3 10 7 6 
		f 3 141 142 -138
		mu 0 3 11 12 7 
		f 3 -143 143 -9
		mu 0 3 7 12 8 
		f 3 144 145 -144
		mu 0 3 138 139 141 
		f 3 -146 146 -10
		mu 0 3 141 139 140 
		f 3 -132 147 -147
		mu 0 3 142 143 145 
		f 3 -148 140 7
		mu 0 3 145 143 144 
		f 3 148 149 -151
		mu 0 3 146 147 149 
		f 3 -150 151 -11
		mu 0 3 149 147 148 
		f 3 152 153 -152
		mu 0 3 150 151 153 
		f 3 -154 154 -14
		mu 0 3 153 151 152 
		f 3 -126 155 -155
		mu 0 3 123 122 127 
		f 3 -156 156 -15
		mu 0 3 127 122 126 
		f 3 -158 158 -157
		mu 0 3 156 157 159 
		f 3 -159 150 12
		mu 0 3 159 157 158 
		f 3 159 160 -162
		mu 0 3 160 161 163 
		f 3 -161 162 -16
		mu 0 3 163 161 162 
		f 3 163 164 -163
		mu 0 3 164 165 167 
		f 3 -165 165 -19
		mu 0 3 167 165 166 
		f 3 -140 166 -166
		mu 0 3 168 169 171 
		f 3 -167 167 -20
		mu 0 3 171 169 170 
		f 3 -153 168 -168
		mu 0 3 151 150 155 
		f 3 -169 161 17
		mu 0 3 155 150 154 
		f 3 169 170 -172
		mu 0 3 172 173 175 
		f 3 -171 172 -23
		mu 0 3 175 173 174 
		f 3 173 -175 175
		mu 0 3 177 178 176 
		f 3 174 -21 -173
		mu 0 3 176 178 179 
		f 3 -177 177 -174
		mu 0 3 180 181 183 
		f 3 -178 178 -24
		mu 0 3 183 181 182 
		f 3 171 -180 -164
		mu 0 3 187 188 186 
		f 3 179 24 -179
		mu 0 3 186 188 189 
		f 3 -142 180 -182
		mu 0 3 12 11 14 
		f 3 -181 182 27
		mu 0 3 14 11 13 
		f 3 176 183 -183
		mu 0 3 181 180 185 
		f 3 -184 184 -26
		mu 0 3 185 180 184 
		f 3 185 186 -185
		mu 0 3 190 191 193 
		f 3 -187 187 -29
		mu 0 3 193 191 192 
		f 3 188 189 -188
		mu 0 3 194 195 197 
		f 3 -190 181 29
		mu 0 3 197 195 196 
		f 3 190 191 -193
		mu 0 3 198 199 201 
		f 3 -192 193 -31
		mu 0 3 201 199 200 
		f 3 194 195 -194
		mu 0 3 202 203 205 
		f 3 -196 196 -34
		mu 0 3 205 203 204 
		f 3 197 -199 -200
		mu 0 3 207 208 206 
		f 3 198 -35 -197
		mu 0 3 206 208 209 
		f 3 -176 200 -198
		mu 0 3 210 211 213 
		f 3 -201 192 32
		mu 0 3 213 211 212 
		f 3 201 -203 -186
		mu 0 3 215 216 214 
		f 3 202 35 -204
		mu 0 3 214 216 217 
		f 3 204 -206 199
		mu 0 3 218 219 215 
		f 3 205 -39 -202
		mu 0 3 215 219 216 
		f 3 206 -208 208
		mu 0 3 221 222 220 
		f 3 207 -40 -205
		mu 0 3 220 222 223 
		f 3 203 -210 210
		mu 0 3 225 226 224 
		f 3 209 37 -207
		mu 0 3 224 226 227 
		f 3 -212 212 -214
		mu 0 3 228 229 231 
		f 3 -213 214 -41
		mu 0 3 231 229 230 
		f 3 215 -217 217
		mu 0 3 233 234 232 
		f 3 216 -44 -215
		mu 0 3 232 234 235 
		f 3 218 219 -216
		mu 0 3 41 42 39 
		f 3 -220 220 -45
		mu 0 3 39 42 40 
		f 3 -195 221 -221
		mu 0 3 236 237 239 
		f 3 -222 213 42
		mu 0 3 239 237 238 
		f 3 222 -224 -209
		mu 0 3 241 242 240 
		f 3 223 47 -225
		mu 0 3 240 242 243 
		f 3 225 -227 -219
		mu 0 3 245 246 244 
		f 3 226 -46 -223
		mu 0 3 244 246 247 
		f 3 227 -229 229
		mu 0 3 249 250 248 
		f 3 228 -49 -226
		mu 0 3 248 250 251 
		f 3 224 -231 231
		mu 0 3 253 254 252 
		f 3 230 49 -228
		mu 0 3 252 254 255 
		f 3 -233 233 -235
		mu 0 3 256 257 259 
		f 3 -234 235 52
		mu 0 3 259 257 258 
		f 3 236 -238 -232
		mu 0 3 52 49 51 
		f 3 237 -51 -236
		mu 0 3 51 49 48 
		f 3 238 239 -237
		mu 0 3 52 53 49 
		f 3 -240 240 -54
		mu 0 3 49 53 50 
		f 3 241 242 -241
		mu 0 3 260 261 263 
		f 3 -243 234 54
		mu 0 3 263 261 262 
		f 3 -244 244 -246
		mu 0 3 264 265 267 
		f 3 -245 246 55
		mu 0 3 267 265 266 
		f 3 -211 247 -247
		mu 0 3 268 269 271 
		f 3 -248 248 -59
		mu 0 3 271 269 270 
		f 3 249 -251 232
		mu 0 3 272 273 269 
		f 3 250 -60 -249
		mu 0 3 269 273 270 
		f 3 251 252 -250
		mu 0 3 58 59 57 
		f 3 -253 245 57
		mu 0 3 57 59 54 
		f 3 -254 254 -256
		mu 0 3 64 65 60 
		f 3 -255 256 62
		mu 0 3 60 65 61 
		f 3 257 -259 -189
		mu 0 3 66 62 65 
		f 3 258 -61 -257
		mu 0 3 65 62 61 
		f 3 243 259 -258
		mu 0 3 66 67 62 
		f 3 -260 260 -64
		mu 0 3 62 67 63 
		f 3 255 -262 262
		mu 0 3 64 60 67 
		f 3 261 64 -261
		mu 0 3 67 60 63 
		f 3 -145 263 -265
		mu 0 3 72 73 68 
		f 3 -264 265 65
		mu 0 3 68 73 69 
		f 3 253 266 -266
		mu 0 3 274 275 277 
		f 3 -267 267 -69
		mu 0 3 277 275 276 
		f 3 268 269 -268
		mu 0 3 278 279 281 
		f 3 -270 270 -70
		mu 0 3 281 279 280 
		f 3 264 -272 -273
		mu 0 3 285 286 284 
		f 3 271 67 -271
		mu 0 3 284 286 287 
		f 3 273 -275 -133
		mu 0 3 128 132 129 
		f 3 274 70 -276
		mu 0 3 129 132 133 
		f 3 272 276 -274
		mu 0 3 288 289 291 
		f 3 -277 277 -74
		mu 0 3 291 289 290 
		f 3 278 279 -278
		mu 0 3 78 79 76 
		f 3 -280 280 -75
		mu 0 3 76 79 77 
		f 3 -282 282 -281
		mu 0 3 292 293 295 
		f 3 -283 275 72
		mu 0 3 295 293 294 
		f 3 283 -285 -286
		mu 0 3 297 298 296 
		f 3 284 75 -287
		mu 0 3 296 298 299 
		f 3 -242 287 -284
		mu 0 3 300 301 303 
		f 3 -288 288 -79
		mu 0 3 303 301 302 
		f 3 289 290 -289
		mu 0 3 304 305 307 
		f 3 -291 291 -80
		mu 0 3 307 305 306 
		f 3 292 293 -292
		mu 0 3 308 309 311 
		f 3 -294 286 77
		mu 0 3 311 309 310 
		f 3 -295 295 -297
		mu 0 3 314 315 317 
		f 3 -296 297 80
		mu 0 3 317 315 316 
		f 3 298 -300 -252
		mu 0 3 319 320 318 
		f 3 299 -84 -298
		mu 0 3 318 320 321 
		f 3 285 300 -299
		mu 0 3 88 89 86 
		f 3 -301 301 -85
		mu 0 3 86 89 87 
		f 3 302 303 -302
		mu 0 3 322 323 325 
		f 3 -304 296 82
		mu 0 3 325 323 324 
		f 3 304 -306 -307
		mu 0 3 327 328 326 
		f 3 305 87 -308
		mu 0 3 326 328 329 
		f 3 308 -310 -263
		mu 0 3 331 332 330 
		f 3 309 -86 -305
		mu 0 3 330 332 333 
		f 3 310 -312 294
		mu 0 3 335 336 334 
		f 3 311 -89 -309
		mu 0 3 334 336 337 
		f 3 307 -313 313
		mu 0 3 339 340 338 
		f 3 312 89 -311
		mu 0 3 338 340 341 
		f 3 314 -316 -269
		mu 0 3 278 282 279 
		f 3 315 90 -317
		mu 0 3 279 282 283 
		f 3 317 -319 306
		mu 0 3 343 344 342 
		f 3 318 -94 -315
		mu 0 3 342 344 345 
		f 3 319 -321 321
		mu 0 3 347 348 346 
		f 3 320 -95 -318
		mu 0 3 346 348 349 
		f 3 316 -323 -324
		mu 0 3 353 354 352 
		f 3 322 92 -320
		mu 0 3 352 354 355 
		f 3 -279 324 -326
		mu 0 3 356 357 359 
		f 3 -325 326 95
		mu 0 3 359 357 358 
		f 3 323 327 -327
		mu 0 3 360 361 363 
		f 3 -328 328 -99
		mu 0 3 363 361 362 
		f 3 329 330 -329
		mu 0 3 364 365 367 
		f 3 -331 331 -100
		mu 0 3 367 365 366 
		f 3 -333 333 -332
		mu 0 3 370 371 373 
		f 3 -334 325 97
		mu 0 3 373 371 372 
		f 3 334 335 -337
		mu 0 3 374 375 377 
		f 3 -336 337 100
		mu 0 3 377 375 376 
		f 3 -293 338 -338
		mu 0 3 309 308 313 
		f 3 -339 339 -104
		mu 0 3 313 308 312 
		f 3 -341 341 -340
		mu 0 3 380 381 383 
		f 3 -342 342 -105
		mu 0 3 383 381 382 
		f 3 343 344 -343
		mu 0 3 384 385 387 
		f 3 -345 336 102
		mu 0 3 387 385 386 
		f 3 345 -347 347
		mu 0 3 389 390 388 
		f 3 346 105 -349
		mu 0 3 388 390 391 
		f 3 -303 349 -346
		mu 0 3 392 393 395 
		f 3 -350 350 -109
		mu 0 3 395 393 394 
		f 3 -335 351 -351
		mu 0 3 375 374 379 
		f 3 -352 352 -110
		mu 0 3 379 374 378 
		f 3 -354 354 -353
		mu 0 3 396 397 399 
		f 3 -355 348 107
		mu 0 3 399 397 398 
		f 3 355 356 -358
		mu 0 3 400 401 403 
		f 3 -357 358 110
		mu 0 3 403 401 402 
		f 3 -314 359 -359
		mu 0 3 404 405 407 
		f 3 -360 360 -114
		mu 0 3 407 405 406 
		f 3 361 -363 -348
		mu 0 3 409 410 408 
		f 3 362 -115 -361
		mu 0 3 408 410 411 
		f 3 -364 364 -362
		mu 0 3 412 413 415 
		f 3 -365 357 112
		mu 0 3 415 413 414 
		f 3 -322 365 -367
		mu 0 3 347 346 351 
		f 3 -366 367 115
		mu 0 3 351 346 350 
		f 3 -356 368 -368
		mu 0 3 416 417 419 
		f 3 -369 369 -119
		mu 0 3 419 417 418 
		f 3 370 -372 -373
		mu 0 3 421 422 420 
		f 3 371 -120 -370
		mu 0 3 420 422 423 
		f 3 373 374 -371
		mu 0 3 424 425 427 
		f 3 -375 366 117
		mu 0 3 427 425 426 
		f 3 -330 375 -377
		mu 0 3 365 364 369 
		f 3 -376 377 122
		mu 0 3 369 364 368 
		f 3 378 -380 -374
		mu 0 3 424 428 425 
		f 3 379 -121 -378
		mu 0 3 425 428 429 
		f 3 380 -382 -383
		mu 0 3 431 432 430 
		f 3 381 -124 -379
		mu 0 3 430 432 433 
		f 3 383 384 -381
		mu 0 3 434 435 437 
		f 3 -385 376 124
		mu 0 3 437 435 436;
connectAttr "blinn2SG.msg" "materialInfo_1.sg";
connectAttr "blinn2SG.pa" ":renderPartition.st" -na;
connectAttr "blinn2.oc" "blinn2SG.ss";
connectAttr "blinn2.msg" "materialInfo_1.m";
connectAttr "|pPlane1|pPlaneShape1.iog" "blinn2SG.dsm" -na;
connectAttr "blinn2.msg" ":defaultShaderList1.s" -na;
connectAttr "defaultLightSet.msg" "lightLinker1.lnk[0].llnk";
connectAttr "blinn2SG.msg" "lightLinker1.lnk[0].olnk";
connectAttr "defaultLightSet.msg" "lightLinker1.slnk[0].sllk";
connectAttr "blinn2SG.msg" "lightLinker1.slnk[0].solk";
connectAttr "defaultLightSet.msg" "lightLinker1.lnk[1].llnk";
connectAttr ":initialShadingGroup.msg" "lightLinker1.lnk[1].olnk";
connectAttr "defaultLightSet.msg" "lightLinker1.slnk[1].sllk";
connectAttr ":initialShadingGroup.msg" "lightLinker1.slnk[1].solk";
connectAttr "lightLinker1.msg" ":lightList1.ln[0]";
connectAttr "place2dTexture_1.o" "file4.uv";
connectAttr "place2dTexture_1.ofs" "file4.fs";
connectAttr "place2dTexture_1.vt1" "file4.vt1";
connectAttr "place2dTexture_1.vt2" "file4.vt2";
connectAttr "place2dTexture_1.vt3" "file4.vt3";
connectAttr "place2dTexture_1.vc1" "file4.vc1";
connectAttr "place2dTexture_1.of" "file4.of";
connectAttr "place2dTexture_1.s" "file4.s";
connectAttr "place2dTexture_1.c" "file4.c";
connectAttr "place2dTexture_1.tf" "file4.tf";
connectAttr "place2dTexture_1.mu" "file4.mu";
connectAttr "place2dTexture_1.mv" "file4.mv";
connectAttr "place2dTexture_1.wu" "file4.wu";
connectAttr "place2dTexture_1.wv" "file4.wv";
connectAttr "place2dTexture_1.n" "file4.n";
connectAttr "place2dTexture_1.r" "file4.ro";
connectAttr "place2dTexture_1.re" "file4.re";
connectAttr "file4.msg" ":defaultTextureList1.tx" -na;
connectAttr "file4.oc" "blinn2.c";
connectAttr "file4.msg" "materialInfo_1.t" -na;
