<?xml version="1.0" encoding="utf-8"?>
<COLLADA xmlns="http://www.collada.org/2005/11/COLLADASchema" version="1.4.1">
  <asset>
    <contributor>
      <author>marc</author>
      <authoring_tool>Maya7.0 | ColladaMaya v3.05B</authoring_tool>
      <comments>ColladaMaya export options: bakeTransforms=0;exportPolygonMeshes=1;bakeLighting=0;isSampling=0;
curveConstrainSampling=0;removeStaticCurves=1;exportCameraAsLookat=0;
exportLights=1;exportCameras=1;exportJointsAndSkin=1;
exportAnimations=1;exportTriangles=1;exportInvisibleNodes=0;
exportNormals=1;exportTexCoords=1;
exportVertexColors=1;exportVertexColorsAnimation=0;exportTangents=0;
exportTexTangents=0;exportConstraints=1;exportPhysics=1;exportXRefs=1;
dereferenceXRefs=0;cameraXFov=0;cameraYFov=1</comments>
      <source_data>file:///E:/lux/work_static_objects/entities/pots/health.mb</source_data>
    </contributor>
    <created>2009-05-12T15:13:58Z</created>
    <modified>2009-05-12T15:13:58Z</modified>
    <unit meter="1" name="meter"/>
    <up_axis>Y_UP</up_axis>
  </asset>
  <library_physics_scenes>
    <physics_scene id="MayaNativePhysicsScene">
      <technique_common>
        <gravity>0 -980 0</gravity>
        <time_step>0.083</time_step>
      </technique_common>
    </physics_scene>
  </library_physics_scenes>
  <library_images>
    <image id="file1" name="file1">
      <init_from>file:///E:/lux/redist/entities/item/potion_sanity/potion_sanity.dds</init_from>
      <extra>
        <technique profile="MAYA">
          <dgnode_type>kFile</dgnode_type>
          <image_sequence>0</image_sequence>
        </technique>
      </extra>
    </image>
  </library_images>
  <library_materials>
    <material id="lambert2" name="lambert2">
      <instance_effect url="#lambert2-fx"/>
    </material>
  </library_materials>
  <library_effects>
    <effect id="lambert2-fx">
      <profile_COMMON>
        <newparam sid="file1-surface">
          <surface type="2D">
            <init_from>file1</init_from>
            <format>A8R8G8B8</format>
          </surface>
        </newparam>
        <newparam sid="file1-sampler">
          <sampler2D>
            <source>file1-surface</source>
            <wrap_s>WRAP</wrap_s>
            <wrap_t>WRAP</wrap_t>
            <minfilter>NONE</minfilter>
            <magfilter>NONE</magfilter>
            <mipfilter>NONE</mipfilter>
          </sampler2D>
        </newparam>
        <technique sid="common">
          <lambert>
            <emission>
              <color>0 0 0 1</color>
            </emission>
            <ambient>
              <color>0 0 0 1</color>
            </ambient>
            <diffuse>
              <texture texture="file1-sampler" texcoord="TEX0">
                <extra>
                  <technique profile="MAYA">
                    <wrapU>1</wrapU>
                    <wrapV>1</wrapV>
                    <mirrorU>0</mirrorU>
                    <mirrorV>0</mirrorV>
                    <coverageU>1</coverageU>
                    <coverageV>1</coverageV>
                    <translateFrameU>0</translateFrameU>
                    <translateFrameV>0</translateFrameV>
                    <rotateFrame>0</rotateFrame>
                    <stagger>0</stagger>
                    <fast>0</fast>
                    <repeatU>1</repeatU>
                    <repeatV>1</repeatV>
                    <offsetU>0</offsetU>
                    <offsetV>0</offsetV>
                    <rotateUV>0</rotateUV>
                    <noiseU>0</noiseU>
                    <noiseV>0</noiseV>
                    <blend_mode>NONE</blend_mode>
                  </technique>
                </extra>
              </texture>
            </diffuse>
            <transparent opaque="A_ONE">
              <texture texture="file1-sampler" texcoord="TEX1">
                <extra>
                  <technique profile="MAYA">
                    <wrapU>1</wrapU>
                    <wrapV>1</wrapV>
                    <mirrorU>0</mirrorU>
                    <mirrorV>0</mirrorV>
                    <coverageU>1</coverageU>
                    <coverageV>1</coverageV>
                    <translateFrameU>0</translateFrameU>
                    <translateFrameV>0</translateFrameV>
                    <rotateFrame>0</rotateFrame>
                    <stagger>0</stagger>
                    <fast>0</fast>
                    <repeatU>1</repeatU>
                    <repeatV>1</repeatV>
                    <offsetU>0</offsetU>
                    <offsetV>0</offsetV>
                    <rotateUV>0</rotateUV>
                    <noiseU>0</noiseU>
                    <noiseV>0</noiseV>
                    <blend_mode>NONE</blend_mode>
                  </technique>
                </extra>
              </texture>
            </transparent>
            <transparency>
              <float>1</float>
            </transparency>
          </lambert>
          <extra>
            <technique profile="FCOLLADA"/>
          </extra>
        </technique>
      </profile_COMMON>
    </effect>
  </library_effects>
  <library_geometries>
    <geometry id="pCylinderShape1" name="pCylinderShape1">
      <mesh>
        <source id="pCylinderShape1-positions" name="position">
          <float_array id="pCylinderShape1-positions-array" count="195">0.02256 0 -0.02256 0 0 -0.031904 -0.02256 0 -0.02256 -0.031904 0 0 -0.02256 0 0.02256 0 0 0.031904 0.02256 0 0.02256 0.031904 0 0 0.021246 0.222922 -0.021246 0 0.222922 -0.030047 -0.021246 0.222922 -0.021246 -0.030047 0.222922 0 -0.021246 0.222922 0.021246 0 0.222922 0.030047 0.021246 0.222922 0.021246 0.030047 0.222922 0 0 0.234311 0 0 0.125 -0.039332 0.027812 0.125 -0.027812 0.039332 0.125 0 0.027812 0.125 0.027812 0 0.125 0.039332 -0.027812 0.125 0.027812 -0.039332 0.125 0 -0.027812 0.125 -0.027812 0 0.181688 -0.020324 0.014371 0.181688 -0.014371 0.020324 0.181688 0 0.014371 0.181688 0.014371 0 0.181688 0.020324 -0.014371 0.181688 0.014371 -0.020324 0.181688 0 -0.014371 0.181688 -0.014371 0 0.189313 -0.031465 0.022249 0.189313 -0.022249 0.031465 0.189313 0 0.022249 0.189313 0.022249 0 0.189313 0.031465 -0.022249 0.189313 0.022249 -0.031465 0.189313 0 -0.022249 0.189313 -0.022249 0 0.199886 -0.031465 0.022249 0.199886 -0.022249 0.031465 0.199886 0 0.022249 0.199886 0.022249 0 0.199886 0.031465 -0.022249 0.199886 0.022249 -0.031465 0.199886 0 -0.022249 0.199886 -0.022249 0.011527 0.205812 0.011527 0 0.205812 0.016302 -0.011527 0.205812 0.011527 -0.016302 0.205812 0 -0.011527 0.205812 -0.011527 0 0.205812 -0.016302 0.011527 0.205812 -0.011527 0.016302 0.205812 0 0.013605 0.213555 0.013605 0 0.213555 0.01924 -0.013605 0.213555 0.013605 -0.01924 0.213555 0 -0.013605 0.213555 -0.013605 0 0.213555 -0.01924 0.013605 0.213555 -0.013605 0.01924 0.213555 0</float_array>
          <technique_common>
            <accessor source="#pCylinderShape1-positions-array" count="65" stride="3">
              <param name="X" type="float"/>
              <param name="Y" type="float"/>
              <param name="Z" type="float"/>
            </accessor>
          </technique_common>
        </source>
        <source id="pCylinderShape1-normals" name="normal">
          <float_array id="pCylinderShape1-normals-array" count="345">0.705862 -0.059317 -0.705862 0 -0.059317 -0.998239 0 0.132397 -0.991197 0.700882 0.132397 -0.700882 -0.705862 -0.059317 -0.705862 -0.700882 0.132397 -0.700882 -0.998239 -0.059317 0 -0.991197 0.132397 0 -0.705862 -0.059317 0.705862 -0.700882 0.132397 0.700882 0 -0.059317 0.998239 0 0.132398 0.991197 0.705862 -0.059317 0.705862 0.700882 0.132397 0.700882 0.998239 -0.059317 0 0.991197 0.132397 0 0 -1 0 0 -1 0 0 -1 0 0.250625 0.93508 -0.250626 0 0.935079 -0.354438 0 1 0 -0.250625 0.93508 -0.250625 -0.354438 0.93508 0 -0.250625 0.93508 0.250625 0 0.93508 0.354438 0.250625 0.93508 0.250625 0.354438 0.93508 0 0 -0.334028 -0.942563 0.666493 -0.334028 -0.666493 0.942563 -0.334029 -0.000000 0.666492 -0.334029 0.666493 -0.000000 -0.334028 0.942563 -0.666493 -0.334028 0.666493 -0.942563 -0.334028 0 -0.666493 -0.334028 -0.666493 0 -0.825241 -0.564781 0.39936 -0.825241 -0.39936 0.56478 -0.825241 -0.000000 0.399359 -0.825242 0.399359 -0.000000 -0.825241 0.56478 -0.39936 -0.825241 0.39936 -0.56478 -0.825241 0.000000 -0.39936 -0.825241 -0.39936 0.707107 0 -0.707107 0 0 -1 0 0 -1 0.707107 0 -0.707107 1 0 -0.000000 1 0 -0.000000 0.707107 0 0.707107 0.707107 0 0.707107 -0.000001 0 1 -0.000001 0 1 -0.707107 0 0.707107 -0.707107 0 0.707107 -1 0 0 -1 0 0 -0.707107 0 -0.707107 -0.707107 0 -0.707107 0.257362 0.931413 -0.257363 0 0.931413 -0.363965 0 0.931413 -0.363965 0.257362 0.931413 -0.257363 0.363965 0.931413 -0.000000 0.363965 0.931413 -0.000000 0.257361 0.931413 0.257362 0.257361 0.931413 0.257362 -0.000000 0.931413 0.363964 -0.000000 0.931413 0.363964 -0.257362 0.931413 0.257362 -0.257362 0.931413 0.257362 -0.363965 0.931413 -0.000000 -0.363965 0.931413 -0.000000 -0.257362 0.931413 -0.257362 -0.257362 0.931413 -0.257362 0 -0.354754 0.93496 0.661117 -0.354753 0.661117 0.577957 -0.576134 0.577958 0 -0.576134 0.817355 -0.661116 -0.354754 0.661116 -0.577957 -0.576135 0.577957 -0.93496 -0.354754 -0.000000 -0.817355 -0.576134 -0.000000 -0.661116 -0.354754 -0.661116 -0.577957 -0.576135 -0.577957 -0.000000 -0.354753 -0.93496 0 -0.576134 -0.817355 0.661116 -0.354752 -0.661117 0.577957 -0.576134 -0.577958 0.934961 -0.354751 0 0.817356 -0.576133 0.000000 0 -1 0 0 -1 0 0 -1 0 0 -1 0 0 -1 0 0 -1 0 0 -1 0 0 -1 0 0 -1 0 0 -1 0 0 -1 0 0 -1 0 0 -1 0 0 -1 0 0 -1 0 0.463126 -0.755664 0.463126 0 -0.755664 0.654959 -0.463126 -0.755664 0.463126 -0.654959 -0.755664 -0.000000 -0.463126 -0.755664 -0.463126 0 -0.755664 -0.654959 0.463126 -0.755664 -0.463126 0.654959 -0.755664 0.000000</float_array>
          <technique_common>
            <accessor source="#pCylinderShape1-normals-array" count="115" stride="3">
              <param name="X" type="float"/>
              <param name="Y" type="float"/>
              <param name="Z" type="float"/>
            </accessor>
          </technique_common>
        </source>
        <source id="pCylinderShape1-map1" name="map1">
          <float_array id="pCylinderShape1-map1-array" count="306">0.042098 0.720963 0.042098 0.78723 0.501251 0.78723 0.3482 0.720963 0.3482 0.78723 0.195149 0.720963 0.195149 0.78723 0.654302 0.720963 0.042098 0.78723 0.501251 0.720963 0.501251 0.78723 0.3482 0.720963 0.3482 0.78723 0.195149 0.720963 0.195149 0.78723 0.747997 0.934446 0.747485 0.849984 0.659435 0.946853 0.659435 0.946853 0.544476 0.832184 0.544476 0.957251 0.659435 0.946853 0.544476 0.957251 0.659435 0.946853 0.544476 0.957251 0.659435 0.946853 0.544476 0.957251 0.659435 0.842582 0.544476 0.832184 0.544476 0.957251 0.659435 0.946853 0.544476 0.957251 0.396445 0.990478 0.396445 0.990478 0.072799 0.000349 0.072799 0.484605 0.517079 0.484605 0.220893 0.000349 0.220893 0.484605 0.368986 0.000349 0.368986 0.484605 0.517079 0.000349 0.517079 0.484605 0.072799 0.000349 0.665172 0.484605 0.220893 0.000349 0.220893 0.484605 0.368986 0.000349 0.368986 0.484605 0.104129 0.704215 0.552585 0.704215 0.407625 0.704215 0.257154 0.704215 0.104129 0.704215 0.552585 0.704215 0.407625 0.704215 0.257154 0.704215 0.517079 0.000349 0.665172 0.000349 0.665172 0.484605 0.631755 0.704215 0.072799 0.484605 0.631755 0.704215 0.665172 0.000349 0.182254 0.704215 0.334154 0.704215 0.483662 0.704215 0.182254 0.704215 0.334154 0.704215 0.483662 0.704215 0.772435 0.616204 0.772346 0.683522 0.727775 0.701915 0.727913 0.597693 0.819884 0.731186 0.801374 0.775708 0.820099 0.568666 0.801706 0.524095 0.887203 0.731275 0.905595 0.775846 0.887417 0.568755 0.905928 0.524233 0.934866 0.683737 0.979388 0.702248 0.934955 0.616419 0.979526 0.598026 0.917145 0.004078 0.992771 0.081188 0.929694 0.106601 0.890512 0.06665 0.991722 0.18919 0.92915 0.162557 0.809143 0.003028 0.834556 0.066106 0.914611 0.264816 0.889199 0.201739 0.732033 0.078655 0.794605 0.105288 0.80661 0.263767 0.833243 0.201195 0.730984 0.186656 0.794061 0.161244 0.396445 0.990478 0.396445 0.990478 0.396445 0.990478 0.396445 0.798957 0.396445 0.990478 0.659435 0.946853 0.659435 0.946853 0.544476 0.957251 0.396445 0.990478 0.396445 0.990478 0.544476 0.832184 0.396445 0.798957 0.544476 0.832184 0.396445 0.798957 0.396445 0.798957 0.544476 0.832184 0.396445 0.798957 0.544476 0.832184 0.396445 0.798957 0.544476 0.832184 0.396445 0.798957 0.544476 0.957251 0.396445 0.798957 0.659435 0.842582 0.659435 0.842582 0.659435 0.842582 0.659435 0.842582 0.659435 0.842582 0.659435 0.842582 0.544476 0.832184 0.659435 0.842582 0.911852 0.269814 0.984829 0.34297 0.860033 0.394483 0.984702 0.446302 0.80852 0.269687 0.911546 0.519279 0.735364 0.342664 0.808215 0.519152 0.735238 0.445996 0.951908 0.933209 0.891309 0.789385 0.951395 0.848747 0.892546 0.993296 0.806847 0.789897 0.808083 0.993808 0.501251 0.720963 0.654301 0.720963 0.654301 0.78723 0.042098 0.720963 0.654302 0.78723</float_array>
          <technique_common>
            <accessor source="#pCylinderShape1-map1-array" count="153" stride="2">
              <param name="S" type="float"/>
              <param name="T" type="float"/>
            </accessor>
          </technique_common>
        </source>
        <vertices id="pCylinderShape1-vertices">
          <input semantic="POSITION" source="#pCylinderShape1-positions"/>
        </vertices>
        <triangles material="lambert2SG" count="126">
          <input semantic="VERTEX" source="#pCylinderShape1-vertices" offset="0"/>
          <input semantic="NORMAL" source="#pCylinderShape1-normals" offset="1"/>
          <input semantic="TEXCOORD" source="#pCylinderShape1-map1" offset="2" set="0"/>
          <p>17 2 59 18 3 36 1 1 58 0 0 57 1 1 58 18 3 36 24 5 38 17 2 35 2 4 37 1 1 34 2 4 37 17 2 35 23 7 40 24 5 38 3 6 39 2 4 37 3 6 39 24 5 38 22 9 42 23 7 40 4 8 41 3 6 39 4 8 41 23 7 40 21 11 44 22 9 42 5 10 63 4 8 41 5 10 63 22 9 42 20 13 46 21 11 61 6 12 45 5 10 43 6 12 45 21 11 61 19 15 48 20 13 46 7 14 47 6 12 45 7 14 47 20 13 46 18 3 36 19 15 48 0 0 57 7 14 47 0 0 57 19 15 48 4 16 142 6 17 143 5 18 144 8 19 133 9 20 134 16 21 135 9 20 134 10 22 136 16 21 135 10 22 136 11 23 138 16 21 135 11 23 138 12 24 140 16 21 135 12 24 140 13 25 141 16 21 135 13 25 141 14 26 139 16 21 135 14 26 139 15 27 137 16 21 135 15 27 137 8 19 133 16 21 135 18 3 36 17 2 59 26 29 50 17 2 59 25 28 60 26 29 50 19 15 48 18 3 36 27 30 51 18 3 36 26 29 69 27 30 51 20 13 46 19 15 48 28 31 52 19 15 48 27 30 68 28 31 52 21 11 61 20 13 46 29 32 53 20 13 46 28 31 67 29 32 53 22 9 42 21 11 44 30 33 54 21 11 44 29 32 62 30 33 54 23 7 40 22 9 42 31 34 55 22 9 42 30 33 66 31 34 55 24 5 38 23 7 40 32 35 56 23 7 40 31 34 65 32 35 56 17 2 35 24 5 38 25 28 49 24 5 38 32 35 64 25 28 49 33 36 72 34 37 73 25 28 71 26 29 70 25 28 71 34 37 73 34 37 73 35 38 77 26 29 70 27 30 76 26 29 70 35 38 77 35 38 77 36 39 81 27 30 76 28 31 80 27 30 76 36 39 81 36 39 81 37 40 85 28 31 80 29 32 84 28 31 80 37 40 85 37 40 85 38 41 83 29 32 84 30 33 82 29 32 84 38 41 83 38 41 83 39 42 79 30 33 82 31 34 78 30 33 82 39 42 79 39 42 79 40 43 75 31 34 78 32 35 74 31 34 78 40 43 75 40 43 75 33 36 72 32 35 74 25 28 71 32 35 74 33 36 72 34 44 148 33 45 149 42 47 2 33 45 149 41 46 150 42 47 2 35 48 3 34 44 148 43 49 4 34 44 148 42 47 2 43 49 4 36 50 5 35 48 3 44 51 6 35 48 3 43 49 4 44 51 6 37 52 151 36 50 5 45 53 8 36 50 5 44 51 6 45 53 8 38 54 9 37 52 7 46 55 10 37 52 7 45 53 152 46 55 10 39 56 11 38 54 9 47 57 12 38 54 9 46 55 10 47 57 12 40 58 13 39 56 11 48 59 14 39 56 11 47 57 12 48 59 14 33 45 0 40 58 13 41 46 1 40 58 13 48 59 14 41 46 1 42 60 86 41 61 87 55 63 89 41 61 87 54 62 88 55 63 89 43 64 92 42 60 86 56 65 93 42 60 86 55 63 89 56 65 93 44 66 96 43 64 92 49 67 97 43 64 92 56 65 93 49 67 97 45 68 100 44 66 96 50 69 101 44 66 96 49 67 97 50 69 101 46 70 98 45 68 100 51 71 99 45 68 100 50 69 101 51 71 99 47 72 94 46 70 98 52 73 95 46 70 98 51 71 99 52 73 95 48 74 90 47 72 94 53 75 91 47 72 94 52 73 95 53 75 91 41 61 87 48 74 90 54 62 88 48 74 90 53 75 91 54 62 88 57 78 123 58 79 121 49 77 18 50 76 129 49 77 18 58 79 121 58 79 20 59 81 119 50 76 17 51 80 128 50 76 17 59 81 119 59 81 22 60 83 117 51 80 21 52 82 127 51 80 21 60 83 117 60 83 24 61 85 131 52 82 23 53 84 132 52 82 23 61 85 131 61 85 26 62 87 28 53 84 25 54 86 27 53 84 25 62 87 28 62 87 109 63 89 114 54 86 108 55 88 126 54 86 108 63 89 114 63 89 29 64 91 112 55 88 107 56 90 125 55 88 107 64 91 112 64 91 31 57 78 19 56 90 30 49 77 130 56 90 30 57 78 19 6 92 143 3 93 145 7 94 146 4 95 142 3 96 145 6 97 143 7 98 146 2 99 147 0 100 16 7 101 146 3 102 145 2 103 147 0 104 16 2 105 147 1 106 15 14 107 32 13 108 122 57 78 123 58 79 121 57 78 123 13 108 122 13 108 33 12 109 120 58 79 20 59 81 119 58 79 20 12 109 120 12 109 102 11 110 118 59 81 22 60 83 117 59 81 22 11 110 118 11 110 103 10 111 116 60 83 24 61 85 131 60 83 24 10 111 116 10 111 104 9 112 105 61 85 26 62 87 28 61 85 26 9 112 105 9 112 110 8 113 115 62 87 109 63 89 114 62 87 109 8 113 115 8 113 111 15 114 113 63 89 29 64 91 112 63 89 29 15 114 113 15 114 106 14 107 124 64 91 31 57 78 19 64 91 31 14 107 124</p>
        </triangles>
      </mesh>
      <extra>
        <technique profile="MAYA">
          <double_sided>1</double_sided>
        </technique>
      </extra>
    </geometry>
  </library_geometries>
  <library_visual_scenes>
    <visual_scene id="VisualSceneNode" name="health">
      <node id="pCylinder1" name="pCylinder1" type="NODE">
        <rotate sid="rotateZ">0 0 1 0</rotate>
        <rotate sid="rotateY">0 1 0 0</rotate>
        <rotate sid="rotateX">1 0 0 0</rotate>
        <instance_geometry url="#pCylinderShape1">
          <bind_material>
            <technique_common>
              <instance_material symbol="lambert2SG" target="#lambert2">
                <bind_vertex_input semantic="TEX0" input_semantic="TEXCOORD" input_set="0"/>
                <bind_vertex_input semantic="TEX1" input_semantic="TEXCOORD" input_set="0"/>
              </instance_material>
            </technique_common>
          </bind_material>
        </instance_geometry>
      </node>
      <extra>
        <technique profile="FCOLLADA">
          <start_time>0.041666</start_time>
          <end_time>2</end_time>
        </technique>
      </extra>
    </visual_scene>
  </library_visual_scenes>
  <scene>
    <instance_physics_scene url="#MayaNativePhysicsScene"/>
    <instance_visual_scene url="#VisualSceneNode"/>
  </scene>
</COLLADA>
